%YAML 1.1
%TAG !u! tag:unity3d.com,2011:
--- !u!114 &6699258049702185547
MonoBehaviour:
  m_ObjectHideFlags: 0
  m_CorrespondingSourceObject: {fileID: 0}
  m_PrefabInstance: {fileID: 0}
  m_PrefabAsset: {fileID: 0}
  m_GameObject: {fileID: 7508246088768755821}
  m_Enabled: 1
  m_EditorHideFlags: 0
  m_Script: {fileID: 11500000, guid: c73fc4152377f42699f7dbef37ed6441, type: 3}
  m_Name: 
  m_EditorClassIdentifier: 
  duration: 30
  OnTimeout:
    m_PersistentCalls:
      m_Calls:
      - m_Target: {fileID: 7508246088768755827}
        m_MethodName: Die
        m_Mode: 1
        m_Arguments:
          m_ObjectArgument: {fileID: 0}
          m_ObjectArgumentAssemblyTypeName: UnityEngine.Object, UnityEngine
          m_IntArgument: 0
          m_FloatArgument: 0
          m_StringArgument: 
          m_BoolArgument: 0
        m_CallState: 2
--- !u!114 &7118999700667197527
MonoBehaviour:
  m_ObjectHideFlags: 0
  m_CorrespondingSourceObject: {fileID: 0}
  m_PrefabInstance: {fileID: 0}
  m_PrefabAsset: {fileID: 0}
  m_GameObject: {fileID: 7508246088768755821}
  m_Enabled: 1
  m_EditorHideFlags: 0
  m_Script: {fileID: 11500000, guid: 073797afb82c5a1438f328866b10b3f0, type: 3}
  m_Name: 
  m_EditorClassIdentifier: 
  m_LightType: 3
  m_BlendStyleIndex: 1
  m_FalloffIntensity: 0.7
  m_Color: {r: 0.972, g: 0.81031287, b: 0.38588402, a: 1}
  m_Intensity: 1
  m_LightVolumeOpacity: 0
  m_ApplyToSortingLayers: 00000000ab08fa61d1f7da46
  m_LightCookieSprite: {fileID: 0}
  m_UseNormalMap: 1
  m_LightOrder: 0
  m_AlphaBlendOnOverlap: 0
  m_ShadowIntensity: 0
  m_ShadowVolumeIntensity: 0
  m_PointLightInnerAngle: 360
  m_PointLightOuterAngle: 360
  m_PointLightInnerRadius: 0.1
  m_PointLightOuterRadius: 1
  m_PointLightDistance: 2
  m_PointLightQuality: 0
  m_ShapeLightParametricSides: 5
  m_ShapeLightParametricAngleOffset: 0
  m_ShapeLightParametricRadius: 1
  m_ShapeLightFalloffSize: 0.5
  m_ShapeLightFalloffOffset: {x: 0, y: 0}
  m_ShapePath:
  - {x: -0.5, y: -0.5, z: 0}
  - {x: 0.5, y: -0.5, z: 0}
  - {x: 0.5, y: 0.5, z: 0}
  - {x: -0.5, y: 0.5, z: 0}
--- !u!1001 &6861674569598404640
PrefabInstance:
  m_ObjectHideFlags: 0
  serializedVersion: 2
  m_Modification:
    m_TransformParent: {fileID: 0}
    m_Modifications:
    - target: {fileID: 3966323970981597261, guid: ad06851623512478ba305969ed492e26,
        type: 3}
      propertyPath: m_Name
      value: pickup health
      objectReference: {fileID: 0}
    - target: {fileID: 3966323970981597261, guid: ad06851623512478ba305969ed492e26,
        type: 3}
      propertyPath: m_Layer
      value: 10
      objectReference: {fileID: 0}
    - target: {fileID: 3966323970981597265, guid: ad06851623512478ba305969ed492e26,
        type: 3}
      propertyPath: m_Mass
      value: 0.034179688
      objectReference: {fileID: 0}
    - target: {fileID: 3966323970981597266, guid: ad06851623512478ba305969ed492e26,
        type: 3}
      propertyPath: m_Controller
      value: 
      objectReference: {fileID: 22100000, guid: 0d72a49c4e09141e894392ab5b05cf22,
        type: 2}
    - target: {fileID: 3966323970981597267, guid: ad06851623512478ba305969ed492e26,
        type: 3}
      propertyPath: unique
      value: 3
      objectReference: {fileID: 0}
    - target: {fileID: 3966323970981597267, guid: ad06851623512478ba305969ed492e26,
        type: 3}
      propertyPath: renderer
      value: 
      objectReference: {fileID: 7508246088768755830}
    - target: {fileID: 3966323970981597267, guid: ad06851623512478ba305969ed492e26,
        type: 3}
      propertyPath: MaxHealth
      value: 1
      objectReference: {fileID: 0}
    - target: {fileID: 3966323970981597267, guid: ad06851623512478ba305969ed492e26,
        type: 3}
      propertyPath: uniqueInt0
      value: 3
      objectReference: {fileID: 0}
    - target: {fileID: 3966323970981597267, guid: ad06851623512478ba305969ed492e26,
        type: 3}
      propertyPath: uniqueFloat0
      value: 0
      objectReference: {fileID: 0}
    - target: {fileID: 3966323970981597267, guid: ad06851623512478ba305969ed492e26,
        type: 3}
      propertyPath: CanTakeDamage
      value: 1
      objectReference: {fileID: 0}
    - target: {fileID: 3966323970981597267, guid: ad06851623512478ba305969ed492e26,
        type: 3}
      propertyPath: EnableHighlight
      value: 0
      objectReference: {fileID: 0}
    - target: {fileID: 3966323970981597267, guid: ad06851623512478ba305969ed492e26,
        type: 3}
      propertyPath: SelectOnContact
      value: 1
      objectReference: {fileID: 0}
    - target: {fileID: 3966323970981597267, guid: ad06851623512478ba305969ed492e26,
        type: 3}
      propertyPath: SpawnOnDeath.Array.size
      value: 0
      objectReference: {fileID: 0}
    - target: {fileID: 3966323970981597267, guid: ad06851623512478ba305969ed492e26,
        type: 3}
      propertyPath: SpawnOnDeath.Array.data[0].prefab
      value: 
      objectReference: {fileID: 1227316525270448, guid: 05e0cbf9577c34e97ab17dc9d4638a7a,
        type: 3}
    - target: {fileID: 3966323970981597267, guid: ad06851623512478ba305969ed492e26,
        type: 3}
      propertyPath: SpawnOnDeath.Array.data[1].prefab
      value: 
      objectReference: {fileID: 1684524027640324, guid: 36c64415a816b40c4ad0ca7aff871e30,
        type: 3}
    - target: {fileID: 3966323970981597267, guid: ad06851623512478ba305969ed492e26,
        type: 3}
      propertyPath: SpawnOnDeath.Array.data[0].alwaysSpawn
      value: 1
      objectReference: {fileID: 0}
    - target: {fileID: 3966323970981597267, guid: ad06851623512478ba305969ed492e26,
        type: 3}
      propertyPath: SpawnOnDeath.Array.data[1].alwaysSpawn
      value: 1
      objectReference: {fileID: 0}
    - target: {fileID: 3966323970981597270, guid: ad06851623512478ba305969ed492e26,
        type: 3}
      propertyPath: m_Sprite
      value: 
      objectReference: {fileID: -7826832691570071239, guid: 64314a0420c93471b9990c7b9f080a39,
        type: 3}
    - target: {fileID: 3966323970981597270, guid: ad06851623512478ba305969ed492e26,
        type: 3}
      propertyPath: m_SortingLayer
      value: 1
      objectReference: {fileID: 0}
    - target: {fileID: 3966323970981597270, guid: ad06851623512478ba305969ed492e26,
        type: 3}
      propertyPath: m_SortingLayerID
      value: 1643776171
      objectReference: {fileID: 0}
    - target: {fileID: 3966323970981597271, guid: ad06851623512478ba305969ed492e26,
        type: 3}
      propertyPath: m_RootOrder
      value: 0
      objectReference: {fileID: 0}
    - target: {fileID: 3966323970981597271, guid: ad06851623512478ba305969ed492e26,
        type: 3}
      propertyPath: m_LocalPosition.x
      value: 0
      objectReference: {fileID: 0}
    - target: {fileID: 3966323970981597271, guid: ad06851623512478ba305969ed492e26,
        type: 3}
      propertyPath: m_LocalPosition.y
      value: 0
      objectReference: {fileID: 0}
    - target: {fileID: 3966323970981597271, guid: ad06851623512478ba305969ed492e26,
        type: 3}
      propertyPath: m_LocalPosition.z
      value: 0
      objectReference: {fileID: 0}
    - target: {fileID: 3966323970981597271, guid: ad06851623512478ba305969ed492e26,
        type: 3}
      propertyPath: m_LocalRotation.w
      value: 1
      objectReference: {fileID: 0}
    - target: {fileID: 3966323970981597271, guid: ad06851623512478ba305969ed492e26,
        type: 3}
      propertyPath: m_LocalRotation.x
      value: 0
      objectReference: {fileID: 0}
    - target: {fileID: 3966323970981597271, guid: ad06851623512478ba305969ed492e26,
        type: 3}
      propertyPath: m_LocalRotation.y
      value: 0
      objectReference: {fileID: 0}
    - target: {fileID: 3966323970981597271, guid: ad06851623512478ba305969ed492e26,
        type: 3}
      propertyPath: m_LocalRotation.z
      value: 0
      objectReference: {fileID: 0}
    - target: {fileID: 3966323970981597271, guid: ad06851623512478ba305969ed492e26,
        type: 3}
      propertyPath: m_LocalEulerAnglesHint.x
      value: 0
      objectReference: {fileID: 0}
    - target: {fileID: 3966323970981597271, guid: ad06851623512478ba305969ed492e26,
        type: 3}
      propertyPath: m_LocalEulerAnglesHint.y
      value: 0
      objectReference: {fileID: 0}
    - target: {fileID: 3966323970981597271, guid: ad06851623512478ba305969ed492e26,
        type: 3}
      propertyPath: m_LocalEulerAnglesHint.z
      value: 0
      objectReference: {fileID: 0}
    - target: {fileID: 5932741712758824715, guid: ad06851623512478ba305969ed492e26,
        type: 3}
      propertyPath: m_SpriteTilingProperty.oldSize.x
      value: 0.25
      objectReference: {fileID: 0}
    - target: {fileID: 5932741712758824715, guid: ad06851623512478ba305969ed492e26,
        type: 3}
      propertyPath: m_SpriteTilingProperty.oldSize.y
      value: 0.1875
      objectReference: {fileID: 0}
    m_RemovedComponents: []
  m_SourcePrefab: {fileID: 100100000, guid: ad06851623512478ba305969ed492e26, type: 3}
--- !u!1 &7508246088768755821 stripped
GameObject:
  m_CorrespondingSourceObject: {fileID: 3966323970981597261, guid: ad06851623512478ba305969ed492e26,
    type: 3}
  m_PrefabInstance: {fileID: 6861674569598404640}
  m_PrefabAsset: {fileID: 0}
--- !u!114 &7508246088768755827 stripped
MonoBehaviour:
  m_CorrespondingSourceObject: {fileID: 3966323970981597267, guid: ad06851623512478ba305969ed492e26,
    type: 3}
  m_PrefabInstance: {fileID: 6861674569598404640}
  m_PrefabAsset: {fileID: 0}
  m_GameObject: {fileID: 7508246088768755821}
  m_Enabled: 1
  m_EditorHideFlags: 0
  m_Script: {fileID: 11500000, guid: 93c067c16413d40dba78137e8499cb98, type: 3}
  m_Name: 
  m_EditorClassIdentifier: 
--- !u!212 &7508246088768755830 stripped
SpriteRenderer:
  m_CorrespondingSourceObject: {fileID: 3966323970981597270, guid: ad06851623512478ba305969ed492e26,
    type: 3}
  m_PrefabInstance: {fileID: 6861674569598404640}
  m_PrefabAsset: {fileID: 0}
