%YAML 1.1
%TAG !u! tag:unity3d.com,2011:
--- !u!221 &22100000
AnimatorOverrideController:
  m_ObjectHideFlags: 0
  m_CorrespondingSourceObject: {fileID: 0}
  m_PrefabInstance: {fileID: 0}
  m_PrefabAsset: {fileID: 0}
  m_Name: pickup health aoc
  m_Controller: {fileID: 9100000, guid: f62018aaf2e5145f580861b366e28571, type: 2}
  m_Clips:
  - m_OriginalClip: {fileID: 7400000, guid: fa6dfee2985c84ac9a0cc21ac584d94e, type: 2}
    m_OverrideClip: {fileID: 7400000, guid: a559ea4d468b54e709c431ce5c5eabbc, type: 2}
