%YAML 1.1
%TAG !u! tag:unity3d.com,2011:
--- !u!1 &2333943229926843869
GameObject:
  m_ObjectHideFlags: 0
  m_CorrespondingSourceObject: {fileID: 0}
  m_PrefabInstance: {fileID: 0}
  m_PrefabAsset: {fileID: 0}
  serializedVersion: 6
  m_Component:
  - component: {fileID: 2071509726473051411}
  - component: {fileID: 5603706778292949128}
  m_Layer: 16
  m_Name: New Sprite
  m_TagString: Untagged
  m_Icon: {fileID: 0}
  m_NavMeshLayer: 0
  m_StaticEditorFlags: 0
  m_IsActive: 1
--- !u!4 &2071509726473051411
Transform:
  m_ObjectHideFlags: 0
  m_CorrespondingSourceObject: {fileID: 0}
  m_PrefabInstance: {fileID: 0}
  m_PrefabAsset: {fileID: 0}
  m_GameObject: {fileID: 2333943229926843869}
  m_LocalRotation: {x: 0, y: 0, z: 0, w: 1}
  m_LocalPosition: {x: -0.00001, y: 0.0006, z: 0}
  m_LocalScale: {x: 0.6316209, y: 0.62205267, z: 1}
  m_Children: []
  m_Father: {fileID: 1381712471622596386}
  m_RootOrder: 0
  m_LocalEulerAnglesHint: {x: 0, y: 0, z: 0}
--- !u!212 &5603706778292949128
SpriteRenderer:
  m_ObjectHideFlags: 0
  m_CorrespondingSourceObject: {fileID: 0}
  m_PrefabInstance: {fileID: 0}
  m_PrefabAsset: {fileID: 0}
  m_GameObject: {fileID: 2333943229926843869}
  m_Enabled: 1
  m_CastShadows: 0
  m_ReceiveShadows: 0
  m_DynamicOccludee: 1
  m_MotionVectors: 1
  m_LightProbeUsage: 1
  m_ReflectionProbeUsage: 1
  m_RayTracingMode: 0
  m_RenderingLayerMask: 1
  m_RendererPriority: 0
  m_Materials:
  - {fileID: 2100000, guid: 9699952054db9432e9da4849d76b227f, type: 2}
  m_StaticBatchInfo:
    firstSubMesh: 0
    subMeshCount: 0
  m_StaticBatchRoot: {fileID: 0}
  m_ProbeAnchor: {fileID: 0}
  m_LightProbeVolumeOverride: {fileID: 0}
  m_ScaleInLightmap: 1
  m_ReceiveGI: 1
  m_PreserveUVs: 0
  m_IgnoreNormalsForChartDetection: 0
  m_ImportantGI: 0
  m_StitchLightmapSeams: 1
  m_SelectedEditorRenderState: 0
  m_MinimumChartSize: 4
  m_AutoUVMaxDistance: 0.5
  m_AutoUVMaxAngle: 89
  m_LightmapParameters: {fileID: 0}
  m_SortingLayerID: 0
  m_SortingLayer: 0
  m_SortingOrder: 2
  m_Sprite: {fileID: 2939400469996935408, guid: 64314a0420c93471b9990c7b9f080a39,
    type: 3}
  m_Color: {r: 1, g: 1, b: 1, a: 1}
  m_FlipX: 0
  m_FlipY: 0
  m_DrawMode: 0
  m_Size: {x: 0.25, y: 0.25}
  m_AdaptiveModeThreshold: 0.5
  m_SpriteTileMode: 0
  m_WasSpriteAssigned: 1
  m_MaskInteraction: 0
  m_SpriteSortPoint: 0
--- !u!1001 &2605300013377726325
PrefabInstance:
  m_ObjectHideFlags: 0
  serializedVersion: 2
  m_Modification:
    m_TransformParent: {fileID: 0}
    m_Modifications:
    - target: {fileID: 3966323970981597261, guid: ad06851623512478ba305969ed492e26,
        type: 3}
      propertyPath: m_Name
      value: weapon pickup flame
      objectReference: {fileID: 0}
    - target: {fileID: 3966323970981597265, guid: ad06851623512478ba305969ed492e26,
        type: 3}
      propertyPath: m_Mass
      value: 0.034179688
      objectReference: {fileID: 0}
    - target: {fileID: 3966323970981597267, guid: ad06851623512478ba305969ed492e26,
        type: 3}
      propertyPath: weapon
      value: 
      objectReference: {fileID: 11400000, guid: 1081e0f6832234d68b5f41cf3b827540,
        type: 2}
    - target: {fileID: 3966323970981597267, guid: ad06851623512478ba305969ed492e26,
        type: 3}
      propertyPath: weaponDefinition
      value: 
      objectReference: {fileID: 11400000, guid: 1081e0f6832234d68b5f41cf3b827540,
        type: 2}
    - target: {fileID: 3966323970981597271, guid: ad06851623512478ba305969ed492e26,
        type: 3}
      propertyPath: m_RootOrder
      value: 0
      objectReference: {fileID: 0}
    - target: {fileID: 3966323970981597271, guid: ad06851623512478ba305969ed492e26,
        type: 3}
      propertyPath: m_LocalPosition.x
      value: 0
      objectReference: {fileID: 0}
    - target: {fileID: 3966323970981597271, guid: ad06851623512478ba305969ed492e26,
        type: 3}
      propertyPath: m_LocalPosition.y
      value: 0
      objectReference: {fileID: 0}
    - target: {fileID: 3966323970981597271, guid: ad06851623512478ba305969ed492e26,
        type: 3}
      propertyPath: m_LocalPosition.z
      value: 0
      objectReference: {fileID: 0}
    - target: {fileID: 3966323970981597271, guid: ad06851623512478ba305969ed492e26,
        type: 3}
      propertyPath: m_LocalRotation.w
      value: 1
      objectReference: {fileID: 0}
    - target: {fileID: 3966323970981597271, guid: ad06851623512478ba305969ed492e26,
        type: 3}
      propertyPath: m_LocalRotation.x
      value: 0
      objectReference: {fileID: 0}
    - target: {fileID: 3966323970981597271, guid: ad06851623512478ba305969ed492e26,
        type: 3}
      propertyPath: m_LocalRotation.y
      value: 0
      objectReference: {fileID: 0}
    - target: {fileID: 3966323970981597271, guid: ad06851623512478ba305969ed492e26,
        type: 3}
      propertyPath: m_LocalRotation.z
      value: 0
      objectReference: {fileID: 0}
    - target: {fileID: 3966323970981597271, guid: ad06851623512478ba305969ed492e26,
        type: 3}
      propertyPath: m_LocalEulerAnglesHint.x
      value: 0
      objectReference: {fileID: 0}
    - target: {fileID: 3966323970981597271, guid: ad06851623512478ba305969ed492e26,
        type: 3}
      propertyPath: m_LocalEulerAnglesHint.y
      value: 0
      objectReference: {fileID: 0}
    - target: {fileID: 3966323970981597271, guid: ad06851623512478ba305969ed492e26,
        type: 3}
      propertyPath: m_LocalEulerAnglesHint.z
      value: 0
      objectReference: {fileID: 0}
    m_RemovedComponents: []
  m_SourcePrefab: {fileID: 100100000, guid: ad06851623512478ba305969ed492e26, type: 3}
--- !u!4 &1381712471622596386 stripped
Transform:
  m_CorrespondingSourceObject: {fileID: 3966323970981597271, guid: ad06851623512478ba305969ed492e26,
    type: 3}
  m_PrefabInstance: {fileID: 2605300013377726325}
  m_PrefabAsset: {fileID: 0}
