%YAML 1.1
%TAG !u! tag:unity3d.com,2011:
--- !u!114 &11400000
MonoBehaviour:
  m_ObjectHideFlags: 0
  m_CorrespondingSourceObject: {fileID: 0}
  m_PrefabInstance: {fileID: 0}
  m_PrefabAsset: {fileID: 0}
  m_GameObject: {fileID: 0}
  m_Enabled: 1
  m_EditorHideFlags: 0
  m_Script: {fileID: 11500000, guid: 04394a018bd0446538c88f8afb7a48be, type: 3}
  m_Name: Stickybomb
  m_EditorClassIdentifier: 
  Icon: {fileID: 0}
  AnimatedIcon: {fileID: 0}
  Cursor: {fileID: 5629195679260521713, guid: 64314a0420c93471b9990c7b9f080a39, type: 3}
  Prefab: {fileID: 0}
  MountType: 1
  PickupPrefab: {fileID: 0}
  FireArmAlwaysActive: 0
  FireArmSprite: {fileID: -9189656420175229218, guid: 19fa2a255a1004bfb8197a04db9104c8,
    type: 3}
  FireArmTimeout: 0.25
  weaponCategory: 0
  Color0: {r: 0, g: 0.7166667, b: 1, a: 1}
  Color1: {r: 0.99264705, g: 0.35336626, b: 0.26275954, a: 1}
  StartSound: {fileID: 8300000, guid: dbfada361a4df4ab08025985fad00818, type: 3}
  ProjectileCount: 1
  ShotSpread: 15
  HoldFullAuto: 0
  ShotInterval: 0.2
  BurstEnabled: 0
  BurstShotCount: 5
  BurstCooldown: 1.5
  data:
    ProjectilePrefab: {fileID: 5934377335223664272, guid: 8a76ff39e880949b488682c1bae5c77b,
      type: 3}
    ProjectileColorIndexed: {r: 1, g: 0.29141667, b: 0.227, a: 1}
    Speed: 12
    Timeout: 6
    UseGravity: 1
    AlignRotationToVelocity: 1
    ContactDamageDefinition: {fileID: 0}
    Hits: 0
    ReflectCount: 0
    ReflectVelocityDecay: 0
    SoundReflect: {fileID: 0}
    StickyEnabled: 1
    AttachDuration: 2
    ExplodeOnFirstHit: 0
    ExplodeOnLastHit: 0
    ExplosionDamage: {fileID: 11400000, guid: 9ee6504c4d3a34696b22db80eccab972, type: 2}
    BoomRadius: 0.7
    explosion: {fileID: 1814662161405744, guid: 4c598efde03ec412c82bf8b74b0fdad0,
      type: 3}
  HasChargeVariant: 1
  ChargeVariant: {fileID: 11400000, guid: 20475dc36221a4c28907583faa0985a3, type: 2}
  ChargeEffect: {fileID: 1114664079986530, guid: 04c57cdcd3d8942de9066c51471bd6c6,
    type: 3}
  soundCharge: {fileID: 8300000, guid: 463f9d4c8e7ff4385b99c01babc3cdd5, type: 3}
  soundChargeLoop: {fileID: 8300000, guid: 237ffd03c299f47f994b7c9ea35a11b2, type: 3}
