%YAML 1.1
%TAG !u! tag:unity3d.com,2011:
--- !u!114 &11400000
MonoBehaviour:
  m_ObjectHideFlags: 0
  m_CorrespondingSourceObject: {fileID: 0}
  m_PrefabInstance: {fileID: 0}
  m_PrefabAsset: {fileID: 0}
  m_GameObject: {fileID: 0}
  m_Enabled: 1
  m_EditorHideFlags: 0
  m_Script: {fileID: 11500000, guid: 39be765557a4249d3ab8f035f48e26c0, type: 3}
  m_Name: parkour_UL
  m_EditorClassIdentifier: 
  direction: 3
  AllowedToLink:
  - {fileID: 1301624615008601836, guid: 6dd5e8a11b4cc44b2abfb212eb9bc81a, type: 3}
  - {fileID: 1301624615008601836, guid: 57d0af62cc7af4867a7e23d6fd0eeb46, type: 3}
  - {fileID: 1301624615008601836, guid: a627aa74e60f74b8f9dc3c133ad48006, type: 3}
  - {fileID: 1301624615008601836, guid: 46f1fc10aaa5e42af8ba2d4538e0f5e4, type: 3}
  - {fileID: 1301624615008601836, guid: 13d9bb7f52d9b4fe0b621f53281c8c8a, type: 3}
  - {fileID: 1301624615008601836, guid: f84d7708e85a54b3d933ea8e92ae10b0, type: 3}
