%YAML 1.1
%TAG !u! tag:unity3d.com,2011:
--- !u!1001 &422336666644307937
PrefabInstance:
  m_ObjectHideFlags: 0
  serializedVersion: 2
  m_Modification:
    m_TransformParent: {fileID: 0}
    m_Modifications:
    - target: {fileID: 437275677996588713, guid: d1864b87248b74381b59748b50dbd186,
        type: 3}
      propertyPath: m_Text
      value: cityunderground-10
      objectReference: {fileID: 0}
    - target: {fileID: 1301624615008601836, guid: d1864b87248b74381b59748b50dbd186,
        type: 3}
      propertyPath: m_Name
      value: cityunderground-10
      objectReference: {fileID: 0}
    - target: {fileID: 1774134624541637153, guid: d1864b87248b74381b59748b50dbd186,
        type: 3}
      propertyPath: m_RootOrder
      value: 4
      objectReference: {fileID: 0}
    - target: {fileID: 1810661693476826660, guid: d1864b87248b74381b59748b50dbd186,
        type: 3}
      propertyPath: m_RootOrder
      value: 0
      objectReference: {fileID: 0}
    - target: {fileID: 1810661693476826660, guid: d1864b87248b74381b59748b50dbd186,
        type: 3}
      propertyPath: m_LocalPosition.x
      value: 0
      objectReference: {fileID: 0}
    - target: {fileID: 1810661693476826660, guid: d1864b87248b74381b59748b50dbd186,
        type: 3}
      propertyPath: m_LocalPosition.y
      value: 0
      objectReference: {fileID: 0}
    - target: {fileID: 1810661693476826660, guid: d1864b87248b74381b59748b50dbd186,
        type: 3}
      propertyPath: m_LocalPosition.z
      value: 0
      objectReference: {fileID: 0}
    - target: {fileID: 1810661693476826660, guid: d1864b87248b74381b59748b50dbd186,
        type: 3}
      propertyPath: m_LocalRotation.w
      value: 1
      objectReference: {fileID: 0}
    - target: {fileID: 1810661693476826660, guid: d1864b87248b74381b59748b50dbd186,
        type: 3}
      propertyPath: m_LocalRotation.x
      value: 0
      objectReference: {fileID: 0}
    - target: {fileID: 1810661693476826660, guid: d1864b87248b74381b59748b50dbd186,
        type: 3}
      propertyPath: m_LocalRotation.y
      value: 0
      objectReference: {fileID: 0}
    - target: {fileID: 1810661693476826660, guid: d1864b87248b74381b59748b50dbd186,
        type: 3}
      propertyPath: m_LocalRotation.z
      value: 0
      objectReference: {fileID: 0}
    - target: {fileID: 1810661693476826660, guid: d1864b87248b74381b59748b50dbd186,
        type: 3}
      propertyPath: m_LocalEulerAnglesHint.x
      value: 0
      objectReference: {fileID: 0}
    - target: {fileID: 1810661693476826660, guid: d1864b87248b74381b59748b50dbd186,
        type: 3}
      propertyPath: m_LocalEulerAnglesHint.y
      value: 0
      objectReference: {fileID: 0}
    - target: {fileID: 1810661693476826660, guid: d1864b87248b74381b59748b50dbd186,
        type: 3}
      propertyPath: m_LocalEulerAnglesHint.z
      value: 0
      objectReference: {fileID: 0}
    - target: {fileID: 6379974361363133168, guid: d1864b87248b74381b59748b50dbd186,
        type: 3}
      propertyPath: m_RootOrder
      value: 6
      objectReference: {fileID: 0}
    - target: {fileID: 6379974361363133169, guid: d1864b87248b74381b59748b50dbd186,
        type: 3}
      propertyPath: text
      value: cityunderground-10
      objectReference: {fileID: 0}
    m_RemovedComponents: []
  m_SourcePrefab: {fileID: 100100000, guid: d1864b87248b74381b59748b50dbd186, type: 3}
--- !u!4 &2088741974724260293 stripped
Transform:
  m_CorrespondingSourceObject: {fileID: 1810661693476826660, guid: d1864b87248b74381b59748b50dbd186,
    type: 3}
  m_PrefabInstance: {fileID: 422336666644307937}
  m_PrefabAsset: {fileID: 0}
--- !u!1001 &535480677903425927
PrefabInstance:
  m_ObjectHideFlags: 0
  serializedVersion: 2
  m_Modification:
    m_TransformParent: {fileID: 2088741974724260293}
    m_Modifications:
    - target: {fileID: 1049093956366660, guid: d6b69d4e3b4ac48e1bf677318fce1444, type: 3}
      propertyPath: m_Name
      value: floor 1
      objectReference: {fileID: 0}
    - target: {fileID: 4387301254824980, guid: d6b69d4e3b4ac48e1bf677318fce1444, type: 3}
      propertyPath: m_RootOrder
      value: 3
      objectReference: {fileID: 0}
    - target: {fileID: 4387301254824980, guid: d6b69d4e3b4ac48e1bf677318fce1444, type: 3}
      propertyPath: m_LocalPosition.x
      value: 3
      objectReference: {fileID: 0}
    - target: {fileID: 4387301254824980, guid: d6b69d4e3b4ac48e1bf677318fce1444, type: 3}
      propertyPath: m_LocalPosition.y
      value: 0.25
      objectReference: {fileID: 0}
    - target: {fileID: 4387301254824980, guid: d6b69d4e3b4ac48e1bf677318fce1444, type: 3}
      propertyPath: m_LocalPosition.z
      value: 0
      objectReference: {fileID: 0}
    - target: {fileID: 4387301254824980, guid: d6b69d4e3b4ac48e1bf677318fce1444, type: 3}
      propertyPath: m_LocalRotation.w
      value: 1
      objectReference: {fileID: 0}
    - target: {fileID: 4387301254824980, guid: d6b69d4e3b4ac48e1bf677318fce1444, type: 3}
      propertyPath: m_LocalRotation.x
      value: -0
      objectReference: {fileID: 0}
    - target: {fileID: 4387301254824980, guid: d6b69d4e3b4ac48e1bf677318fce1444, type: 3}
      propertyPath: m_LocalRotation.y
      value: -0
      objectReference: {fileID: 0}
    - target: {fileID: 4387301254824980, guid: d6b69d4e3b4ac48e1bf677318fce1444, type: 3}
      propertyPath: m_LocalRotation.z
      value: -0
      objectReference: {fileID: 0}
    - target: {fileID: 4387301254824980, guid: d6b69d4e3b4ac48e1bf677318fce1444, type: 3}
      propertyPath: m_LocalEulerAnglesHint.x
      value: 0
      objectReference: {fileID: 0}
    - target: {fileID: 4387301254824980, guid: d6b69d4e3b4ac48e1bf677318fce1444, type: 3}
      propertyPath: m_LocalEulerAnglesHint.y
      value: 0
      objectReference: {fileID: 0}
    - target: {fileID: 4387301254824980, guid: d6b69d4e3b4ac48e1bf677318fce1444, type: 3}
      propertyPath: m_LocalEulerAnglesHint.z
      value: 0
      objectReference: {fileID: 0}
    - target: {fileID: 61477104421331976, guid: d6b69d4e3b4ac48e1bf677318fce1444,
        type: 3}
      propertyPath: m_SpriteTilingProperty.newSize.x
      value: 4
      objectReference: {fileID: 0}
    - target: {fileID: 212926256537594904, guid: d6b69d4e3b4ac48e1bf677318fce1444,
        type: 3}
      propertyPath: m_Size.x
      value: 4
      objectReference: {fileID: 0}
    - target: {fileID: 1626150754273476976, guid: d6b69d4e3b4ac48e1bf677318fce1444,
        type: 3}
      propertyPath: m_Extents.x
      value: 2
      objectReference: {fileID: 0}
    m_RemovedComponents: []
  m_SourcePrefab: {fileID: 100100000, guid: d6b69d4e3b4ac48e1bf677318fce1444, type: 3}
--- !u!1001 &2130492834175466629
PrefabInstance:
  m_ObjectHideFlags: 0
  serializedVersion: 2
  m_Modification:
    m_TransformParent: {fileID: 2088741974724260293}
    m_Modifications:
    - target: {fileID: 4622525019530406037, guid: 767635a8bb31649aba6df1c6c548742c,
        type: 3}
      propertyPath: m_Extents.x
      value: 0.5
      objectReference: {fileID: 0}
    - target: {fileID: 4622525019530406037, guid: 767635a8bb31649aba6df1c6c548742c,
        type: 3}
      propertyPath: m_Extents.y
      value: 2.5
      objectReference: {fileID: 0}
    - target: {fileID: 6071919030359655933, guid: 767635a8bb31649aba6df1c6c548742c,
        type: 3}
      propertyPath: m_Size.y
      value: 5
      objectReference: {fileID: 0}
    - target: {fileID: 6227867388287192557, guid: 767635a8bb31649aba6df1c6c548742c,
        type: 3}
      propertyPath: m_SpriteTilingProperty.newSize.y
      value: 5
      objectReference: {fileID: 0}
    - target: {fileID: 6247626659375716513, guid: 767635a8bb31649aba6df1c6c548742c,
        type: 3}
      propertyPath: m_Name
      value: wall vert 1x2
      objectReference: {fileID: 0}
    - target: {fileID: 6248792069017595377, guid: 767635a8bb31649aba6df1c6c548742c,
        type: 3}
      propertyPath: m_RootOrder
      value: 2
      objectReference: {fileID: 0}
    - target: {fileID: 6248792069017595377, guid: 767635a8bb31649aba6df1c6c548742c,
        type: 3}
      propertyPath: m_LocalPosition.x
      value: 0.5
      objectReference: {fileID: 0}
    - target: {fileID: 6248792069017595377, guid: 767635a8bb31649aba6df1c6c548742c,
        type: 3}
      propertyPath: m_LocalPosition.y
      value: 2.5
      objectReference: {fileID: 0}
    - target: {fileID: 6248792069017595377, guid: 767635a8bb31649aba6df1c6c548742c,
        type: 3}
      propertyPath: m_LocalPosition.z
      value: 0
      objectReference: {fileID: 0}
    - target: {fileID: 6248792069017595377, guid: 767635a8bb31649aba6df1c6c548742c,
        type: 3}
      propertyPath: m_LocalRotation.w
      value: 1
      objectReference: {fileID: 0}
    - target: {fileID: 6248792069017595377, guid: 767635a8bb31649aba6df1c6c548742c,
        type: 3}
      propertyPath: m_LocalRotation.x
      value: -0
      objectReference: {fileID: 0}
    - target: {fileID: 6248792069017595377, guid: 767635a8bb31649aba6df1c6c548742c,
        type: 3}
      propertyPath: m_LocalRotation.y
      value: -0
      objectReference: {fileID: 0}
    - target: {fileID: 6248792069017595377, guid: 767635a8bb31649aba6df1c6c548742c,
        type: 3}
      propertyPath: m_LocalRotation.z
      value: -0
      objectReference: {fileID: 0}
    - target: {fileID: 6248792069017595377, guid: 767635a8bb31649aba6df1c6c548742c,
        type: 3}
      propertyPath: m_LocalEulerAnglesHint.x
      value: 0
      objectReference: {fileID: 0}
    - target: {fileID: 6248792069017595377, guid: 767635a8bb31649aba6df1c6c548742c,
        type: 3}
      propertyPath: m_LocalEulerAnglesHint.y
      value: 0
      objectReference: {fileID: 0}
    - target: {fileID: 6248792069017595377, guid: 767635a8bb31649aba6df1c6c548742c,
        type: 3}
      propertyPath: m_LocalEulerAnglesHint.z
      value: 0
      objectReference: {fileID: 0}
    m_RemovedComponents: []
  m_SourcePrefab: {fileID: 100100000, guid: 767635a8bb31649aba6df1c6c548742c, type: 3}
--- !u!1001 &2274301068717913543
PrefabInstance:
  m_ObjectHideFlags: 0
  serializedVersion: 2
  m_Modification:
    m_TransformParent: {fileID: 2088741974724260293}
    m_Modifications:
    - target: {fileID: 1531869447189520822, guid: 97fd5e00c27064fe3a9891a8484d9074,
        type: 3}
      propertyPath: m_Name
      value: bg wall
      objectReference: {fileID: 0}
    - target: {fileID: 1531869447189520822, guid: 97fd5e00c27064fe3a9891a8484d9074,
        type: 3}
      propertyPath: m_StaticEditorFlags
      value: 4294967295
      objectReference: {fileID: 0}
    - target: {fileID: 3784639491395550152, guid: 97fd5e00c27064fe3a9891a8484d9074,
        type: 3}
      propertyPath: m_RootOrder
      value: 1
      objectReference: {fileID: 0}
    - target: {fileID: 3784639491395550152, guid: 97fd5e00c27064fe3a9891a8484d9074,
        type: 3}
      propertyPath: m_LocalPosition.x
      value: 5
      objectReference: {fileID: 0}
    - target: {fileID: 3784639491395550152, guid: 97fd5e00c27064fe3a9891a8484d9074,
        type: 3}
      propertyPath: m_LocalPosition.y
      value: 5
      objectReference: {fileID: 0}
    - target: {fileID: 3784639491395550152, guid: 97fd5e00c27064fe3a9891a8484d9074,
        type: 3}
      propertyPath: m_LocalPosition.z
      value: 0
      objectReference: {fileID: 0}
    - target: {fileID: 3784639491395550152, guid: 97fd5e00c27064fe3a9891a8484d9074,
        type: 3}
      propertyPath: m_LocalRotation.w
      value: 1
      objectReference: {fileID: 0}
    - target: {fileID: 3784639491395550152, guid: 97fd5e00c27064fe3a9891a8484d9074,
        type: 3}
      propertyPath: m_LocalRotation.x
      value: -0
      objectReference: {fileID: 0}
    - target: {fileID: 3784639491395550152, guid: 97fd5e00c27064fe3a9891a8484d9074,
        type: 3}
      propertyPath: m_LocalRotation.y
      value: -0
      objectReference: {fileID: 0}
    - target: {fileID: 3784639491395550152, guid: 97fd5e00c27064fe3a9891a8484d9074,
        type: 3}
      propertyPath: m_LocalRotation.z
      value: -0
      objectReference: {fileID: 0}
    - target: {fileID: 3784639491395550152, guid: 97fd5e00c27064fe3a9891a8484d9074,
        type: 3}
      propertyPath: m_LocalEulerAnglesHint.x
      value: 0
      objectReference: {fileID: 0}
    - target: {fileID: 3784639491395550152, guid: 97fd5e00c27064fe3a9891a8484d9074,
        type: 3}
      propertyPath: m_LocalEulerAnglesHint.y
      value: 0
      objectReference: {fileID: 0}
    - target: {fileID: 3784639491395550152, guid: 97fd5e00c27064fe3a9891a8484d9074,
        type: 3}
      propertyPath: m_LocalEulerAnglesHint.z
      value: 0
      objectReference: {fileID: 0}
    - target: {fileID: 4654359712525082122, guid: 97fd5e00c27064fe3a9891a8484d9074,
        type: 3}
      propertyPath: m_Size.x
      value: 10
      objectReference: {fileID: 0}
    - target: {fileID: 4654359712525082122, guid: 97fd5e00c27064fe3a9891a8484d9074,
        type: 3}
      propertyPath: m_Size.y
      value: 10
      objectReference: {fileID: 0}
    m_RemovedComponents: []
  m_SourcePrefab: {fileID: 100100000, guid: 97fd5e00c27064fe3a9891a8484d9074, type: 3}
--- !u!1001 &4836425073149978720
PrefabInstance:
  m_ObjectHideFlags: 0
  serializedVersion: 2
  m_Modification:
    m_TransformParent: {fileID: 2088741974724260293}
    m_Modifications:
    - target: {fileID: 1049093956366660, guid: d6b69d4e3b4ac48e1bf677318fce1444, type: 3}
      propertyPath: m_Name
      value: floor 1 (1)
      objectReference: {fileID: 0}
    - target: {fileID: 4387301254824980, guid: d6b69d4e3b4ac48e1bf677318fce1444, type: 3}
      propertyPath: m_RootOrder
      value: 5
      objectReference: {fileID: 0}
    - target: {fileID: 4387301254824980, guid: d6b69d4e3b4ac48e1bf677318fce1444, type: 3}
      propertyPath: m_LocalPosition.x
      value: 7
      objectReference: {fileID: 0}
    - target: {fileID: 4387301254824980, guid: d6b69d4e3b4ac48e1bf677318fce1444, type: 3}
      propertyPath: m_LocalPosition.y
      value: 9.75
      objectReference: {fileID: 0}
    - target: {fileID: 4387301254824980, guid: d6b69d4e3b4ac48e1bf677318fce1444, type: 3}
      propertyPath: m_LocalPosition.z
      value: 0
      objectReference: {fileID: 0}
    - target: {fileID: 4387301254824980, guid: d6b69d4e3b4ac48e1bf677318fce1444, type: 3}
      propertyPath: m_LocalRotation.w
      value: 1
      objectReference: {fileID: 0}
    - target: {fileID: 4387301254824980, guid: d6b69d4e3b4ac48e1bf677318fce1444, type: 3}
      propertyPath: m_LocalRotation.x
      value: -0
      objectReference: {fileID: 0}
    - target: {fileID: 4387301254824980, guid: d6b69d4e3b4ac48e1bf677318fce1444, type: 3}
      propertyPath: m_LocalRotation.y
      value: -0
      objectReference: {fileID: 0}
    - target: {fileID: 4387301254824980, guid: d6b69d4e3b4ac48e1bf677318fce1444, type: 3}
      propertyPath: m_LocalRotation.z
      value: -0
      objectReference: {fileID: 0}
    - target: {fileID: 4387301254824980, guid: d6b69d4e3b4ac48e1bf677318fce1444, type: 3}
      propertyPath: m_LocalEulerAnglesHint.x
      value: 0
      objectReference: {fileID: 0}
    - target: {fileID: 4387301254824980, guid: d6b69d4e3b4ac48e1bf677318fce1444, type: 3}
      propertyPath: m_LocalEulerAnglesHint.y
      value: 0
      objectReference: {fileID: 0}
    - target: {fileID: 4387301254824980, guid: d6b69d4e3b4ac48e1bf677318fce1444, type: 3}
      propertyPath: m_LocalEulerAnglesHint.z
      value: 0
      objectReference: {fileID: 0}
    - target: {fileID: 61477104421331976, guid: d6b69d4e3b4ac48e1bf677318fce1444,
        type: 3}
      propertyPath: m_SpriteTilingProperty.newSize.x
      value: 4
      objectReference: {fileID: 0}
    - target: {fileID: 212926256537594904, guid: d6b69d4e3b4ac48e1bf677318fce1444,
        type: 3}
      propertyPath: m_Size.x
      value: 4
      objectReference: {fileID: 0}
    - target: {fileID: 1626150754273476976, guid: d6b69d4e3b4ac48e1bf677318fce1444,
        type: 3}
      propertyPath: m_Extents.x
      value: 2
      objectReference: {fileID: 0}
    m_RemovedComponents: []
  m_SourcePrefab: {fileID: 100100000, guid: d6b69d4e3b4ac48e1bf677318fce1444, type: 3}
--- !u!1001 &8792202016775866996
PrefabInstance:
  m_ObjectHideFlags: 0
  serializedVersion: 2
  m_Modification:
    m_TransformParent: {fileID: 2088741974724260293}
    m_Modifications:
    - target: {fileID: 4622525019530406037, guid: 767635a8bb31649aba6df1c6c548742c,
        type: 3}
      propertyPath: m_Extents.x
      value: 0.5
      objectReference: {fileID: 0}
    - target: {fileID: 4622525019530406037, guid: 767635a8bb31649aba6df1c6c548742c,
        type: 3}
      propertyPath: m_Extents.y
      value: 2.5
      objectReference: {fileID: 0}
    - target: {fileID: 6071919030359655933, guid: 767635a8bb31649aba6df1c6c548742c,
        type: 3}
      propertyPath: m_Size.y
      value: 5
      objectReference: {fileID: 0}
    - target: {fileID: 6227867388287192557, guid: 767635a8bb31649aba6df1c6c548742c,
        type: 3}
      propertyPath: m_SpriteTilingProperty.newSize.y
      value: 5
      objectReference: {fileID: 0}
    - target: {fileID: 6247626659375716513, guid: 767635a8bb31649aba6df1c6c548742c,
        type: 3}
      propertyPath: m_Name
      value: wall vert 1x2 (1)
      objectReference: {fileID: 0}
    - target: {fileID: 6248792069017595377, guid: 767635a8bb31649aba6df1c6c548742c,
        type: 3}
      propertyPath: m_RootOrder
      value: 4
      objectReference: {fileID: 0}
    - target: {fileID: 6248792069017595377, guid: 767635a8bb31649aba6df1c6c548742c,
        type: 3}
      propertyPath: m_LocalPosition.x
      value: 9.5
      objectReference: {fileID: 0}
    - target: {fileID: 6248792069017595377, guid: 767635a8bb31649aba6df1c6c548742c,
        type: 3}
      propertyPath: m_LocalPosition.y
      value: 7.5
      objectReference: {fileID: 0}
    - target: {fileID: 6248792069017595377, guid: 767635a8bb31649aba6df1c6c548742c,
        type: 3}
      propertyPath: m_LocalPosition.z
      value: 0
      objectReference: {fileID: 0}
    - target: {fileID: 6248792069017595377, guid: 767635a8bb31649aba6df1c6c548742c,
        type: 3}
      propertyPath: m_LocalRotation.w
      value: 1
      objectReference: {fileID: 0}
    - target: {fileID: 6248792069017595377, guid: 767635a8bb31649aba6df1c6c548742c,
        type: 3}
      propertyPath: m_LocalRotation.x
      value: -0
      objectReference: {fileID: 0}
    - target: {fileID: 6248792069017595377, guid: 767635a8bb31649aba6df1c6c548742c,
        type: 3}
      propertyPath: m_LocalRotation.y
      value: -0
      objectReference: {fileID: 0}
    - target: {fileID: 6248792069017595377, guid: 767635a8bb31649aba6df1c6c548742c,
        type: 3}
      propertyPath: m_LocalRotation.z
      value: -0
      objectReference: {fileID: 0}
    - target: {fileID: 6248792069017595377, guid: 767635a8bb31649aba6df1c6c548742c,
        type: 3}
      propertyPath: m_LocalEulerAnglesHint.x
      value: 0
      objectReference: {fileID: 0}
    - target: {fileID: 6248792069017595377, guid: 767635a8bb31649aba6df1c6c548742c,
        type: 3}
      propertyPath: m_LocalEulerAnglesHint.y
      value: 0
      objectReference: {fileID: 0}
    - target: {fileID: 6248792069017595377, guid: 767635a8bb31649aba6df1c6c548742c,
        type: 3}
      propertyPath: m_LocalEulerAnglesHint.z
      value: 0
      objectReference: {fileID: 0}
    m_RemovedComponents: []
  m_SourcePrefab: {fileID: 100100000, guid: 767635a8bb31649aba6df1c6c548742c, type: 3}
