%YAML 1.1
%TAG !u! tag:unity3d.com,2011:
--- !u!114 &11400000
MonoBehaviour:
  m_ObjectHideFlags: 0
  m_CorrespondingSourceObject: {fileID: 0}
  m_PrefabInstance: {fileID: 0}
  m_PrefabAsset: {fileID: 0}
  m_GameObject: {fileID: 0}
  m_Enabled: 1
  m_EditorHideFlags: 0
  m_Script: {fileID: 11500000, guid: fcb0cd91cd7154e30b21127791f56b78, type: 3}
  m_Name: Vile-type
  m_EditorClassIdentifier: 
  CharacterName: Purple
  Icon: {fileID: -3848427663811924371, guid: 64314a0420c93471b9990c7b9f080a39, type: 3}
  Face: {fileID: 21300036, guid: 64314a0420c93471b9990c7b9f080a39, type: 3}
  SpeechTextColor: {r: 0.6739995, g: 0.18836774, b: 0.7830189, a: 1}
  animationController: {fileID: 0}
  TextAsset: {fileID: 4900000, guid: 4c44e6b0248384bfbb96335b769c6969, type: 3}
