%YAML 1.1
%TAG !u! tag:unity3d.com,2011:
--- !u!114 &11400000
MonoBehaviour:
  m_ObjectHideFlags: 0
  m_CorrespondingSourceObject: {fileID: 0}
  m_PrefabInstance: {fileID: 0}
  m_PrefabAsset: {fileID: 0}
  m_GameObject: {fileID: 0}
  m_Enabled: 1
  m_EditorHideFlags: 0
  m_Script: {fileID: 11500000, guid: 13b75c95f34a00d4e8c04f76b73312e6, type: 3}
  m_Name: lava3
  m_EditorClassIdentifier: 
  m_AnimatedSprites:
  - {fileID: -3969088026426826639, guid: 36b0b7681e60f47f69ba141648478f5d, type: 3}
  - {fileID: 8539378239260129695, guid: 36b0b7681e60f47f69ba141648478f5d, type: 3}
  - {fileID: -7919389331236996813, guid: 36b0b7681e60f47f69ba141648478f5d, type: 3}
  - {fileID: -1076112893614406110, guid: 36b0b7681e60f47f69ba141648478f5d, type: 3}
  m_MinSpeed: 2
  m_MaxSpeed: 2
  m_AnimationStartTime: 0
  m_AnimationStartFrame: 0
  m_TileColliderType: 2
