%YAML 1.1
%TAG !u! tag:unity3d.com,2011:
--- !u!114 &11400000
MonoBehaviour:
  m_ObjectHideFlags: 0
  m_CorrespondingSourceObject: {fileID: 0}
  m_PrefabInstance: {fileID: 0}
  m_PrefabAsset: {fileID: 0}
  m_GameObject: {fileID: 0}
  m_Enabled: 1
  m_EditorHideFlags: 0
  m_Script: {fileID: 11500000, guid: 13b75c95f34a00d4e8c04f76b73312e6, type: 3}
  m_Name: lava9
  m_EditorClassIdentifier: 
  m_AnimatedSprites:
  - {fileID: -5290281941192912521, guid: 64ebe224599bd4806b45c71389319529, type: 3}
  - {fileID: -255999904853687111, guid: 64ebe224599bd4806b45c71389319529, type: 3}
  - {fileID: -9108446257192483399, guid: 64ebe224599bd4806b45c71389319529, type: 3}
  - {fileID: 2675989397267727161, guid: 64ebe224599bd4806b45c71389319529, type: 3}
  m_MinSpeed: 2
  m_MaxSpeed: 2
  m_AnimationStartTime: 0
  m_AnimationStartFrame: 0
  m_TileColliderType: 0
