%YAML 1.1
%TAG !u! tag:unity3d.com,2011:
--- !u!21 &2100000
Material:
  serializedVersion: 6
  m_ObjectHideFlags: 0
  m_CorrespondingSourceObject: {fileID: 0}
  m_PrefabInstance: {fileID: 0}
  m_PrefabAsset: {fileID: 0}
  m_Name: indexed
  m_Shader: {fileID: 4800000, guid: b34fda73b42e84e3e9c741af2358fcfd, type: 3}
  m_ShaderKeywords: ETC1_EXTERNAL_ALPHA
  m_LightmapFlags: 4
  m_EnableInstancingVariants: 0
  m_DoubleSidedGI: 0
  m_CustomRenderQueue: -1
  stringTagMap: {}
  disabledShaderPasses: []
  m_SavedProperties:
    serializedVersion: 3
    m_TexEnvs:
    - _AlphaTex:
        m_Texture: {fileID: 0}
        m_Scale: {x: 1, y: 1}
        m_Offset: {x: 0, y: 0}
    - _EmissiveTex:
        m_Texture: {fileID: 2800000, guid: 0d190377119ef491aa72c1efdfe79531, type: 3}
        m_Scale: {x: 1, y: 1}
        m_Offset: {x: 0, y: 0}
    - _MainTex:
        m_Texture: {fileID: 2800000, guid: 64314a0420c93471b9990c7b9f080a39, type: 3}
        m_Scale: {x: 1, y: 1}
        m_Offset: {x: 0, y: 0}
    - _MaskTex:
        m_Texture: {fileID: 0}
        m_Scale: {x: 1, y: 1}
        m_Offset: {x: 0, y: 0}
    - _NormalMap:
        m_Texture: {fileID: 2800000, guid: 7f01739e8fe7846549bff1066366809f, type: 3}
        m_Scale: {x: 1, y: 1}
        m_Offset: {x: 0, y: 0}
    m_Floats:
    - PixelSnap: 0
    - _EmissiveAmount: 1
    - _EnableExternalAlpha: 0
    - _FlashAmount: 0
    m_Colors:
    - _Color: {r: 1, g: 1, b: 1, a: 1}
    - _FlashColor: {r: 0.34509802, g: 1, b: 0.98908496, a: 1}
    - _Flip: {r: 1, g: 1, b: 1, a: 1}
    - _IndexColor: {r: 0.99215686, g: 0.122686066, b: 0, a: 1}
    - _IndexColor2: {r: 1, g: 0, b: 0, a: 1}
    - _RendererColor: {r: 1, g: 1, b: 1, a: 1}
