%YAML 1.1
%TAG !u! tag:unity3d.com,2011:
--- !u!21 &2100000
Material:
  serializedVersion: 6
  m_ObjectHideFlags: 0
  m_CorrespondingSourceObject: {fileID: 0}
  m_PrefabInstance: {fileID: 0}
  m_PrefabAsset: {fileID: 0}
  m_Name: conveyor
  m_Shader: {fileID: 4800000, guid: d8f100999d85148828af6e0276597dca, type: 3}
  m_ShaderKeywords: ETC1_EXTERNAL_ALPHA
  m_LightmapFlags: 4
  m_EnableInstancingVariants: 0
  m_DoubleSidedGI: 0
  m_CustomRenderQueue: -1
  stringTagMap: {}
  disabledShaderPasses: []
  m_SavedProperties:
    serializedVersion: 3
    m_TexEnvs:
    - _AlphaTex:
        m_Texture: {fileID: 0}
        m_Scale: {x: 1, y: 1}
        m_Offset: {x: 0, y: 0}
    - _EmissiveMap:
        m_Texture: {fileID: 0}
        m_Scale: {x: 1, y: 1}
        m_Offset: {x: 0, y: 0}
    - _EmissiveTex:
        m_Texture: {fileID: -8328923581568760697, guid: 4a6018d063d1149f7ab4d6efb203fc58,
          type: 3}
        m_Scale: {x: 1, y: 1}
        m_Offset: {x: 0, y: 0}
    - _MainTex:
        m_Texture: {fileID: -8328923581568760697, guid: 4a6018d063d1149f7ab4d6efb203fc58,
          type: 3}
        m_Scale: {x: 1, y: 1}
        m_Offset: {x: 0, y: 0}
    - _MaskTex:
        m_Texture: {fileID: 0}
        m_Scale: {x: 1, y: 1}
        m_Offset: {x: 0, y: 0}
    - _NormalMap:
        m_Texture: {fileID: 2800000, guid: 18ba25556d0fb47b790986e99ee0e9a5, type: 3}
        m_Scale: {x: 1, y: 1}
        m_Offset: {x: 0, y: 0}
    m_Floats:
    - PixelSnap: 0
    - _EnableExternalAlpha: 0
    - _FlashAmount: 0
    - _Minimap: 0
    - _MinimapBlend: 0
    m_Colors:
    - _Color: {r: 1, g: 1, b: 1, a: 1}
    - _FlashColor: {r: 0.34509802, g: 1, b: 0.98908496, a: 1}
    - _Flip: {r: 1, g: 1, b: 1, a: 1}
    - _MinimapColor: {r: 0.99264705, g: 0.35336626, b: 0.26275954, a: 1}
    - _RendererColor: {r: 1, g: 0, b: 0, a: 1}
