%YAML 1.1
%TAG !u! tag:unity3d.com,2011:
--- !u!1001 &1483671620844475425
PrefabInstance:
  m_ObjectHideFlags: 0
  serializedVersion: 2
  m_Modification:
    m_TransformParent: {fileID: 0}
    m_Modifications:
    - target: {fileID: 993720593254393847, guid: d53fb5c3630e94a43aa0fc05a1ad949d,
        type: 3}
      propertyPath: m_Enabled
      value: 1
      objectReference: {fileID: 0}
    - target: {fileID: 1208635628828000764, guid: d53fb5c3630e94a43aa0fc05a1ad949d,
        type: 3}
      propertyPath: max
      value: 80
      objectReference: {fileID: 0}
    - target: {fileID: 1208635628828000764, guid: d53fb5c3630e94a43aa0fc05a1ad949d,
        type: 3}
      propertyPath: min
      value: -80
      objectReference: {fileID: 0}
    - target: {fileID: 1208635628828000764, guid: d53fb5c3630e94a43aa0fc05a1ad949d,
        type: 3}
      propertyPath: Team
      value: 2
      objectReference: {fileID: 0}
    - target: {fileID: 1208635628828000764, guid: d53fb5c3630e94a43aa0fc05a1ad949d,
        type: 3}
      propertyPath: weapon
      value: 
      objectReference: {fileID: 11400000, guid: 05b894a545b9c41628e13114acdb675c,
        type: 2}
    - target: {fileID: 1208635628828000764, guid: d53fb5c3630e94a43aa0fc05a1ad949d,
        type: 3}
      propertyPath: EnableLead
      value: 1
      objectReference: {fileID: 0}
    - target: {fileID: 1208635628828000764, guid: d53fb5c3630e94a43aa0fc05a1ad949d,
        type: 3}
      propertyPath: sightRange
      value: 8
      objectReference: {fileID: 0}
    - target: {fileID: 1208635628828000764, guid: d53fb5c3630e94a43aa0fc05a1ad949d,
        type: 3}
      propertyPath: maxShootAngle
      value: 15
      objectReference: {fileID: 0}
    - target: {fileID: 1208635628828000764, guid: d53fb5c3630e94a43aa0fc05a1ad949d,
        type: 3}
      propertyPath: WeaponDefinition
      value: 
      objectReference: {fileID: 11400000, guid: 1d9996ec9632f449f9bc7de0f31d531d,
        type: 2}
    - target: {fileID: 3604313625396497800, guid: d53fb5c3630e94a43aa0fc05a1ad949d,
        type: 3}
      propertyPath: m_LocalRotation.w
      value: 1
      objectReference: {fileID: 0}
    - target: {fileID: 3604313625396497800, guid: d53fb5c3630e94a43aa0fc05a1ad949d,
        type: 3}
      propertyPath: m_LocalRotation.z
      value: 0
      objectReference: {fileID: 0}
    - target: {fileID: 3604313625396497800, guid: d53fb5c3630e94a43aa0fc05a1ad949d,
        type: 3}
      propertyPath: m_LocalEulerAnglesHint.z
      value: 0
      objectReference: {fileID: 0}
    - target: {fileID: 3805808902274294778, guid: d53fb5c3630e94a43aa0fc05a1ad949d,
        type: 3}
      propertyPath: m_Materials.Array.data[0]
      value: 
      objectReference: {fileID: 2100000, guid: 674f2e642f9fa4a3ca96946e0b15865a, type: 2}
    - target: {fileID: 4083742519420547586, guid: d53fb5c3630e94a43aa0fc05a1ad949d,
        type: 3}
      propertyPath: m_Materials.Array.data[0]
      value: 
      objectReference: {fileID: 2100000, guid: 674f2e642f9fa4a3ca96946e0b15865a, type: 2}
    - target: {fileID: 6898653218402988711, guid: d53fb5c3630e94a43aa0fc05a1ad949d,
        type: 3}
      propertyPath: m_RootOrder
      value: 0
      objectReference: {fileID: 0}
    - target: {fileID: 6898653218402988711, guid: d53fb5c3630e94a43aa0fc05a1ad949d,
        type: 3}
      propertyPath: m_LocalPosition.x
      value: 0
      objectReference: {fileID: 0}
    - target: {fileID: 6898653218402988711, guid: d53fb5c3630e94a43aa0fc05a1ad949d,
        type: 3}
      propertyPath: m_LocalPosition.y
      value: 0
      objectReference: {fileID: 0}
    - target: {fileID: 6898653218402988711, guid: d53fb5c3630e94a43aa0fc05a1ad949d,
        type: 3}
      propertyPath: m_LocalPosition.z
      value: 0
      objectReference: {fileID: 0}
    - target: {fileID: 6898653218402988711, guid: d53fb5c3630e94a43aa0fc05a1ad949d,
        type: 3}
      propertyPath: m_LocalRotation.w
      value: 1
      objectReference: {fileID: 0}
    - target: {fileID: 6898653218402988711, guid: d53fb5c3630e94a43aa0fc05a1ad949d,
        type: 3}
      propertyPath: m_LocalRotation.x
      value: 0
      objectReference: {fileID: 0}
    - target: {fileID: 6898653218402988711, guid: d53fb5c3630e94a43aa0fc05a1ad949d,
        type: 3}
      propertyPath: m_LocalRotation.y
      value: 0
      objectReference: {fileID: 0}
    - target: {fileID: 6898653218402988711, guid: d53fb5c3630e94a43aa0fc05a1ad949d,
        type: 3}
      propertyPath: m_LocalRotation.z
      value: 0
      objectReference: {fileID: 0}
    - target: {fileID: 6898653218402988711, guid: d53fb5c3630e94a43aa0fc05a1ad949d,
        type: 3}
      propertyPath: m_LocalEulerAnglesHint.x
      value: 0
      objectReference: {fileID: 0}
    - target: {fileID: 6898653218402988711, guid: d53fb5c3630e94a43aa0fc05a1ad949d,
        type: 3}
      propertyPath: m_LocalEulerAnglesHint.y
      value: 0
      objectReference: {fileID: 0}
    - target: {fileID: 6898653218402988711, guid: d53fb5c3630e94a43aa0fc05a1ad949d,
        type: 3}
      propertyPath: m_LocalEulerAnglesHint.z
      value: 0
      objectReference: {fileID: 0}
    - target: {fileID: 7595769896330164111, guid: d53fb5c3630e94a43aa0fc05a1ad949d,
        type: 3}
      propertyPath: m_Enabled
      value: 1
      objectReference: {fileID: 0}
    - target: {fileID: 7595769896330164111, guid: d53fb5c3630e94a43aa0fc05a1ad949d,
        type: 3}
      propertyPath: m_Extents.x
      value: 0.25
      objectReference: {fileID: 0}
    - target: {fileID: 7595769896330164111, guid: d53fb5c3630e94a43aa0fc05a1ad949d,
        type: 3}
      propertyPath: m_Extents.y
      value: 0.1796875
      objectReference: {fileID: 0}
    - target: {fileID: 7595769896330164111, guid: d53fb5c3630e94a43aa0fc05a1ad949d,
        type: 3}
      propertyPath: m_Extents.z
      value: 0.15
      objectReference: {fileID: 0}
    - target: {fileID: 7674903736374466933, guid: d53fb5c3630e94a43aa0fc05a1ad949d,
        type: 3}
      propertyPath: m_Name
      value: Stickybomb Turret
      objectReference: {fileID: 0}
    - target: {fileID: 7674903736374466933, guid: d53fb5c3630e94a43aa0fc05a1ad949d,
        type: 3}
      propertyPath: m_StaticEditorFlags
      value: 4294967295
      objectReference: {fileID: 0}
    m_RemovedComponents: []
  m_SourcePrefab: {fileID: 100100000, guid: d53fb5c3630e94a43aa0fc05a1ad949d, type: 3}
