%YAML 1.1
%TAG !u! tag:unity3d.com,2011:
--- !u!114 &11400000
MonoBehaviour:
  m_ObjectHideFlags: 0
  m_CorrespondingSourceObject: {fileID: 0}
  m_PrefabInstance: {fileID: 0}
  m_PrefabAsset: {fileID: 0}
  m_GameObject: {fileID: 0}
  m_Enabled: 1
  m_EditorHideFlags: 0
  m_Script: {fileID: 11500000, guid: 04394a018bd0446538c88f8afb7a48be, type: 3}
  m_Name: turretblaster DEBUG
  m_EditorClassIdentifier: 
  Icon: {fileID: 5567256653479224138, guid: 64314a0420c93471b9990c7b9f080a39, type: 3}
  AnimatedIcon: {fileID: 0}
  Cursor: {fileID: 0}
  Prefab: {fileID: 0}
  MountType: 0
  PickupPrefab: {fileID: 0}
  FireArmAlwaysActive: 0
  FireArmSprite: {fileID: -9189656420175229218, guid: 19fa2a255a1004bfb8197a04db9104c8,
    type: 3}
  FireArmTimeout: 0.25
  weaponCategory: 0
  Color0: {r: 0.766, g: 0.766, b: 0.766, a: 1}
  Color1: {r: 0.5441177, g: 0.5441177, b: 0.5441177, a: 1}
  StartSound: {fileID: 8300000, guid: 1c1f59a9693c44e518b4ee356051971f, type: 3}
  ProjectileCount: 1
  ShotSpread: 0
  HoldFullAuto: 0
  ShotInterval: 1
  BurstEnabled: 0
  BurstShotCount: 1
  BurstCooldown: 2
  data:
    ProjectilePrefab: {fileID: 4831291083865458239, guid: 7509ec851a0e54b05a043788cec9fa84,
      type: 3}
    ProjectileColorIndexed: {r: 1, g: 0.82698786, b: 0.5372549, a: 1}
    Speed: 8
    Timeout: 10
    UseGravity: 0
    AlignRotationToVelocity: 1
    ContactDamageDefinition: {fileID: 11400000, guid: e5a544477ccde429197277dbb880b03c,
      type: 2}
    Hits: 0
    ReflectCount: 0
    ReflectVelocityDecay: 0
    SoundReflect: {fileID: 0}
    StickyEnabled: 0
    AttachDuration: 0
    ExplodeEnabled: 0
    ExplodeOnContact: 0
    ExplosionDamage: {fileID: 0}
    explosion: {fileID: 0}
    BoomRadius: 0
  HasChargeVariant: 0
  ChargeVariant: {fileID: 0}
  ChargeEffect: {fileID: 1114664079986530, guid: 04c57cdcd3d8942de9066c51471bd6c6,
    type: 3}
  soundCharge: {fileID: 8300000, guid: 463f9d4c8e7ff4385b99c01babc3cdd5, type: 3}
  soundChargeLoop: {fileID: 8300000, guid: 237ffd03c299f47f994b7c9ea35a11b2, type: 3}
