%YAML 1.1
%TAG !u! tag:unity3d.com,2011:
--- !u!1 &5294326200664470240
GameObject:
  m_ObjectHideFlags: 0
  m_CorrespondingSourceObject: {fileID: 0}
  m_PrefabInstance: {fileID: 0}
  m_PrefabAsset: {fileID: 0}
  serializedVersion: 6
  m_Component:
  - component: {fileID: 4457385160060201700}
  - component: {fileID: 3794520522875630590}
  m_Layer: 0
  m_Name: ENEMY
  m_TagString: EditorOnly
  m_Icon: {fileID: 5132851093641282708, guid: 0000000000000000d000000000000000, type: 0}
  m_NavMeshLayer: 0
  m_StaticEditorFlags: 4294967295
  m_IsActive: 1
--- !u!4 &4457385160060201700
Transform:
  m_ObjectHideFlags: 0
  m_CorrespondingSourceObject: {fileID: 0}
  m_PrefabInstance: {fileID: 0}
  m_PrefabAsset: {fileID: 0}
  m_GameObject: {fileID: 5294326200664470240}
  m_LocalRotation: {x: -0, y: -0, z: -0, w: 1}
  m_LocalPosition: {x: 2, y: 6, z: 0}
  m_LocalScale: {x: 1, y: 1, z: 1}
  m_Children: []
  m_Father: {fileID: 8018707311958069332}
  m_RootOrder: 9
  m_LocalEulerAnglesHint: {x: 0, y: 0, z: 0}
--- !u!114 &3794520522875630590
MonoBehaviour:
  m_ObjectHideFlags: 0
  m_CorrespondingSourceObject: {fileID: 0}
  m_PrefabInstance: {fileID: 0}
  m_PrefabAsset: {fileID: 0}
  m_GameObject: {fileID: 5294326200664470240}
  m_Enabled: 1
  m_EditorHideFlags: 0
  m_Script: {fileID: 11500000, guid: 4b30cb79943294064ad5f5a8b1565cb9, type: 3}
  m_Name: 
  m_EditorClassIdentifier: 
  random:
  - {fileID: 9085364853172358484, guid: 1cec19b9949eb467bb3679b81d4bfd8e, type: 3}
  - {fileID: 5511198967420376463, guid: 29bc883c29c034482ae17dafa6ece7d1, type: 3}
  - {fileID: 1268720782321642, guid: 25ca8cd457e7b4750976577e72ea3dfa, type: 3}
--- !u!1001 &707063277609194234
PrefabInstance:
  m_ObjectHideFlags: 0
  serializedVersion: 2
  m_Modification:
    m_TransformParent: {fileID: 8018707311958069332}
    m_Modifications:
    - target: {fileID: 1531869447189520822, guid: 97fd5e00c27064fe3a9891a8484d9074,
        type: 3}
      propertyPath: m_Name
      value: bg wall (2)
      objectReference: {fileID: 0}
    - target: {fileID: 3784639491395550152, guid: 97fd5e00c27064fe3a9891a8484d9074,
        type: 3}
      propertyPath: m_RootOrder
      value: 2
      objectReference: {fileID: 0}
    - target: {fileID: 3784639491395550152, guid: 97fd5e00c27064fe3a9891a8484d9074,
        type: 3}
      propertyPath: m_LocalPosition.x
      value: 7.5
      objectReference: {fileID: 0}
    - target: {fileID: 3784639491395550152, guid: 97fd5e00c27064fe3a9891a8484d9074,
        type: 3}
      propertyPath: m_LocalPosition.y
      value: 7.5
      objectReference: {fileID: 0}
    - target: {fileID: 3784639491395550152, guid: 97fd5e00c27064fe3a9891a8484d9074,
        type: 3}
      propertyPath: m_LocalPosition.z
      value: 0
      objectReference: {fileID: 0}
    - target: {fileID: 3784639491395550152, guid: 97fd5e00c27064fe3a9891a8484d9074,
        type: 3}
      propertyPath: m_LocalRotation.w
      value: 1
      objectReference: {fileID: 0}
    - target: {fileID: 3784639491395550152, guid: 97fd5e00c27064fe3a9891a8484d9074,
        type: 3}
      propertyPath: m_LocalRotation.x
      value: -0
      objectReference: {fileID: 0}
    - target: {fileID: 3784639491395550152, guid: 97fd5e00c27064fe3a9891a8484d9074,
        type: 3}
      propertyPath: m_LocalRotation.y
      value: -0
      objectReference: {fileID: 0}
    - target: {fileID: 3784639491395550152, guid: 97fd5e00c27064fe3a9891a8484d9074,
        type: 3}
      propertyPath: m_LocalRotation.z
      value: -0
      objectReference: {fileID: 0}
    - target: {fileID: 3784639491395550152, guid: 97fd5e00c27064fe3a9891a8484d9074,
        type: 3}
      propertyPath: m_LocalEulerAnglesHint.x
      value: 0
      objectReference: {fileID: 0}
    - target: {fileID: 3784639491395550152, guid: 97fd5e00c27064fe3a9891a8484d9074,
        type: 3}
      propertyPath: m_LocalEulerAnglesHint.y
      value: 0
      objectReference: {fileID: 0}
    - target: {fileID: 3784639491395550152, guid: 97fd5e00c27064fe3a9891a8484d9074,
        type: 3}
      propertyPath: m_LocalEulerAnglesHint.z
      value: 0
      objectReference: {fileID: 0}
    m_RemovedComponents: []
  m_SourcePrefab: {fileID: 100100000, guid: 97fd5e00c27064fe3a9891a8484d9074, type: 3}
--- !u!1001 &1268406906086728917
PrefabInstance:
  m_ObjectHideFlags: 0
  serializedVersion: 2
  m_Modification:
    m_TransformParent: {fileID: 8018707311958069332}
    m_Modifications:
    - target: {fileID: 1531869447189520822, guid: 97fd5e00c27064fe3a9891a8484d9074,
        type: 3}
      propertyPath: m_Name
      value: bg wall (4)
      objectReference: {fileID: 0}
    - target: {fileID: 3784639491395550152, guid: 97fd5e00c27064fe3a9891a8484d9074,
        type: 3}
      propertyPath: m_RootOrder
      value: 5
      objectReference: {fileID: 0}
    - target: {fileID: 3784639491395550152, guid: 97fd5e00c27064fe3a9891a8484d9074,
        type: 3}
      propertyPath: m_LocalPosition.x
      value: 7.5
      objectReference: {fileID: 0}
    - target: {fileID: 3784639491395550152, guid: 97fd5e00c27064fe3a9891a8484d9074,
        type: 3}
      propertyPath: m_LocalPosition.y
      value: 2.5
      objectReference: {fileID: 0}
    - target: {fileID: 3784639491395550152, guid: 97fd5e00c27064fe3a9891a8484d9074,
        type: 3}
      propertyPath: m_LocalPosition.z
      value: 0
      objectReference: {fileID: 0}
    - target: {fileID: 3784639491395550152, guid: 97fd5e00c27064fe3a9891a8484d9074,
        type: 3}
      propertyPath: m_LocalRotation.w
      value: 1
      objectReference: {fileID: 0}
    - target: {fileID: 3784639491395550152, guid: 97fd5e00c27064fe3a9891a8484d9074,
        type: 3}
      propertyPath: m_LocalRotation.x
      value: -0
      objectReference: {fileID: 0}
    - target: {fileID: 3784639491395550152, guid: 97fd5e00c27064fe3a9891a8484d9074,
        type: 3}
      propertyPath: m_LocalRotation.y
      value: -0
      objectReference: {fileID: 0}
    - target: {fileID: 3784639491395550152, guid: 97fd5e00c27064fe3a9891a8484d9074,
        type: 3}
      propertyPath: m_LocalRotation.z
      value: -0
      objectReference: {fileID: 0}
    - target: {fileID: 3784639491395550152, guid: 97fd5e00c27064fe3a9891a8484d9074,
        type: 3}
      propertyPath: m_LocalEulerAnglesHint.x
      value: 0
      objectReference: {fileID: 0}
    - target: {fileID: 3784639491395550152, guid: 97fd5e00c27064fe3a9891a8484d9074,
        type: 3}
      propertyPath: m_LocalEulerAnglesHint.y
      value: 0
      objectReference: {fileID: 0}
    - target: {fileID: 3784639491395550152, guid: 97fd5e00c27064fe3a9891a8484d9074,
        type: 3}
      propertyPath: m_LocalEulerAnglesHint.z
      value: 0
      objectReference: {fileID: 0}
    m_RemovedComponents: []
  m_SourcePrefab: {fileID: 100100000, guid: 97fd5e00c27064fe3a9891a8484d9074, type: 3}
--- !u!1001 &1714611787083366955
PrefabInstance:
  m_ObjectHideFlags: 0
  serializedVersion: 2
  m_Modification:
    m_TransformParent: {fileID: 8018707311958069332}
    m_Modifications:
    - target: {fileID: 1049093956366660, guid: 8670cf86c24234bf391820e408de6d24, type: 3}
      propertyPath: m_Name
      value: floor (1)
      objectReference: {fileID: 0}
    - target: {fileID: 1049093956366660, guid: 8670cf86c24234bf391820e408de6d24, type: 3}
      propertyPath: m_StaticEditorFlags
      value: 4294967295
      objectReference: {fileID: 0}
    - target: {fileID: 4387301254824980, guid: 8670cf86c24234bf391820e408de6d24, type: 3}
      propertyPath: m_RootOrder
      value: 0
      objectReference: {fileID: 0}
    - target: {fileID: 4387301254824980, guid: 8670cf86c24234bf391820e408de6d24, type: 3}
      propertyPath: m_LocalScale.x
      value: 1
      objectReference: {fileID: 0}
    - target: {fileID: 4387301254824980, guid: 8670cf86c24234bf391820e408de6d24, type: 3}
      propertyPath: m_LocalScale.y
      value: 1
      objectReference: {fileID: 0}
    - target: {fileID: 4387301254824980, guid: 8670cf86c24234bf391820e408de6d24, type: 3}
      propertyPath: m_LocalPosition.x
      value: 4.5
      objectReference: {fileID: 0}
    - target: {fileID: 4387301254824980, guid: 8670cf86c24234bf391820e408de6d24, type: 3}
      propertyPath: m_LocalPosition.y
      value: 3
      objectReference: {fileID: 0}
    - target: {fileID: 4387301254824980, guid: 8670cf86c24234bf391820e408de6d24, type: 3}
      propertyPath: m_LocalPosition.z
      value: 0
      objectReference: {fileID: 0}
    - target: {fileID: 4387301254824980, guid: 8670cf86c24234bf391820e408de6d24, type: 3}
      propertyPath: m_LocalRotation.w
      value: 1
      objectReference: {fileID: 0}
    - target: {fileID: 4387301254824980, guid: 8670cf86c24234bf391820e408de6d24, type: 3}
      propertyPath: m_LocalRotation.x
      value: -0
      objectReference: {fileID: 0}
    - target: {fileID: 4387301254824980, guid: 8670cf86c24234bf391820e408de6d24, type: 3}
      propertyPath: m_LocalRotation.y
      value: -0
      objectReference: {fileID: 0}
    - target: {fileID: 4387301254824980, guid: 8670cf86c24234bf391820e408de6d24, type: 3}
      propertyPath: m_LocalRotation.z
      value: -0
      objectReference: {fileID: 0}
    - target: {fileID: 4387301254824980, guid: 8670cf86c24234bf391820e408de6d24, type: 3}
      propertyPath: m_LocalEulerAnglesHint.x
      value: 0
      objectReference: {fileID: 0}
    - target: {fileID: 4387301254824980, guid: 8670cf86c24234bf391820e408de6d24, type: 3}
      propertyPath: m_LocalEulerAnglesHint.y
      value: 0
      objectReference: {fileID: 0}
    - target: {fileID: 4387301254824980, guid: 8670cf86c24234bf391820e408de6d24, type: 3}
      propertyPath: m_LocalEulerAnglesHint.z
      value: 0
      objectReference: {fileID: 0}
    - target: {fileID: 61477104421331976, guid: 8670cf86c24234bf391820e408de6d24,
        type: 3}
      propertyPath: m_Size.x
      value: 0.75
      objectReference: {fileID: 0}
    - target: {fileID: 61477104421331976, guid: 8670cf86c24234bf391820e408de6d24,
        type: 3}
      propertyPath: m_Size.y
      value: 0.75
      objectReference: {fileID: 0}
    - target: {fileID: 61477104421331976, guid: 8670cf86c24234bf391820e408de6d24,
        type: 3}
      propertyPath: m_AutoTiling
      value: 1
      objectReference: {fileID: 0}
    - target: {fileID: 61477104421331976, guid: 8670cf86c24234bf391820e408de6d24,
        type: 3}
      propertyPath: m_SpriteTilingProperty.drawMode
      value: 2
      objectReference: {fileID: 0}
    - target: {fileID: 61477104421331976, guid: 8670cf86c24234bf391820e408de6d24,
        type: 3}
      propertyPath: m_SpriteTilingProperty.newSize.x
      value: 1
      objectReference: {fileID: 0}
    - target: {fileID: 61477104421331976, guid: 8670cf86c24234bf391820e408de6d24,
        type: 3}
      propertyPath: m_SpriteTilingProperty.newSize.y
      value: 6
      objectReference: {fileID: 0}
    - target: {fileID: 212926256537594904, guid: 8670cf86c24234bf391820e408de6d24,
        type: 3}
      propertyPath: m_Size.x
      value: 1
      objectReference: {fileID: 0}
    - target: {fileID: 212926256537594904, guid: 8670cf86c24234bf391820e408de6d24,
        type: 3}
      propertyPath: m_Size.y
      value: 6
      objectReference: {fileID: 0}
    - target: {fileID: 212926256537594904, guid: 8670cf86c24234bf391820e408de6d24,
        type: 3}
      propertyPath: m_DrawMode
      value: 2
      objectReference: {fileID: 0}
    - target: {fileID: 1626150754273476976, guid: 8670cf86c24234bf391820e408de6d24,
        type: 3}
      propertyPath: m_Extents.x
      value: 0.5
      objectReference: {fileID: 0}
    - target: {fileID: 1626150754273476976, guid: 8670cf86c24234bf391820e408de6d24,
        type: 3}
      propertyPath: m_Extents.y
      value: 3
      objectReference: {fileID: 0}
    - target: {fileID: 1626150754273476976, guid: 8670cf86c24234bf391820e408de6d24,
        type: 3}
      propertyPath: m_Extents.z
      value: 0.15
      objectReference: {fileID: 0}
    m_RemovedComponents: []
  m_SourcePrefab: {fileID: 100100000, guid: 8670cf86c24234bf391820e408de6d24, type: 3}
--- !u!1001 &2490884574099010292
PrefabInstance:
  m_ObjectHideFlags: 0
  serializedVersion: 2
  m_Modification:
    m_TransformParent: {fileID: 8018707311958069332}
    m_Modifications:
    - target: {fileID: 1001085200693856357, guid: 0376c36a6904b441bb01fc152697e3e5,
        type: 3}
      propertyPath: m_Size.x
      value: 0.5
      objectReference: {fileID: 0}
    - target: {fileID: 1001085200693856357, guid: 0376c36a6904b441bb01fc152697e3e5,
        type: 3}
      propertyPath: m_Size.y
      value: 0.5
      objectReference: {fileID: 0}
    - target: {fileID: 1001085200711817300, guid: 0376c36a6904b441bb01fc152697e3e5,
        type: 3}
      propertyPath: m_Size.x
      value: 0.5
      objectReference: {fileID: 0}
    - target: {fileID: 1001085200711817300, guid: 0376c36a6904b441bb01fc152697e3e5,
        type: 3}
      propertyPath: m_Size.y
      value: 0.5
      objectReference: {fileID: 0}
    - target: {fileID: 3615708565415036198, guid: 0376c36a6904b441bb01fc152697e3e5,
        type: 3}
      propertyPath: m_Name
      value: crawlspace vertical
      objectReference: {fileID: 0}
    - target: {fileID: 3615708565415036200, guid: 0376c36a6904b441bb01fc152697e3e5,
        type: 3}
      propertyPath: m_RootOrder
      value: 7
      objectReference: {fileID: 0}
    - target: {fileID: 3615708565415036200, guid: 0376c36a6904b441bb01fc152697e3e5,
        type: 3}
      propertyPath: m_LocalPosition.x
      value: 3.75
      objectReference: {fileID: 0}
    - target: {fileID: 3615708565415036200, guid: 0376c36a6904b441bb01fc152697e3e5,
        type: 3}
      propertyPath: m_LocalPosition.y
      value: 5.5
      objectReference: {fileID: 0}
    - target: {fileID: 3615708565415036200, guid: 0376c36a6904b441bb01fc152697e3e5,
        type: 3}
      propertyPath: m_LocalPosition.z
      value: 0
      objectReference: {fileID: 0}
    - target: {fileID: 3615708565415036200, guid: 0376c36a6904b441bb01fc152697e3e5,
        type: 3}
      propertyPath: m_LocalRotation.w
      value: 1
      objectReference: {fileID: 0}
    - target: {fileID: 3615708565415036200, guid: 0376c36a6904b441bb01fc152697e3e5,
        type: 3}
      propertyPath: m_LocalRotation.x
      value: -0
      objectReference: {fileID: 0}
    - target: {fileID: 3615708565415036200, guid: 0376c36a6904b441bb01fc152697e3e5,
        type: 3}
      propertyPath: m_LocalRotation.y
      value: -0
      objectReference: {fileID: 0}
    - target: {fileID: 3615708565415036200, guid: 0376c36a6904b441bb01fc152697e3e5,
        type: 3}
      propertyPath: m_LocalRotation.z
      value: -0
      objectReference: {fileID: 0}
    - target: {fileID: 3615708565415036200, guid: 0376c36a6904b441bb01fc152697e3e5,
        type: 3}
      propertyPath: m_LocalEulerAnglesHint.x
      value: 0
      objectReference: {fileID: 0}
    - target: {fileID: 3615708565415036200, guid: 0376c36a6904b441bb01fc152697e3e5,
        type: 3}
      propertyPath: m_LocalEulerAnglesHint.y
      value: 0
      objectReference: {fileID: 0}
    - target: {fileID: 3615708565415036200, guid: 0376c36a6904b441bb01fc152697e3e5,
        type: 3}
      propertyPath: m_LocalEulerAnglesHint.z
      value: 0
      objectReference: {fileID: 0}
    m_RemovedComponents: []
  m_SourcePrefab: {fileID: 100100000, guid: 0376c36a6904b441bb01fc152697e3e5, type: 3}
--- !u!1001 &3727818125911832542
PrefabInstance:
  m_ObjectHideFlags: 0
  serializedVersion: 2
  m_Modification:
    m_TransformParent: {fileID: 8018707311958069332}
    m_Modifications:
    - target: {fileID: 1001085200693856357, guid: 0376c36a6904b441bb01fc152697e3e5,
        type: 3}
      propertyPath: m_Size.x
      value: 0.5
      objectReference: {fileID: 0}
    - target: {fileID: 1001085200693856357, guid: 0376c36a6904b441bb01fc152697e3e5,
        type: 3}
      propertyPath: m_Size.y
      value: 0.5
      objectReference: {fileID: 0}
    - target: {fileID: 1001085200711817300, guid: 0376c36a6904b441bb01fc152697e3e5,
        type: 3}
      propertyPath: m_Size.x
      value: 0.5
      objectReference: {fileID: 0}
    - target: {fileID: 1001085200711817300, guid: 0376c36a6904b441bb01fc152697e3e5,
        type: 3}
      propertyPath: m_Size.y
      value: 0.5
      objectReference: {fileID: 0}
    - target: {fileID: 3615708565415036198, guid: 0376c36a6904b441bb01fc152697e3e5,
        type: 3}
      propertyPath: m_Name
      value: crawlspace vertical (1)
      objectReference: {fileID: 0}
    - target: {fileID: 3615708565415036200, guid: 0376c36a6904b441bb01fc152697e3e5,
        type: 3}
      propertyPath: m_RootOrder
      value: 8
      objectReference: {fileID: 0}
    - target: {fileID: 3615708565415036200, guid: 0376c36a6904b441bb01fc152697e3e5,
        type: 3}
      propertyPath: m_LocalPosition.x
      value: 0.25
      objectReference: {fileID: 0}
    - target: {fileID: 3615708565415036200, guid: 0376c36a6904b441bb01fc152697e3e5,
        type: 3}
      propertyPath: m_LocalPosition.y
      value: 5.5
      objectReference: {fileID: 0}
    - target: {fileID: 3615708565415036200, guid: 0376c36a6904b441bb01fc152697e3e5,
        type: 3}
      propertyPath: m_LocalPosition.z
      value: 0
      objectReference: {fileID: 0}
    - target: {fileID: 3615708565415036200, guid: 0376c36a6904b441bb01fc152697e3e5,
        type: 3}
      propertyPath: m_LocalRotation.w
      value: 1
      objectReference: {fileID: 0}
    - target: {fileID: 3615708565415036200, guid: 0376c36a6904b441bb01fc152697e3e5,
        type: 3}
      propertyPath: m_LocalRotation.x
      value: -0
      objectReference: {fileID: 0}
    - target: {fileID: 3615708565415036200, guid: 0376c36a6904b441bb01fc152697e3e5,
        type: 3}
      propertyPath: m_LocalRotation.y
      value: -0
      objectReference: {fileID: 0}
    - target: {fileID: 3615708565415036200, guid: 0376c36a6904b441bb01fc152697e3e5,
        type: 3}
      propertyPath: m_LocalRotation.z
      value: -0
      objectReference: {fileID: 0}
    - target: {fileID: 3615708565415036200, guid: 0376c36a6904b441bb01fc152697e3e5,
        type: 3}
      propertyPath: m_LocalEulerAnglesHint.x
      value: 0
      objectReference: {fileID: 0}
    - target: {fileID: 3615708565415036200, guid: 0376c36a6904b441bb01fc152697e3e5,
        type: 3}
      propertyPath: m_LocalEulerAnglesHint.y
      value: 0
      objectReference: {fileID: 0}
    - target: {fileID: 3615708565415036200, guid: 0376c36a6904b441bb01fc152697e3e5,
        type: 3}
      propertyPath: m_LocalEulerAnglesHint.z
      value: 0
      objectReference: {fileID: 0}
    m_RemovedComponents: []
  m_SourcePrefab: {fileID: 100100000, guid: 0376c36a6904b441bb01fc152697e3e5, type: 3}
--- !u!1001 &4569819454763416888
PrefabInstance:
  m_ObjectHideFlags: 0
  serializedVersion: 2
  m_Modification:
    m_TransformParent: {fileID: 8018707311958069332}
    m_Modifications:
    - target: {fileID: 1531869447189520822, guid: 97fd5e00c27064fe3a9891a8484d9074,
        type: 3}
      propertyPath: m_Name
      value: bg wall (3)
      objectReference: {fileID: 0}
    - target: {fileID: 3784639491395550152, guid: 97fd5e00c27064fe3a9891a8484d9074,
        type: 3}
      propertyPath: m_RootOrder
      value: 4
      objectReference: {fileID: 0}
    - target: {fileID: 3784639491395550152, guid: 97fd5e00c27064fe3a9891a8484d9074,
        type: 3}
      propertyPath: m_LocalPosition.x
      value: 2.5
      objectReference: {fileID: 0}
    - target: {fileID: 3784639491395550152, guid: 97fd5e00c27064fe3a9891a8484d9074,
        type: 3}
      propertyPath: m_LocalPosition.y
      value: 7.5
      objectReference: {fileID: 0}
    - target: {fileID: 3784639491395550152, guid: 97fd5e00c27064fe3a9891a8484d9074,
        type: 3}
      propertyPath: m_LocalPosition.z
      value: 0
      objectReference: {fileID: 0}
    - target: {fileID: 3784639491395550152, guid: 97fd5e00c27064fe3a9891a8484d9074,
        type: 3}
      propertyPath: m_LocalRotation.w
      value: 1
      objectReference: {fileID: 0}
    - target: {fileID: 3784639491395550152, guid: 97fd5e00c27064fe3a9891a8484d9074,
        type: 3}
      propertyPath: m_LocalRotation.x
      value: -0
      objectReference: {fileID: 0}
    - target: {fileID: 3784639491395550152, guid: 97fd5e00c27064fe3a9891a8484d9074,
        type: 3}
      propertyPath: m_LocalRotation.y
      value: -0
      objectReference: {fileID: 0}
    - target: {fileID: 3784639491395550152, guid: 97fd5e00c27064fe3a9891a8484d9074,
        type: 3}
      propertyPath: m_LocalRotation.z
      value: -0
      objectReference: {fileID: 0}
    - target: {fileID: 3784639491395550152, guid: 97fd5e00c27064fe3a9891a8484d9074,
        type: 3}
      propertyPath: m_LocalEulerAnglesHint.x
      value: 0
      objectReference: {fileID: 0}
    - target: {fileID: 3784639491395550152, guid: 97fd5e00c27064fe3a9891a8484d9074,
        type: 3}
      propertyPath: m_LocalEulerAnglesHint.y
      value: 0
      objectReference: {fileID: 0}
    - target: {fileID: 3784639491395550152, guid: 97fd5e00c27064fe3a9891a8484d9074,
        type: 3}
      propertyPath: m_LocalEulerAnglesHint.z
      value: 0
      objectReference: {fileID: 0}
    m_RemovedComponents: []
  m_SourcePrefab: {fileID: 100100000, guid: 97fd5e00c27064fe3a9891a8484d9074, type: 3}
--- !u!1001 &6806540779848734917
PrefabInstance:
  m_ObjectHideFlags: 0
  serializedVersion: 2
  m_Modification:
    m_TransformParent: {fileID: 8018707311958069332}
    m_Modifications:
    - target: {fileID: 1049093956366660, guid: 8670cf86c24234bf391820e408de6d24, type: 3}
      propertyPath: m_Name
      value: floor (3)
      objectReference: {fileID: 0}
    - target: {fileID: 1049093956366660, guid: 8670cf86c24234bf391820e408de6d24, type: 3}
      propertyPath: m_StaticEditorFlags
      value: 4294967295
      objectReference: {fileID: 0}
    - target: {fileID: 4387301254824980, guid: 8670cf86c24234bf391820e408de6d24, type: 3}
      propertyPath: m_RootOrder
      value: 1
      objectReference: {fileID: 0}
    - target: {fileID: 4387301254824980, guid: 8670cf86c24234bf391820e408de6d24, type: 3}
      propertyPath: m_LocalScale.x
      value: 1
      objectReference: {fileID: 0}
    - target: {fileID: 4387301254824980, guid: 8670cf86c24234bf391820e408de6d24, type: 3}
      propertyPath: m_LocalScale.y
      value: 1
      objectReference: {fileID: 0}
    - target: {fileID: 4387301254824980, guid: 8670cf86c24234bf391820e408de6d24, type: 3}
      propertyPath: m_LocalPosition.x
      value: 2
      objectReference: {fileID: 0}
    - target: {fileID: 4387301254824980, guid: 8670cf86c24234bf391820e408de6d24, type: 3}
      propertyPath: m_LocalPosition.y
      value: 5.5
      objectReference: {fileID: 0}
    - target: {fileID: 4387301254824980, guid: 8670cf86c24234bf391820e408de6d24, type: 3}
      propertyPath: m_LocalPosition.z
      value: 0
      objectReference: {fileID: 0}
    - target: {fileID: 4387301254824980, guid: 8670cf86c24234bf391820e408de6d24, type: 3}
      propertyPath: m_LocalRotation.w
      value: 1
      objectReference: {fileID: 0}
    - target: {fileID: 4387301254824980, guid: 8670cf86c24234bf391820e408de6d24, type: 3}
      propertyPath: m_LocalRotation.x
      value: -0
      objectReference: {fileID: 0}
    - target: {fileID: 4387301254824980, guid: 8670cf86c24234bf391820e408de6d24, type: 3}
      propertyPath: m_LocalRotation.y
      value: -0
      objectReference: {fileID: 0}
    - target: {fileID: 4387301254824980, guid: 8670cf86c24234bf391820e408de6d24, type: 3}
      propertyPath: m_LocalRotation.z
      value: -0
      objectReference: {fileID: 0}
    - target: {fileID: 4387301254824980, guid: 8670cf86c24234bf391820e408de6d24, type: 3}
      propertyPath: m_LocalEulerAnglesHint.x
      value: 0
      objectReference: {fileID: 0}
    - target: {fileID: 4387301254824980, guid: 8670cf86c24234bf391820e408de6d24, type: 3}
      propertyPath: m_LocalEulerAnglesHint.y
      value: 0
      objectReference: {fileID: 0}
    - target: {fileID: 4387301254824980, guid: 8670cf86c24234bf391820e408de6d24, type: 3}
      propertyPath: m_LocalEulerAnglesHint.z
      value: 0
      objectReference: {fileID: 0}
    - target: {fileID: 61477104421331976, guid: 8670cf86c24234bf391820e408de6d24,
        type: 3}
      propertyPath: m_Size.x
      value: 0.75
      objectReference: {fileID: 0}
    - target: {fileID: 61477104421331976, guid: 8670cf86c24234bf391820e408de6d24,
        type: 3}
      propertyPath: m_Size.y
      value: 0.75
      objectReference: {fileID: 0}
    - target: {fileID: 61477104421331976, guid: 8670cf86c24234bf391820e408de6d24,
        type: 3}
      propertyPath: m_AutoTiling
      value: 1
      objectReference: {fileID: 0}
    - target: {fileID: 61477104421331976, guid: 8670cf86c24234bf391820e408de6d24,
        type: 3}
      propertyPath: m_SpriteTilingProperty.drawMode
      value: 2
      objectReference: {fileID: 0}
    - target: {fileID: 61477104421331976, guid: 8670cf86c24234bf391820e408de6d24,
        type: 3}
      propertyPath: m_SpriteTilingProperty.newSize.x
      value: 3
      objectReference: {fileID: 0}
    - target: {fileID: 61477104421331976, guid: 8670cf86c24234bf391820e408de6d24,
        type: 3}
      propertyPath: m_SpriteTilingProperty.newSize.y
      value: 1
      objectReference: {fileID: 0}
    - target: {fileID: 212926256537594904, guid: 8670cf86c24234bf391820e408de6d24,
        type: 3}
      propertyPath: m_Size.x
      value: 3
      objectReference: {fileID: 0}
    - target: {fileID: 212926256537594904, guid: 8670cf86c24234bf391820e408de6d24,
        type: 3}
      propertyPath: m_Size.y
      value: 1
      objectReference: {fileID: 0}
    - target: {fileID: 212926256537594904, guid: 8670cf86c24234bf391820e408de6d24,
        type: 3}
      propertyPath: m_DrawMode
      value: 2
      objectReference: {fileID: 0}
    - target: {fileID: 1626150754273476976, guid: 8670cf86c24234bf391820e408de6d24,
        type: 3}
      propertyPath: m_Extents.x
      value: 1.5
      objectReference: {fileID: 0}
    - target: {fileID: 1626150754273476976, guid: 8670cf86c24234bf391820e408de6d24,
        type: 3}
      propertyPath: m_Extents.y
      value: 0.5
      objectReference: {fileID: 0}
    - target: {fileID: 1626150754273476976, guid: 8670cf86c24234bf391820e408de6d24,
        type: 3}
      propertyPath: m_Extents.z
      value: 0.15
      objectReference: {fileID: 0}
    m_RemovedComponents: []
  m_SourcePrefab: {fileID: 100100000, guid: 8670cf86c24234bf391820e408de6d24, type: 3}
--- !u!1001 &8532325573945556592
PrefabInstance:
  m_ObjectHideFlags: 0
  serializedVersion: 2
  m_Modification:
    m_TransformParent: {fileID: 0}
    m_Modifications:
    - target: {fileID: 437275677996588713, guid: d1864b87248b74381b59748b50dbd186,
        type: 3}
      propertyPath: m_Text
      value: node-14-0
      objectReference: {fileID: 0}
    - target: {fileID: 1054686322908492400, guid: d1864b87248b74381b59748b50dbd186,
        type: 3}
      propertyPath: m_RootOrder
      value: 3
      objectReference: {fileID: 0}
    - target: {fileID: 1301624615008601836, guid: d1864b87248b74381b59748b50dbd186,
        type: 3}
      propertyPath: m_Name
      value: node-14-0
      objectReference: {fileID: 0}
    - target: {fileID: 1810661693476826660, guid: d1864b87248b74381b59748b50dbd186,
        type: 3}
      propertyPath: m_RootOrder
      value: 0
      objectReference: {fileID: 0}
    - target: {fileID: 1810661693476826660, guid: d1864b87248b74381b59748b50dbd186,
        type: 3}
      propertyPath: m_LocalPosition.x
      value: 80
      objectReference: {fileID: 0}
    - target: {fileID: 1810661693476826660, guid: d1864b87248b74381b59748b50dbd186,
        type: 3}
      propertyPath: m_LocalPosition.y
      value: 40
      objectReference: {fileID: 0}
    - target: {fileID: 1810661693476826660, guid: d1864b87248b74381b59748b50dbd186,
        type: 3}
      propertyPath: m_LocalPosition.z
      value: 0
      objectReference: {fileID: 0}
    - target: {fileID: 1810661693476826660, guid: d1864b87248b74381b59748b50dbd186,
        type: 3}
      propertyPath: m_LocalRotation.w
      value: 1
      objectReference: {fileID: 0}
    - target: {fileID: 1810661693476826660, guid: d1864b87248b74381b59748b50dbd186,
        type: 3}
      propertyPath: m_LocalRotation.x
      value: 0
      objectReference: {fileID: 0}
    - target: {fileID: 1810661693476826660, guid: d1864b87248b74381b59748b50dbd186,
        type: 3}
      propertyPath: m_LocalRotation.y
      value: 0
      objectReference: {fileID: 0}
    - target: {fileID: 1810661693476826660, guid: d1864b87248b74381b59748b50dbd186,
        type: 3}
      propertyPath: m_LocalRotation.z
      value: 0
      objectReference: {fileID: 0}
    - target: {fileID: 1810661693476826660, guid: d1864b87248b74381b59748b50dbd186,
        type: 3}
      propertyPath: m_LocalEulerAnglesHint.x
      value: 0
      objectReference: {fileID: 0}
    - target: {fileID: 1810661693476826660, guid: d1864b87248b74381b59748b50dbd186,
        type: 3}
      propertyPath: m_LocalEulerAnglesHint.y
      value: 0
      objectReference: {fileID: 0}
    - target: {fileID: 1810661693476826660, guid: d1864b87248b74381b59748b50dbd186,
        type: 3}
      propertyPath: m_LocalEulerAnglesHint.z
      value: 0
      objectReference: {fileID: 0}
    - target: {fileID: 6379974361363133168, guid: d1864b87248b74381b59748b50dbd186,
        type: 3}
      propertyPath: m_RootOrder
      value: 6
      objectReference: {fileID: 0}
    - target: {fileID: 6379974361363133169, guid: d1864b87248b74381b59748b50dbd186,
        type: 3}
      propertyPath: text
      value: node-14-0
      objectReference: {fileID: 0}
    m_RemovedComponents: []
  m_SourcePrefab: {fileID: 100100000, guid: d1864b87248b74381b59748b50dbd186, type: 3}
--- !u!4 &8018707311958069332 stripped
Transform:
  m_CorrespondingSourceObject: {fileID: 1810661693476826660, guid: d1864b87248b74381b59748b50dbd186,
    type: 3}
  m_PrefabInstance: {fileID: 8532325573945556592}
  m_PrefabAsset: {fileID: 0}
