%YAML 1.1
%TAG !u! tag:unity3d.com,2011:
--- !u!1001 &31641845964172191
PrefabInstance:
  m_ObjectHideFlags: 0
  serializedVersion: 2
  m_Modification:
    m_TransformParent: {fileID: 0}
    m_Modifications:
    - target: {fileID: 437275677996588713, guid: d1864b87248b74381b59748b50dbd186,
        type: 3}
      propertyPath: m_Text
      value: node-15-1
      objectReference: {fileID: 0}
    - target: {fileID: 1054686322908492400, guid: d1864b87248b74381b59748b50dbd186,
        type: 3}
      propertyPath: m_RootOrder
      value: 4
      objectReference: {fileID: 0}
    - target: {fileID: 1301624615008601836, guid: d1864b87248b74381b59748b50dbd186,
        type: 3}
      propertyPath: m_Name
      value: node-15-1
      objectReference: {fileID: 0}
    - target: {fileID: 1810661693476826660, guid: d1864b87248b74381b59748b50dbd186,
        type: 3}
      propertyPath: m_RootOrder
      value: 0
      objectReference: {fileID: 0}
    - target: {fileID: 1810661693476826660, guid: d1864b87248b74381b59748b50dbd186,
        type: 3}
      propertyPath: m_LocalPosition.x
      value: 0
      objectReference: {fileID: 0}
    - target: {fileID: 1810661693476826660, guid: d1864b87248b74381b59748b50dbd186,
        type: 3}
      propertyPath: m_LocalPosition.y
      value: 0
      objectReference: {fileID: 0}
    - target: {fileID: 1810661693476826660, guid: d1864b87248b74381b59748b50dbd186,
        type: 3}
      propertyPath: m_LocalPosition.z
      value: 0
      objectReference: {fileID: 0}
    - target: {fileID: 1810661693476826660, guid: d1864b87248b74381b59748b50dbd186,
        type: 3}
      propertyPath: m_LocalRotation.w
      value: 1
      objectReference: {fileID: 0}
    - target: {fileID: 1810661693476826660, guid: d1864b87248b74381b59748b50dbd186,
        type: 3}
      propertyPath: m_LocalRotation.x
      value: 0
      objectReference: {fileID: 0}
    - target: {fileID: 1810661693476826660, guid: d1864b87248b74381b59748b50dbd186,
        type: 3}
      propertyPath: m_LocalRotation.y
      value: 0
      objectReference: {fileID: 0}
    - target: {fileID: 1810661693476826660, guid: d1864b87248b74381b59748b50dbd186,
        type: 3}
      propertyPath: m_LocalRotation.z
      value: 0
      objectReference: {fileID: 0}
    - target: {fileID: 1810661693476826660, guid: d1864b87248b74381b59748b50dbd186,
        type: 3}
      propertyPath: m_LocalEulerAnglesHint.x
      value: 0
      objectReference: {fileID: 0}
    - target: {fileID: 1810661693476826660, guid: d1864b87248b74381b59748b50dbd186,
        type: 3}
      propertyPath: m_LocalEulerAnglesHint.y
      value: 0
      objectReference: {fileID: 0}
    - target: {fileID: 1810661693476826660, guid: d1864b87248b74381b59748b50dbd186,
        type: 3}
      propertyPath: m_LocalEulerAnglesHint.z
      value: 0
      objectReference: {fileID: 0}
    - target: {fileID: 6379974361363133168, guid: d1864b87248b74381b59748b50dbd186,
        type: 3}
      propertyPath: m_RootOrder
      value: 28
      objectReference: {fileID: 0}
    - target: {fileID: 6379974361363133169, guid: d1864b87248b74381b59748b50dbd186,
        type: 3}
      propertyPath: text
      value: node-15-1
      objectReference: {fileID: 0}
    m_RemovedComponents: []
  m_SourcePrefab: {fileID: 100100000, guid: d1864b87248b74381b59748b50dbd186, type: 3}
--- !u!4 &1824143807557174715 stripped
Transform:
  m_CorrespondingSourceObject: {fileID: 1810661693476826660, guid: d1864b87248b74381b59748b50dbd186,
    type: 3}
  m_PrefabInstance: {fileID: 31641845964172191}
  m_PrefabAsset: {fileID: 0}
--- !u!1001 &54929110077787478
PrefabInstance:
  m_ObjectHideFlags: 0
  serializedVersion: 2
  m_Modification:
    m_TransformParent: {fileID: 1824143807557174715}
    m_Modifications:
    - target: {fileID: 5308494525571725922, guid: c5d7527e599fa45fcb9fb600afffa921,
        type: 3}
      propertyPath: m_Extents.y
      value: 1
      objectReference: {fileID: 0}
    - target: {fileID: 6759559540728682250, guid: c5d7527e599fa45fcb9fb600afffa921,
        type: 3}
      propertyPath: m_Size.y
      value: 2
      objectReference: {fileID: 0}
    - target: {fileID: 6860432358930890502, guid: c5d7527e599fa45fcb9fb600afffa921,
        type: 3}
      propertyPath: m_RootOrder
      value: 13
      objectReference: {fileID: 0}
    - target: {fileID: 6860432358930890502, guid: c5d7527e599fa45fcb9fb600afffa921,
        type: 3}
      propertyPath: m_LocalPosition.x
      value: 8.25
      objectReference: {fileID: 0}
    - target: {fileID: 6860432358930890502, guid: c5d7527e599fa45fcb9fb600afffa921,
        type: 3}
      propertyPath: m_LocalPosition.y
      value: 7
      objectReference: {fileID: 0}
    - target: {fileID: 6860432358930890502, guid: c5d7527e599fa45fcb9fb600afffa921,
        type: 3}
      propertyPath: m_LocalPosition.z
      value: 0
      objectReference: {fileID: 0}
    - target: {fileID: 6860432358930890502, guid: c5d7527e599fa45fcb9fb600afffa921,
        type: 3}
      propertyPath: m_LocalRotation.w
      value: 1
      objectReference: {fileID: 0}
    - target: {fileID: 6860432358930890502, guid: c5d7527e599fa45fcb9fb600afffa921,
        type: 3}
      propertyPath: m_LocalRotation.x
      value: -0
      objectReference: {fileID: 0}
    - target: {fileID: 6860432358930890502, guid: c5d7527e599fa45fcb9fb600afffa921,
        type: 3}
      propertyPath: m_LocalRotation.y
      value: -0
      objectReference: {fileID: 0}
    - target: {fileID: 6860432358930890502, guid: c5d7527e599fa45fcb9fb600afffa921,
        type: 3}
      propertyPath: m_LocalRotation.z
      value: -0
      objectReference: {fileID: 0}
    - target: {fileID: 6860432358930890502, guid: c5d7527e599fa45fcb9fb600afffa921,
        type: 3}
      propertyPath: m_LocalEulerAnglesHint.x
      value: 0
      objectReference: {fileID: 0}
    - target: {fileID: 6860432358930890502, guid: c5d7527e599fa45fcb9fb600afffa921,
        type: 3}
      propertyPath: m_LocalEulerAnglesHint.y
      value: 0
      objectReference: {fileID: 0}
    - target: {fileID: 6860432358930890502, guid: c5d7527e599fa45fcb9fb600afffa921,
        type: 3}
      propertyPath: m_LocalEulerAnglesHint.z
      value: 0
      objectReference: {fileID: 0}
    - target: {fileID: 6861527596734106198, guid: c5d7527e599fa45fcb9fb600afffa921,
        type: 3}
      propertyPath: m_Name
      value: wall (2)
      objectReference: {fileID: 0}
    - target: {fileID: 6908761256600067866, guid: c5d7527e599fa45fcb9fb600afffa921,
        type: 3}
      propertyPath: m_SpriteTilingProperty.newSize.y
      value: 2
      objectReference: {fileID: 0}
    m_RemovedComponents: []
  m_SourcePrefab: {fileID: 100100000, guid: c5d7527e599fa45fcb9fb600afffa921, type: 3}
--- !u!1001 &140349342034943310
PrefabInstance:
  m_ObjectHideFlags: 0
  serializedVersion: 2
  m_Modification:
    m_TransformParent: {fileID: 1824143807557174715}
    m_Modifications:
    - target: {fileID: 1049093956366660, guid: d6b69d4e3b4ac48e1bf677318fce1444, type: 3}
      propertyPath: m_Name
      value: floor-thin (3)
      objectReference: {fileID: 0}
    - target: {fileID: 4387301254824980, guid: d6b69d4e3b4ac48e1bf677318fce1444, type: 3}
      propertyPath: m_RootOrder
      value: 25
      objectReference: {fileID: 0}
    - target: {fileID: 4387301254824980, guid: d6b69d4e3b4ac48e1bf677318fce1444, type: 3}
      propertyPath: m_LocalPosition.x
      value: 1
      objectReference: {fileID: 0}
    - target: {fileID: 4387301254824980, guid: d6b69d4e3b4ac48e1bf677318fce1444, type: 3}
      propertyPath: m_LocalPosition.y
      value: 6
      objectReference: {fileID: 0}
    - target: {fileID: 4387301254824980, guid: d6b69d4e3b4ac48e1bf677318fce1444, type: 3}
      propertyPath: m_LocalPosition.z
      value: 0
      objectReference: {fileID: 0}
    - target: {fileID: 4387301254824980, guid: d6b69d4e3b4ac48e1bf677318fce1444, type: 3}
      propertyPath: m_LocalRotation.w
      value: 1
      objectReference: {fileID: 0}
    - target: {fileID: 4387301254824980, guid: d6b69d4e3b4ac48e1bf677318fce1444, type: 3}
      propertyPath: m_LocalRotation.x
      value: -0
      objectReference: {fileID: 0}
    - target: {fileID: 4387301254824980, guid: d6b69d4e3b4ac48e1bf677318fce1444, type: 3}
      propertyPath: m_LocalRotation.y
      value: -0
      objectReference: {fileID: 0}
    - target: {fileID: 4387301254824980, guid: d6b69d4e3b4ac48e1bf677318fce1444, type: 3}
      propertyPath: m_LocalRotation.z
      value: -0
      objectReference: {fileID: 0}
    - target: {fileID: 4387301254824980, guid: d6b69d4e3b4ac48e1bf677318fce1444, type: 3}
      propertyPath: m_LocalEulerAnglesHint.x
      value: 0
      objectReference: {fileID: 0}
    - target: {fileID: 4387301254824980, guid: d6b69d4e3b4ac48e1bf677318fce1444, type: 3}
      propertyPath: m_LocalEulerAnglesHint.y
      value: 0
      objectReference: {fileID: 0}
    - target: {fileID: 4387301254824980, guid: d6b69d4e3b4ac48e1bf677318fce1444, type: 3}
      propertyPath: m_LocalEulerAnglesHint.z
      value: 0
      objectReference: {fileID: 0}
    - target: {fileID: 61477104421331976, guid: d6b69d4e3b4ac48e1bf677318fce1444,
        type: 3}
      propertyPath: m_Size.y
      value: 0.75
      objectReference: {fileID: 0}
    m_RemovedComponents: []
  m_SourcePrefab: {fileID: 100100000, guid: d6b69d4e3b4ac48e1bf677318fce1444, type: 3}
--- !u!1001 &300875928593482791
PrefabInstance:
  m_ObjectHideFlags: 0
  serializedVersion: 2
  m_Modification:
    m_TransformParent: {fileID: 1824143807557174715}
    m_Modifications:
    - target: {fileID: 1531869447189520822, guid: 97fd5e00c27064fe3a9891a8484d9074,
        type: 3}
      propertyPath: m_Name
      value: bg wall (1)
      objectReference: {fileID: 0}
    - target: {fileID: 3784639491395550152, guid: 97fd5e00c27064fe3a9891a8484d9074,
        type: 3}
      propertyPath: m_RootOrder
      value: 3
      objectReference: {fileID: 0}
    - target: {fileID: 3784639491395550152, guid: 97fd5e00c27064fe3a9891a8484d9074,
        type: 3}
      propertyPath: m_LocalPosition.x
      value: 5
      objectReference: {fileID: 0}
    - target: {fileID: 3784639491395550152, guid: 97fd5e00c27064fe3a9891a8484d9074,
        type: 3}
      propertyPath: m_LocalPosition.y
      value: 5
      objectReference: {fileID: 0}
    - target: {fileID: 3784639491395550152, guid: 97fd5e00c27064fe3a9891a8484d9074,
        type: 3}
      propertyPath: m_LocalPosition.z
      value: 0
      objectReference: {fileID: 0}
    - target: {fileID: 3784639491395550152, guid: 97fd5e00c27064fe3a9891a8484d9074,
        type: 3}
      propertyPath: m_LocalRotation.w
      value: 1
      objectReference: {fileID: 0}
    - target: {fileID: 3784639491395550152, guid: 97fd5e00c27064fe3a9891a8484d9074,
        type: 3}
      propertyPath: m_LocalRotation.x
      value: -0
      objectReference: {fileID: 0}
    - target: {fileID: 3784639491395550152, guid: 97fd5e00c27064fe3a9891a8484d9074,
        type: 3}
      propertyPath: m_LocalRotation.y
      value: -0
      objectReference: {fileID: 0}
    - target: {fileID: 3784639491395550152, guid: 97fd5e00c27064fe3a9891a8484d9074,
        type: 3}
      propertyPath: m_LocalRotation.z
      value: -0
      objectReference: {fileID: 0}
    - target: {fileID: 3784639491395550152, guid: 97fd5e00c27064fe3a9891a8484d9074,
        type: 3}
      propertyPath: m_LocalEulerAnglesHint.x
      value: 0
      objectReference: {fileID: 0}
    - target: {fileID: 3784639491395550152, guid: 97fd5e00c27064fe3a9891a8484d9074,
        type: 3}
      propertyPath: m_LocalEulerAnglesHint.y
      value: 0
      objectReference: {fileID: 0}
    - target: {fileID: 3784639491395550152, guid: 97fd5e00c27064fe3a9891a8484d9074,
        type: 3}
      propertyPath: m_LocalEulerAnglesHint.z
      value: 0
      objectReference: {fileID: 0}
    - target: {fileID: 4654359712525082122, guid: 97fd5e00c27064fe3a9891a8484d9074,
        type: 3}
      propertyPath: m_Size.x
      value: 10
      objectReference: {fileID: 0}
    - target: {fileID: 4654359712525082122, guid: 97fd5e00c27064fe3a9891a8484d9074,
        type: 3}
      propertyPath: m_Size.y
      value: 10
      objectReference: {fileID: 0}
    m_RemovedComponents: []
  m_SourcePrefab: {fileID: 100100000, guid: 97fd5e00c27064fe3a9891a8484d9074, type: 3}
--- !u!1001 &993566727238377022
PrefabInstance:
  m_ObjectHideFlags: 0
  serializedVersion: 2
  m_Modification:
    m_TransformParent: {fileID: 1824143807557174715}
    m_Modifications:
    - target: {fileID: 5308494525571725922, guid: c5d7527e599fa45fcb9fb600afffa921,
        type: 3}
      propertyPath: m_Extents.y
      value: 1
      objectReference: {fileID: 0}
    - target: {fileID: 6759559540728682250, guid: c5d7527e599fa45fcb9fb600afffa921,
        type: 3}
      propertyPath: m_Size.y
      value: 2
      objectReference: {fileID: 0}
    - target: {fileID: 6860432358930890502, guid: c5d7527e599fa45fcb9fb600afffa921,
        type: 3}
      propertyPath: m_RootOrder
      value: 15
      objectReference: {fileID: 0}
    - target: {fileID: 6860432358930890502, guid: c5d7527e599fa45fcb9fb600afffa921,
        type: 3}
      propertyPath: m_LocalPosition.x
      value: 5.25
      objectReference: {fileID: 0}
    - target: {fileID: 6860432358930890502, guid: c5d7527e599fa45fcb9fb600afffa921,
        type: 3}
      propertyPath: m_LocalPosition.y
      value: 6
      objectReference: {fileID: 0}
    - target: {fileID: 6860432358930890502, guid: c5d7527e599fa45fcb9fb600afffa921,
        type: 3}
      propertyPath: m_LocalPosition.z
      value: 0
      objectReference: {fileID: 0}
    - target: {fileID: 6860432358930890502, guid: c5d7527e599fa45fcb9fb600afffa921,
        type: 3}
      propertyPath: m_LocalRotation.w
      value: 1
      objectReference: {fileID: 0}
    - target: {fileID: 6860432358930890502, guid: c5d7527e599fa45fcb9fb600afffa921,
        type: 3}
      propertyPath: m_LocalRotation.x
      value: -0
      objectReference: {fileID: 0}
    - target: {fileID: 6860432358930890502, guid: c5d7527e599fa45fcb9fb600afffa921,
        type: 3}
      propertyPath: m_LocalRotation.y
      value: -0
      objectReference: {fileID: 0}
    - target: {fileID: 6860432358930890502, guid: c5d7527e599fa45fcb9fb600afffa921,
        type: 3}
      propertyPath: m_LocalRotation.z
      value: -0
      objectReference: {fileID: 0}
    - target: {fileID: 6860432358930890502, guid: c5d7527e599fa45fcb9fb600afffa921,
        type: 3}
      propertyPath: m_LocalEulerAnglesHint.x
      value: 0
      objectReference: {fileID: 0}
    - target: {fileID: 6860432358930890502, guid: c5d7527e599fa45fcb9fb600afffa921,
        type: 3}
      propertyPath: m_LocalEulerAnglesHint.y
      value: 0
      objectReference: {fileID: 0}
    - target: {fileID: 6860432358930890502, guid: c5d7527e599fa45fcb9fb600afffa921,
        type: 3}
      propertyPath: m_LocalEulerAnglesHint.z
      value: 0
      objectReference: {fileID: 0}
    - target: {fileID: 6861527596734106198, guid: c5d7527e599fa45fcb9fb600afffa921,
        type: 3}
      propertyPath: m_Name
      value: wall (4)
      objectReference: {fileID: 0}
    - target: {fileID: 6908761256600067866, guid: c5d7527e599fa45fcb9fb600afffa921,
        type: 3}
      propertyPath: m_SpriteTilingProperty.newSize.y
      value: 2
      objectReference: {fileID: 0}
    m_RemovedComponents: []
  m_SourcePrefab: {fileID: 100100000, guid: c5d7527e599fa45fcb9fb600afffa921, type: 3}
--- !u!1001 &1084403118238025879
PrefabInstance:
  m_ObjectHideFlags: 0
  serializedVersion: 2
  m_Modification:
    m_TransformParent: {fileID: 1824143807557174715}
    m_Modifications:
    - target: {fileID: 1049093956366660, guid: 8670cf86c24234bf391820e408de6d24, type: 3}
      propertyPath: m_Name
      value: floor (5)
      objectReference: {fileID: 0}
    - target: {fileID: 1049093956366660, guid: 8670cf86c24234bf391820e408de6d24, type: 3}
      propertyPath: m_StaticEditorFlags
      value: 4294967295
      objectReference: {fileID: 0}
    - target: {fileID: 4387301254824980, guid: 8670cf86c24234bf391820e408de6d24, type: 3}
      propertyPath: m_RootOrder
      value: 1
      objectReference: {fileID: 0}
    - target: {fileID: 4387301254824980, guid: 8670cf86c24234bf391820e408de6d24, type: 3}
      propertyPath: m_LocalScale.x
      value: 1
      objectReference: {fileID: 0}
    - target: {fileID: 4387301254824980, guid: 8670cf86c24234bf391820e408de6d24, type: 3}
      propertyPath: m_LocalScale.y
      value: 1
      objectReference: {fileID: 0}
    - target: {fileID: 4387301254824980, guid: 8670cf86c24234bf391820e408de6d24, type: 3}
      propertyPath: m_LocalPosition.x
      value: 9.5
      objectReference: {fileID: 0}
    - target: {fileID: 4387301254824980, guid: 8670cf86c24234bf391820e408de6d24, type: 3}
      propertyPath: m_LocalPosition.y
      value: 2
      objectReference: {fileID: 0}
    - target: {fileID: 4387301254824980, guid: 8670cf86c24234bf391820e408de6d24, type: 3}
      propertyPath: m_LocalPosition.z
      value: 0
      objectReference: {fileID: 0}
    - target: {fileID: 4387301254824980, guid: 8670cf86c24234bf391820e408de6d24, type: 3}
      propertyPath: m_LocalRotation.w
      value: 1
      objectReference: {fileID: 0}
    - target: {fileID: 4387301254824980, guid: 8670cf86c24234bf391820e408de6d24, type: 3}
      propertyPath: m_LocalRotation.x
      value: -0
      objectReference: {fileID: 0}
    - target: {fileID: 4387301254824980, guid: 8670cf86c24234bf391820e408de6d24, type: 3}
      propertyPath: m_LocalRotation.y
      value: -0
      objectReference: {fileID: 0}
    - target: {fileID: 4387301254824980, guid: 8670cf86c24234bf391820e408de6d24, type: 3}
      propertyPath: m_LocalRotation.z
      value: -0
      objectReference: {fileID: 0}
    - target: {fileID: 4387301254824980, guid: 8670cf86c24234bf391820e408de6d24, type: 3}
      propertyPath: m_LocalEulerAnglesHint.x
      value: 0
      objectReference: {fileID: 0}
    - target: {fileID: 4387301254824980, guid: 8670cf86c24234bf391820e408de6d24, type: 3}
      propertyPath: m_LocalEulerAnglesHint.y
      value: 0
      objectReference: {fileID: 0}
    - target: {fileID: 4387301254824980, guid: 8670cf86c24234bf391820e408de6d24, type: 3}
      propertyPath: m_LocalEulerAnglesHint.z
      value: 0
      objectReference: {fileID: 0}
    - target: {fileID: 61477104421331976, guid: 8670cf86c24234bf391820e408de6d24,
        type: 3}
      propertyPath: m_Size.x
      value: 0.75
      objectReference: {fileID: 0}
    - target: {fileID: 61477104421331976, guid: 8670cf86c24234bf391820e408de6d24,
        type: 3}
      propertyPath: m_Size.y
      value: 0.75
      objectReference: {fileID: 0}
    - target: {fileID: 61477104421331976, guid: 8670cf86c24234bf391820e408de6d24,
        type: 3}
      propertyPath: m_AutoTiling
      value: 1
      objectReference: {fileID: 0}
    - target: {fileID: 61477104421331976, guid: 8670cf86c24234bf391820e408de6d24,
        type: 3}
      propertyPath: m_SpriteTilingProperty.drawMode
      value: 2
      objectReference: {fileID: 0}
    - target: {fileID: 61477104421331976, guid: 8670cf86c24234bf391820e408de6d24,
        type: 3}
      propertyPath: m_SpriteTilingProperty.newSize.x
      value: 1
      objectReference: {fileID: 0}
    - target: {fileID: 61477104421331976, guid: 8670cf86c24234bf391820e408de6d24,
        type: 3}
      propertyPath: m_SpriteTilingProperty.newSize.y
      value: 4
      objectReference: {fileID: 0}
    - target: {fileID: 212926256537594904, guid: 8670cf86c24234bf391820e408de6d24,
        type: 3}
      propertyPath: m_Size.x
      value: 1
      objectReference: {fileID: 0}
    - target: {fileID: 212926256537594904, guid: 8670cf86c24234bf391820e408de6d24,
        type: 3}
      propertyPath: m_Size.y
      value: 4
      objectReference: {fileID: 0}
    - target: {fileID: 212926256537594904, guid: 8670cf86c24234bf391820e408de6d24,
        type: 3}
      propertyPath: m_DrawMode
      value: 2
      objectReference: {fileID: 0}
    - target: {fileID: 1626150754273476976, guid: 8670cf86c24234bf391820e408de6d24,
        type: 3}
      propertyPath: m_Extents.x
      value: 0.5
      objectReference: {fileID: 0}
    - target: {fileID: 1626150754273476976, guid: 8670cf86c24234bf391820e408de6d24,
        type: 3}
      propertyPath: m_Extents.y
      value: 2
      objectReference: {fileID: 0}
    - target: {fileID: 1626150754273476976, guid: 8670cf86c24234bf391820e408de6d24,
        type: 3}
      propertyPath: m_Extents.z
      value: 0.15
      objectReference: {fileID: 0}
    m_RemovedComponents: []
  m_SourcePrefab: {fileID: 100100000, guid: 8670cf86c24234bf391820e408de6d24, type: 3}
--- !u!1001 &1206300648629946209
PrefabInstance:
  m_ObjectHideFlags: 0
  serializedVersion: 2
  m_Modification:
    m_TransformParent: {fileID: 1824143807557174715}
    m_Modifications:
    - target: {fileID: 1001085200693856357, guid: 0376c36a6904b441bb01fc152697e3e5,
        type: 3}
      propertyPath: m_Size.x
      value: 0.5
      objectReference: {fileID: 0}
    - target: {fileID: 1001085200693856357, guid: 0376c36a6904b441bb01fc152697e3e5,
        type: 3}
      propertyPath: m_Size.y
      value: 0.5
      objectReference: {fileID: 0}
    - target: {fileID: 1001085200711817300, guid: 0376c36a6904b441bb01fc152697e3e5,
        type: 3}
      propertyPath: m_Size.x
      value: 0.5
      objectReference: {fileID: 0}
    - target: {fileID: 1001085200711817300, guid: 0376c36a6904b441bb01fc152697e3e5,
        type: 3}
      propertyPath: m_Size.y
      value: 0.5
      objectReference: {fileID: 0}
    - target: {fileID: 3615708565415036198, guid: 0376c36a6904b441bb01fc152697e3e5,
        type: 3}
      propertyPath: m_Name
      value: crawlspace vertical
      objectReference: {fileID: 0}
    - target: {fileID: 3615708565415036200, guid: 0376c36a6904b441bb01fc152697e3e5,
        type: 3}
      propertyPath: m_RootOrder
      value: 6
      objectReference: {fileID: 0}
    - target: {fileID: 3615708565415036200, guid: 0376c36a6904b441bb01fc152697e3e5,
        type: 3}
      propertyPath: m_LocalPosition.x
      value: 4.25
      objectReference: {fileID: 0}
    - target: {fileID: 3615708565415036200, guid: 0376c36a6904b441bb01fc152697e3e5,
        type: 3}
      propertyPath: m_LocalPosition.y
      value: 1.5
      objectReference: {fileID: 0}
    - target: {fileID: 3615708565415036200, guid: 0376c36a6904b441bb01fc152697e3e5,
        type: 3}
      propertyPath: m_LocalPosition.z
      value: 0
      objectReference: {fileID: 0}
    - target: {fileID: 3615708565415036200, guid: 0376c36a6904b441bb01fc152697e3e5,
        type: 3}
      propertyPath: m_LocalRotation.w
      value: 1
      objectReference: {fileID: 0}
    - target: {fileID: 3615708565415036200, guid: 0376c36a6904b441bb01fc152697e3e5,
        type: 3}
      propertyPath: m_LocalRotation.x
      value: -0
      objectReference: {fileID: 0}
    - target: {fileID: 3615708565415036200, guid: 0376c36a6904b441bb01fc152697e3e5,
        type: 3}
      propertyPath: m_LocalRotation.y
      value: -0
      objectReference: {fileID: 0}
    - target: {fileID: 3615708565415036200, guid: 0376c36a6904b441bb01fc152697e3e5,
        type: 3}
      propertyPath: m_LocalRotation.z
      value: -0
      objectReference: {fileID: 0}
    - target: {fileID: 3615708565415036200, guid: 0376c36a6904b441bb01fc152697e3e5,
        type: 3}
      propertyPath: m_LocalEulerAnglesHint.x
      value: 0
      objectReference: {fileID: 0}
    - target: {fileID: 3615708565415036200, guid: 0376c36a6904b441bb01fc152697e3e5,
        type: 3}
      propertyPath: m_LocalEulerAnglesHint.y
      value: 0
      objectReference: {fileID: 0}
    - target: {fileID: 3615708565415036200, guid: 0376c36a6904b441bb01fc152697e3e5,
        type: 3}
      propertyPath: m_LocalEulerAnglesHint.z
      value: 0
      objectReference: {fileID: 0}
    m_RemovedComponents: []
  m_SourcePrefab: {fileID: 100100000, guid: 0376c36a6904b441bb01fc152697e3e5, type: 3}
--- !u!1001 &1354244595896710148
PrefabInstance:
  m_ObjectHideFlags: 0
  serializedVersion: 2
  m_Modification:
    m_TransformParent: {fileID: 1824143807557174715}
    m_Modifications:
    - target: {fileID: 5308494525571725922, guid: c5d7527e599fa45fcb9fb600afffa921,
        type: 3}
      propertyPath: m_Extents.y
      value: 1
      objectReference: {fileID: 0}
    - target: {fileID: 6759559540728682250, guid: c5d7527e599fa45fcb9fb600afffa921,
        type: 3}
      propertyPath: m_Size.y
      value: 2
      objectReference: {fileID: 0}
    - target: {fileID: 6860432358930890502, guid: c5d7527e599fa45fcb9fb600afffa921,
        type: 3}
      propertyPath: m_RootOrder
      value: 10
      objectReference: {fileID: 0}
    - target: {fileID: 6860432358930890502, guid: c5d7527e599fa45fcb9fb600afffa921,
        type: 3}
      propertyPath: m_LocalPosition.x
      value: 8.25
      objectReference: {fileID: 0}
    - target: {fileID: 6860432358930890502, guid: c5d7527e599fa45fcb9fb600afffa921,
        type: 3}
      propertyPath: m_LocalPosition.y
      value: 4
      objectReference: {fileID: 0}
    - target: {fileID: 6860432358930890502, guid: c5d7527e599fa45fcb9fb600afffa921,
        type: 3}
      propertyPath: m_LocalPosition.z
      value: 0
      objectReference: {fileID: 0}
    - target: {fileID: 6860432358930890502, guid: c5d7527e599fa45fcb9fb600afffa921,
        type: 3}
      propertyPath: m_LocalRotation.w
      value: 1
      objectReference: {fileID: 0}
    - target: {fileID: 6860432358930890502, guid: c5d7527e599fa45fcb9fb600afffa921,
        type: 3}
      propertyPath: m_LocalRotation.x
      value: -0
      objectReference: {fileID: 0}
    - target: {fileID: 6860432358930890502, guid: c5d7527e599fa45fcb9fb600afffa921,
        type: 3}
      propertyPath: m_LocalRotation.y
      value: -0
      objectReference: {fileID: 0}
    - target: {fileID: 6860432358930890502, guid: c5d7527e599fa45fcb9fb600afffa921,
        type: 3}
      propertyPath: m_LocalRotation.z
      value: -0
      objectReference: {fileID: 0}
    - target: {fileID: 6860432358930890502, guid: c5d7527e599fa45fcb9fb600afffa921,
        type: 3}
      propertyPath: m_LocalEulerAnglesHint.x
      value: 0
      objectReference: {fileID: 0}
    - target: {fileID: 6860432358930890502, guid: c5d7527e599fa45fcb9fb600afffa921,
        type: 3}
      propertyPath: m_LocalEulerAnglesHint.y
      value: 0
      objectReference: {fileID: 0}
    - target: {fileID: 6860432358930890502, guid: c5d7527e599fa45fcb9fb600afffa921,
        type: 3}
      propertyPath: m_LocalEulerAnglesHint.z
      value: 0
      objectReference: {fileID: 0}
    - target: {fileID: 6861527596734106198, guid: c5d7527e599fa45fcb9fb600afffa921,
        type: 3}
      propertyPath: m_Name
      value: wall (1)
      objectReference: {fileID: 0}
    - target: {fileID: 6908761256600067866, guid: c5d7527e599fa45fcb9fb600afffa921,
        type: 3}
      propertyPath: m_SpriteTilingProperty.newSize.y
      value: 2
      objectReference: {fileID: 0}
    m_RemovedComponents: []
  m_SourcePrefab: {fileID: 100100000, guid: c5d7527e599fa45fcb9fb600afffa921, type: 3}
--- !u!1001 &1798159544025409808
PrefabInstance:
  m_ObjectHideFlags: 0
  serializedVersion: 2
  m_Modification:
    m_TransformParent: {fileID: 1824143807557174715}
    m_Modifications:
    - target: {fileID: 4076200707986567607, guid: 35ab440881b114e7e892b7b6da38242c,
        type: 3}
      propertyPath: m_Size.x
      value: 0.5
      objectReference: {fileID: 0}
    - target: {fileID: 4076200707986567607, guid: 35ab440881b114e7e892b7b6da38242c,
        type: 3}
      propertyPath: m_Size.y
      value: 0.5
      objectReference: {fileID: 0}
    - target: {fileID: 6580741545624801248, guid: 35ab440881b114e7e892b7b6da38242c,
        type: 3}
      propertyPath: m_RootOrder
      value: 21
      objectReference: {fileID: 0}
    - target: {fileID: 6580741545624801248, guid: 35ab440881b114e7e892b7b6da38242c,
        type: 3}
      propertyPath: m_LocalPosition.x
      value: 5.25
      objectReference: {fileID: 0}
    - target: {fileID: 6580741545624801248, guid: 35ab440881b114e7e892b7b6da38242c,
        type: 3}
      propertyPath: m_LocalPosition.y
      value: 2.25
      objectReference: {fileID: 0}
    - target: {fileID: 6580741545624801248, guid: 35ab440881b114e7e892b7b6da38242c,
        type: 3}
      propertyPath: m_LocalPosition.z
      value: 0
      objectReference: {fileID: 0}
    - target: {fileID: 6580741545624801248, guid: 35ab440881b114e7e892b7b6da38242c,
        type: 3}
      propertyPath: m_LocalRotation.w
      value: 1
      objectReference: {fileID: 0}
    - target: {fileID: 6580741545624801248, guid: 35ab440881b114e7e892b7b6da38242c,
        type: 3}
      propertyPath: m_LocalRotation.x
      value: -0
      objectReference: {fileID: 0}
    - target: {fileID: 6580741545624801248, guid: 35ab440881b114e7e892b7b6da38242c,
        type: 3}
      propertyPath: m_LocalRotation.y
      value: -0
      objectReference: {fileID: 0}
    - target: {fileID: 6580741545624801248, guid: 35ab440881b114e7e892b7b6da38242c,
        type: 3}
      propertyPath: m_LocalRotation.z
      value: -0
      objectReference: {fileID: 0}
    - target: {fileID: 6580741545624801248, guid: 35ab440881b114e7e892b7b6da38242c,
        type: 3}
      propertyPath: m_LocalEulerAnglesHint.x
      value: 0
      objectReference: {fileID: 0}
    - target: {fileID: 6580741545624801248, guid: 35ab440881b114e7e892b7b6da38242c,
        type: 3}
      propertyPath: m_LocalEulerAnglesHint.y
      value: 0
      objectReference: {fileID: 0}
    - target: {fileID: 6580741545624801248, guid: 35ab440881b114e7e892b7b6da38242c,
        type: 3}
      propertyPath: m_LocalEulerAnglesHint.z
      value: 0
      objectReference: {fileID: 0}
    - target: {fileID: 6675930426900349286, guid: 35ab440881b114e7e892b7b6da38242c,
        type: 3}
      propertyPath: m_Name
      value: box (5)
      objectReference: {fileID: 0}
    m_RemovedComponents: []
  m_SourcePrefab: {fileID: 100100000, guid: 35ab440881b114e7e892b7b6da38242c, type: 3}
--- !u!1001 &2067752463519050974
PrefabInstance:
  m_ObjectHideFlags: 0
  serializedVersion: 2
  m_Modification:
    m_TransformParent: {fileID: 1824143807557174715}
    m_Modifications:
    - target: {fileID: 4076200707986567607, guid: 35ab440881b114e7e892b7b6da38242c,
        type: 3}
      propertyPath: m_Size.x
      value: 0.5
      objectReference: {fileID: 0}
    - target: {fileID: 4076200707986567607, guid: 35ab440881b114e7e892b7b6da38242c,
        type: 3}
      propertyPath: m_Size.y
      value: 0.5
      objectReference: {fileID: 0}
    - target: {fileID: 6580741545624801248, guid: 35ab440881b114e7e892b7b6da38242c,
        type: 3}
      propertyPath: m_RootOrder
      value: 16
      objectReference: {fileID: 0}
    - target: {fileID: 6580741545624801248, guid: 35ab440881b114e7e892b7b6da38242c,
        type: 3}
      propertyPath: m_LocalPosition.x
      value: 1.25
      objectReference: {fileID: 0}
    - target: {fileID: 6580741545624801248, guid: 35ab440881b114e7e892b7b6da38242c,
        type: 3}
      propertyPath: m_LocalPosition.y
      value: 2.75
      objectReference: {fileID: 0}
    - target: {fileID: 6580741545624801248, guid: 35ab440881b114e7e892b7b6da38242c,
        type: 3}
      propertyPath: m_LocalPosition.z
      value: 0
      objectReference: {fileID: 0}
    - target: {fileID: 6580741545624801248, guid: 35ab440881b114e7e892b7b6da38242c,
        type: 3}
      propertyPath: m_LocalRotation.w
      value: 1
      objectReference: {fileID: 0}
    - target: {fileID: 6580741545624801248, guid: 35ab440881b114e7e892b7b6da38242c,
        type: 3}
      propertyPath: m_LocalRotation.x
      value: -0
      objectReference: {fileID: 0}
    - target: {fileID: 6580741545624801248, guid: 35ab440881b114e7e892b7b6da38242c,
        type: 3}
      propertyPath: m_LocalRotation.y
      value: -0
      objectReference: {fileID: 0}
    - target: {fileID: 6580741545624801248, guid: 35ab440881b114e7e892b7b6da38242c,
        type: 3}
      propertyPath: m_LocalRotation.z
      value: -0
      objectReference: {fileID: 0}
    - target: {fileID: 6580741545624801248, guid: 35ab440881b114e7e892b7b6da38242c,
        type: 3}
      propertyPath: m_LocalEulerAnglesHint.x
      value: 0
      objectReference: {fileID: 0}
    - target: {fileID: 6580741545624801248, guid: 35ab440881b114e7e892b7b6da38242c,
        type: 3}
      propertyPath: m_LocalEulerAnglesHint.y
      value: 0
      objectReference: {fileID: 0}
    - target: {fileID: 6580741545624801248, guid: 35ab440881b114e7e892b7b6da38242c,
        type: 3}
      propertyPath: m_LocalEulerAnglesHint.z
      value: 0
      objectReference: {fileID: 0}
    - target: {fileID: 6675930426900349286, guid: 35ab440881b114e7e892b7b6da38242c,
        type: 3}
      propertyPath: m_Name
      value: box
      objectReference: {fileID: 0}
    m_RemovedComponents: []
  m_SourcePrefab: {fileID: 100100000, guid: 35ab440881b114e7e892b7b6da38242c, type: 3}
--- !u!1001 &2418112138460153420
PrefabInstance:
  m_ObjectHideFlags: 0
  serializedVersion: 2
  m_Modification:
    m_TransformParent: {fileID: 1824143807557174715}
    m_Modifications:
    - target: {fileID: 1049093956366660, guid: d6b69d4e3b4ac48e1bf677318fce1444, type: 3}
      propertyPath: m_Name
      value: floor-thin (1)
      objectReference: {fileID: 0}
    - target: {fileID: 4387301254824980, guid: d6b69d4e3b4ac48e1bf677318fce1444, type: 3}
      propertyPath: m_RootOrder
      value: 12
      objectReference: {fileID: 0}
    - target: {fileID: 4387301254824980, guid: d6b69d4e3b4ac48e1bf677318fce1444, type: 3}
      propertyPath: m_LocalPosition.x
      value: 6.89
      objectReference: {fileID: 0}
    - target: {fileID: 4387301254824980, guid: d6b69d4e3b4ac48e1bf677318fce1444, type: 3}
      propertyPath: m_LocalPosition.y
      value: 4.97
      objectReference: {fileID: 0}
    - target: {fileID: 4387301254824980, guid: d6b69d4e3b4ac48e1bf677318fce1444, type: 3}
      propertyPath: m_LocalPosition.z
      value: 0
      objectReference: {fileID: 0}
    - target: {fileID: 4387301254824980, guid: d6b69d4e3b4ac48e1bf677318fce1444, type: 3}
      propertyPath: m_LocalRotation.w
      value: 0.9940564
      objectReference: {fileID: 0}
    - target: {fileID: 4387301254824980, guid: d6b69d4e3b4ac48e1bf677318fce1444, type: 3}
      propertyPath: m_LocalRotation.x
      value: 0
      objectReference: {fileID: 0}
    - target: {fileID: 4387301254824980, guid: d6b69d4e3b4ac48e1bf677318fce1444, type: 3}
      propertyPath: m_LocalRotation.y
      value: 0
      objectReference: {fileID: 0}
    - target: {fileID: 4387301254824980, guid: d6b69d4e3b4ac48e1bf677318fce1444, type: 3}
      propertyPath: m_LocalRotation.z
      value: -0.10886683
      objectReference: {fileID: 0}
    - target: {fileID: 4387301254824980, guid: d6b69d4e3b4ac48e1bf677318fce1444, type: 3}
      propertyPath: m_LocalEulerAnglesHint.x
      value: 0
      objectReference: {fileID: 0}
    - target: {fileID: 4387301254824980, guid: d6b69d4e3b4ac48e1bf677318fce1444, type: 3}
      propertyPath: m_LocalEulerAnglesHint.y
      value: 0
      objectReference: {fileID: 0}
    - target: {fileID: 4387301254824980, guid: d6b69d4e3b4ac48e1bf677318fce1444, type: 3}
      propertyPath: m_LocalEulerAnglesHint.z
      value: -12.5
      objectReference: {fileID: 0}
    - target: {fileID: 61477104421331976, guid: d6b69d4e3b4ac48e1bf677318fce1444,
        type: 3}
      propertyPath: m_Size.y
      value: 0.75
      objectReference: {fileID: 0}
    - target: {fileID: 61477104421331976, guid: d6b69d4e3b4ac48e1bf677318fce1444,
        type: 3}
      propertyPath: m_SpriteTilingProperty.newSize.x
      value: 3
      objectReference: {fileID: 0}
    - target: {fileID: 212926256537594904, guid: d6b69d4e3b4ac48e1bf677318fce1444,
        type: 3}
      propertyPath: m_Size.x
      value: 3
      objectReference: {fileID: 0}
    - target: {fileID: 212926256537594904, guid: d6b69d4e3b4ac48e1bf677318fce1444,
        type: 3}
      propertyPath: m_SortingOrder
      value: -1
      objectReference: {fileID: 0}
    - target: {fileID: 1626150754273476976, guid: d6b69d4e3b4ac48e1bf677318fce1444,
        type: 3}
      propertyPath: m_Center.x
      value: 0
      objectReference: {fileID: 0}
    - target: {fileID: 1626150754273476976, guid: d6b69d4e3b4ac48e1bf677318fce1444,
        type: 3}
      propertyPath: m_Center.y
      value: 0
      objectReference: {fileID: 0}
    - target: {fileID: 1626150754273476976, guid: d6b69d4e3b4ac48e1bf677318fce1444,
        type: 3}
      propertyPath: m_Extents.x
      value: 1.5
      objectReference: {fileID: 0}
    m_RemovedComponents: []
  m_SourcePrefab: {fileID: 100100000, guid: d6b69d4e3b4ac48e1bf677318fce1444, type: 3}
--- !u!1001 &3080722543532572238
PrefabInstance:
  m_ObjectHideFlags: 0
  serializedVersion: 2
  m_Modification:
    m_TransformParent: {fileID: 1824143807557174715}
    m_Modifications:
    - target: {fileID: 4076200707986567607, guid: 35ab440881b114e7e892b7b6da38242c,
        type: 3}
      propertyPath: m_Size.x
      value: 0.5
      objectReference: {fileID: 0}
    - target: {fileID: 4076200707986567607, guid: 35ab440881b114e7e892b7b6da38242c,
        type: 3}
      propertyPath: m_Size.y
      value: 0.5
      objectReference: {fileID: 0}
    - target: {fileID: 6580741545624801248, guid: 35ab440881b114e7e892b7b6da38242c,
        type: 3}
      propertyPath: m_RootOrder
      value: 18
      objectReference: {fileID: 0}
    - target: {fileID: 6580741545624801248, guid: 35ab440881b114e7e892b7b6da38242c,
        type: 3}
      propertyPath: m_LocalPosition.x
      value: 1.25
      objectReference: {fileID: 0}
    - target: {fileID: 6580741545624801248, guid: 35ab440881b114e7e892b7b6da38242c,
        type: 3}
      propertyPath: m_LocalPosition.y
      value: 3.25
      objectReference: {fileID: 0}
    - target: {fileID: 6580741545624801248, guid: 35ab440881b114e7e892b7b6da38242c,
        type: 3}
      propertyPath: m_LocalPosition.z
      value: 0
      objectReference: {fileID: 0}
    - target: {fileID: 6580741545624801248, guid: 35ab440881b114e7e892b7b6da38242c,
        type: 3}
      propertyPath: m_LocalRotation.w
      value: 1
      objectReference: {fileID: 0}
    - target: {fileID: 6580741545624801248, guid: 35ab440881b114e7e892b7b6da38242c,
        type: 3}
      propertyPath: m_LocalRotation.x
      value: -0
      objectReference: {fileID: 0}
    - target: {fileID: 6580741545624801248, guid: 35ab440881b114e7e892b7b6da38242c,
        type: 3}
      propertyPath: m_LocalRotation.y
      value: -0
      objectReference: {fileID: 0}
    - target: {fileID: 6580741545624801248, guid: 35ab440881b114e7e892b7b6da38242c,
        type: 3}
      propertyPath: m_LocalRotation.z
      value: -0
      objectReference: {fileID: 0}
    - target: {fileID: 6580741545624801248, guid: 35ab440881b114e7e892b7b6da38242c,
        type: 3}
      propertyPath: m_LocalEulerAnglesHint.x
      value: 0
      objectReference: {fileID: 0}
    - target: {fileID: 6580741545624801248, guid: 35ab440881b114e7e892b7b6da38242c,
        type: 3}
      propertyPath: m_LocalEulerAnglesHint.y
      value: 0
      objectReference: {fileID: 0}
    - target: {fileID: 6580741545624801248, guid: 35ab440881b114e7e892b7b6da38242c,
        type: 3}
      propertyPath: m_LocalEulerAnglesHint.z
      value: 0
      objectReference: {fileID: 0}
    - target: {fileID: 6675930426900349286, guid: 35ab440881b114e7e892b7b6da38242c,
        type: 3}
      propertyPath: m_Name
      value: box (2)
      objectReference: {fileID: 0}
    m_RemovedComponents: []
  m_SourcePrefab: {fileID: 100100000, guid: 35ab440881b114e7e892b7b6da38242c, type: 3}
--- !u!1001 &3513798599361039875
PrefabInstance:
  m_ObjectHideFlags: 0
  serializedVersion: 2
  m_Modification:
    m_TransformParent: {fileID: 1824143807557174715}
    m_Modifications:
    - target: {fileID: 1049093956366660, guid: 8670cf86c24234bf391820e408de6d24, type: 3}
      propertyPath: m_Name
      value: floor (10)
      objectReference: {fileID: 0}
    - target: {fileID: 1049093956366660, guid: 8670cf86c24234bf391820e408de6d24, type: 3}
      propertyPath: m_StaticEditorFlags
      value: 4294967295
      objectReference: {fileID: 0}
    - target: {fileID: 4387301254824980, guid: 8670cf86c24234bf391820e408de6d24, type: 3}
      propertyPath: m_RootOrder
      value: 8
      objectReference: {fileID: 0}
    - target: {fileID: 4387301254824980, guid: 8670cf86c24234bf391820e408de6d24, type: 3}
      propertyPath: m_LocalScale.x
      value: 1
      objectReference: {fileID: 0}
    - target: {fileID: 4387301254824980, guid: 8670cf86c24234bf391820e408de6d24, type: 3}
      propertyPath: m_LocalScale.y
      value: 1
      objectReference: {fileID: 0}
    - target: {fileID: 4387301254824980, guid: 8670cf86c24234bf391820e408de6d24, type: 3}
      propertyPath: m_LocalPosition.x
      value: 5
      objectReference: {fileID: 0}
    - target: {fileID: 4387301254824980, guid: 8670cf86c24234bf391820e408de6d24, type: 3}
      propertyPath: m_LocalPosition.y
      value: 1.5
      objectReference: {fileID: 0}
    - target: {fileID: 4387301254824980, guid: 8670cf86c24234bf391820e408de6d24, type: 3}
      propertyPath: m_LocalPosition.z
      value: 0
      objectReference: {fileID: 0}
    - target: {fileID: 4387301254824980, guid: 8670cf86c24234bf391820e408de6d24, type: 3}
      propertyPath: m_LocalRotation.w
      value: 1
      objectReference: {fileID: 0}
    - target: {fileID: 4387301254824980, guid: 8670cf86c24234bf391820e408de6d24, type: 3}
      propertyPath: m_LocalRotation.x
      value: -0
      objectReference: {fileID: 0}
    - target: {fileID: 4387301254824980, guid: 8670cf86c24234bf391820e408de6d24, type: 3}
      propertyPath: m_LocalRotation.y
      value: -0
      objectReference: {fileID: 0}
    - target: {fileID: 4387301254824980, guid: 8670cf86c24234bf391820e408de6d24, type: 3}
      propertyPath: m_LocalRotation.z
      value: -0
      objectReference: {fileID: 0}
    - target: {fileID: 4387301254824980, guid: 8670cf86c24234bf391820e408de6d24, type: 3}
      propertyPath: m_LocalEulerAnglesHint.x
      value: 0
      objectReference: {fileID: 0}
    - target: {fileID: 4387301254824980, guid: 8670cf86c24234bf391820e408de6d24, type: 3}
      propertyPath: m_LocalEulerAnglesHint.y
      value: 0
      objectReference: {fileID: 0}
    - target: {fileID: 4387301254824980, guid: 8670cf86c24234bf391820e408de6d24, type: 3}
      propertyPath: m_LocalEulerAnglesHint.z
      value: 0
      objectReference: {fileID: 0}
    - target: {fileID: 61477104421331976, guid: 8670cf86c24234bf391820e408de6d24,
        type: 3}
      propertyPath: m_Size.x
      value: 0.75
      objectReference: {fileID: 0}
    - target: {fileID: 61477104421331976, guid: 8670cf86c24234bf391820e408de6d24,
        type: 3}
      propertyPath: m_Size.y
      value: 0.75
      objectReference: {fileID: 0}
    - target: {fileID: 61477104421331976, guid: 8670cf86c24234bf391820e408de6d24,
        type: 3}
      propertyPath: m_AutoTiling
      value: 1
      objectReference: {fileID: 0}
    - target: {fileID: 61477104421331976, guid: 8670cf86c24234bf391820e408de6d24,
        type: 3}
      propertyPath: m_SpriteTilingProperty.drawMode
      value: 2
      objectReference: {fileID: 0}
    - target: {fileID: 61477104421331976, guid: 8670cf86c24234bf391820e408de6d24,
        type: 3}
      propertyPath: m_SpriteTilingProperty.newSize.x
      value: 1
      objectReference: {fileID: 0}
    - target: {fileID: 61477104421331976, guid: 8670cf86c24234bf391820e408de6d24,
        type: 3}
      propertyPath: m_SpriteTilingProperty.newSize.y
      value: 1
      objectReference: {fileID: 0}
    - target: {fileID: 212926256537594904, guid: 8670cf86c24234bf391820e408de6d24,
        type: 3}
      propertyPath: m_Size.x
      value: 1
      objectReference: {fileID: 0}
    - target: {fileID: 212926256537594904, guid: 8670cf86c24234bf391820e408de6d24,
        type: 3}
      propertyPath: m_Size.y
      value: 1
      objectReference: {fileID: 0}
    - target: {fileID: 212926256537594904, guid: 8670cf86c24234bf391820e408de6d24,
        type: 3}
      propertyPath: m_DrawMode
      value: 2
      objectReference: {fileID: 0}
    - target: {fileID: 1626150754273476976, guid: 8670cf86c24234bf391820e408de6d24,
        type: 3}
      propertyPath: m_Extents.x
      value: 0.5
      objectReference: {fileID: 0}
    - target: {fileID: 1626150754273476976, guid: 8670cf86c24234bf391820e408de6d24,
        type: 3}
      propertyPath: m_Extents.y
      value: 0.5
      objectReference: {fileID: 0}
    - target: {fileID: 1626150754273476976, guid: 8670cf86c24234bf391820e408de6d24,
        type: 3}
      propertyPath: m_Extents.z
      value: 0.15
      objectReference: {fileID: 0}
    m_RemovedComponents: []
  m_SourcePrefab: {fileID: 100100000, guid: 8670cf86c24234bf391820e408de6d24, type: 3}
--- !u!1001 &4065360189090966627
PrefabInstance:
  m_ObjectHideFlags: 0
  serializedVersion: 2
  m_Modification:
    m_TransformParent: {fileID: 1824143807557174715}
    m_Modifications:
    - target: {fileID: 1049093956366660, guid: d6b69d4e3b4ac48e1bf677318fce1444, type: 3}
      propertyPath: m_Name
      value: floor-thin (5)
      objectReference: {fileID: 0}
    - target: {fileID: 4387301254824980, guid: d6b69d4e3b4ac48e1bf677318fce1444, type: 3}
      propertyPath: m_RootOrder
      value: 27
      objectReference: {fileID: 0}
    - target: {fileID: 4387301254824980, guid: d6b69d4e3b4ac48e1bf677318fce1444, type: 3}
      propertyPath: m_LocalPosition.x
      value: 5.5
      objectReference: {fileID: 0}
    - target: {fileID: 4387301254824980, guid: d6b69d4e3b4ac48e1bf677318fce1444, type: 3}
      propertyPath: m_LocalPosition.y
      value: 7.75
      objectReference: {fileID: 0}
    - target: {fileID: 4387301254824980, guid: d6b69d4e3b4ac48e1bf677318fce1444, type: 3}
      propertyPath: m_LocalPosition.z
      value: 0
      objectReference: {fileID: 0}
    - target: {fileID: 4387301254824980, guid: d6b69d4e3b4ac48e1bf677318fce1444, type: 3}
      propertyPath: m_LocalRotation.w
      value: 1
      objectReference: {fileID: 0}
    - target: {fileID: 4387301254824980, guid: d6b69d4e3b4ac48e1bf677318fce1444, type: 3}
      propertyPath: m_LocalRotation.x
      value: -0
      objectReference: {fileID: 0}
    - target: {fileID: 4387301254824980, guid: d6b69d4e3b4ac48e1bf677318fce1444, type: 3}
      propertyPath: m_LocalRotation.y
      value: -0
      objectReference: {fileID: 0}
    - target: {fileID: 4387301254824980, guid: d6b69d4e3b4ac48e1bf677318fce1444, type: 3}
      propertyPath: m_LocalRotation.z
      value: -0
      objectReference: {fileID: 0}
    - target: {fileID: 4387301254824980, guid: d6b69d4e3b4ac48e1bf677318fce1444, type: 3}
      propertyPath: m_LocalEulerAnglesHint.x
      value: 0
      objectReference: {fileID: 0}
    - target: {fileID: 4387301254824980, guid: d6b69d4e3b4ac48e1bf677318fce1444, type: 3}
      propertyPath: m_LocalEulerAnglesHint.y
      value: 0
      objectReference: {fileID: 0}
    - target: {fileID: 4387301254824980, guid: d6b69d4e3b4ac48e1bf677318fce1444, type: 3}
      propertyPath: m_LocalEulerAnglesHint.z
      value: 0
      objectReference: {fileID: 0}
    - target: {fileID: 61477104421331976, guid: d6b69d4e3b4ac48e1bf677318fce1444,
        type: 3}
      propertyPath: m_Size.y
      value: 0.75
      objectReference: {fileID: 0}
    m_RemovedComponents: []
  m_SourcePrefab: {fileID: 100100000, guid: d6b69d4e3b4ac48e1bf677318fce1444, type: 3}
--- !u!1001 &4311244850184623684
PrefabInstance:
  m_ObjectHideFlags: 0
  serializedVersion: 2
  m_Modification:
    m_TransformParent: {fileID: 1824143807557174715}
    m_Modifications:
    - target: {fileID: 1001085200693856357, guid: 0376c36a6904b441bb01fc152697e3e5,
        type: 3}
      propertyPath: m_Size.x
      value: 0.5
      objectReference: {fileID: 0}
    - target: {fileID: 1001085200693856357, guid: 0376c36a6904b441bb01fc152697e3e5,
        type: 3}
      propertyPath: m_Size.y
      value: 0.5
      objectReference: {fileID: 0}
    - target: {fileID: 1001085200711817300, guid: 0376c36a6904b441bb01fc152697e3e5,
        type: 3}
      propertyPath: m_Size.x
      value: 0.5
      objectReference: {fileID: 0}
    - target: {fileID: 1001085200711817300, guid: 0376c36a6904b441bb01fc152697e3e5,
        type: 3}
      propertyPath: m_Size.y
      value: 0.5
      objectReference: {fileID: 0}
    - target: {fileID: 3615708565415036198, guid: 0376c36a6904b441bb01fc152697e3e5,
        type: 3}
      propertyPath: m_Name
      value: crawlspace vertical (2)
      objectReference: {fileID: 0}
    - target: {fileID: 3615708565415036200, guid: 0376c36a6904b441bb01fc152697e3e5,
        type: 3}
      propertyPath: m_RootOrder
      value: 11
      objectReference: {fileID: 0}
    - target: {fileID: 3615708565415036200, guid: 0376c36a6904b441bb01fc152697e3e5,
        type: 3}
      propertyPath: m_LocalPosition.x
      value: 8.75
      objectReference: {fileID: 0}
    - target: {fileID: 3615708565415036200, guid: 0376c36a6904b441bb01fc152697e3e5,
        type: 3}
      propertyPath: m_LocalPosition.y
      value: 3.5
      objectReference: {fileID: 0}
    - target: {fileID: 3615708565415036200, guid: 0376c36a6904b441bb01fc152697e3e5,
        type: 3}
      propertyPath: m_LocalPosition.z
      value: 0
      objectReference: {fileID: 0}
    - target: {fileID: 3615708565415036200, guid: 0376c36a6904b441bb01fc152697e3e5,
        type: 3}
      propertyPath: m_LocalRotation.w
      value: 1
      objectReference: {fileID: 0}
    - target: {fileID: 3615708565415036200, guid: 0376c36a6904b441bb01fc152697e3e5,
        type: 3}
      propertyPath: m_LocalRotation.x
      value: -0
      objectReference: {fileID: 0}
    - target: {fileID: 3615708565415036200, guid: 0376c36a6904b441bb01fc152697e3e5,
        type: 3}
      propertyPath: m_LocalRotation.y
      value: -0
      objectReference: {fileID: 0}
    - target: {fileID: 3615708565415036200, guid: 0376c36a6904b441bb01fc152697e3e5,
        type: 3}
      propertyPath: m_LocalRotation.z
      value: -0
      objectReference: {fileID: 0}
    - target: {fileID: 3615708565415036200, guid: 0376c36a6904b441bb01fc152697e3e5,
        type: 3}
      propertyPath: m_LocalEulerAnglesHint.x
      value: 0
      objectReference: {fileID: 0}
    - target: {fileID: 3615708565415036200, guid: 0376c36a6904b441bb01fc152697e3e5,
        type: 3}
      propertyPath: m_LocalEulerAnglesHint.y
      value: 0
      objectReference: {fileID: 0}
    - target: {fileID: 3615708565415036200, guid: 0376c36a6904b441bb01fc152697e3e5,
        type: 3}
      propertyPath: m_LocalEulerAnglesHint.z
      value: 0
      objectReference: {fileID: 0}
    m_RemovedComponents: []
  m_SourcePrefab: {fileID: 100100000, guid: 0376c36a6904b441bb01fc152697e3e5, type: 3}
--- !u!1001 &4371407707265053859
PrefabInstance:
  m_ObjectHideFlags: 0
  serializedVersion: 2
  m_Modification:
    m_TransformParent: {fileID: 1824143807557174715}
    m_Modifications:
    - target: {fileID: 4076200707986567607, guid: 35ab440881b114e7e892b7b6da38242c,
        type: 3}
      propertyPath: m_Size.x
      value: 0.5
      objectReference: {fileID: 0}
    - target: {fileID: 4076200707986567607, guid: 35ab440881b114e7e892b7b6da38242c,
        type: 3}
      propertyPath: m_Size.y
      value: 0.5
      objectReference: {fileID: 0}
    - target: {fileID: 6580741545624801248, guid: 35ab440881b114e7e892b7b6da38242c,
        type: 3}
      propertyPath: m_RootOrder
      value: 17
      objectReference: {fileID: 0}
    - target: {fileID: 6580741545624801248, guid: 35ab440881b114e7e892b7b6da38242c,
        type: 3}
      propertyPath: m_LocalPosition.x
      value: 1.75
      objectReference: {fileID: 0}
    - target: {fileID: 6580741545624801248, guid: 35ab440881b114e7e892b7b6da38242c,
        type: 3}
      propertyPath: m_LocalPosition.y
      value: 2.25
      objectReference: {fileID: 0}
    - target: {fileID: 6580741545624801248, guid: 35ab440881b114e7e892b7b6da38242c,
        type: 3}
      propertyPath: m_LocalPosition.z
      value: 0
      objectReference: {fileID: 0}
    - target: {fileID: 6580741545624801248, guid: 35ab440881b114e7e892b7b6da38242c,
        type: 3}
      propertyPath: m_LocalRotation.w
      value: 1
      objectReference: {fileID: 0}
    - target: {fileID: 6580741545624801248, guid: 35ab440881b114e7e892b7b6da38242c,
        type: 3}
      propertyPath: m_LocalRotation.x
      value: -0
      objectReference: {fileID: 0}
    - target: {fileID: 6580741545624801248, guid: 35ab440881b114e7e892b7b6da38242c,
        type: 3}
      propertyPath: m_LocalRotation.y
      value: -0
      objectReference: {fileID: 0}
    - target: {fileID: 6580741545624801248, guid: 35ab440881b114e7e892b7b6da38242c,
        type: 3}
      propertyPath: m_LocalRotation.z
      value: -0
      objectReference: {fileID: 0}
    - target: {fileID: 6580741545624801248, guid: 35ab440881b114e7e892b7b6da38242c,
        type: 3}
      propertyPath: m_LocalEulerAnglesHint.x
      value: 0
      objectReference: {fileID: 0}
    - target: {fileID: 6580741545624801248, guid: 35ab440881b114e7e892b7b6da38242c,
        type: 3}
      propertyPath: m_LocalEulerAnglesHint.y
      value: 0
      objectReference: {fileID: 0}
    - target: {fileID: 6580741545624801248, guid: 35ab440881b114e7e892b7b6da38242c,
        type: 3}
      propertyPath: m_LocalEulerAnglesHint.z
      value: 0
      objectReference: {fileID: 0}
    - target: {fileID: 6675930426900349286, guid: 35ab440881b114e7e892b7b6da38242c,
        type: 3}
      propertyPath: m_Name
      value: box (1)
      objectReference: {fileID: 0}
    m_RemovedComponents: []
  m_SourcePrefab: {fileID: 100100000, guid: 35ab440881b114e7e892b7b6da38242c, type: 3}
--- !u!1001 &4443695694978422652
PrefabInstance:
  m_ObjectHideFlags: 0
  serializedVersion: 2
  m_Modification:
    m_TransformParent: {fileID: 1824143807557174715}
    m_Modifications:
    - target: {fileID: 4628574144284556388, guid: e0f93f3d4161f4e4db8be94c6d6b53bc,
        type: 3}
      propertyPath: m_RootOrder
      value: 23
      objectReference: {fileID: 0}
    - target: {fileID: 4628574144284556388, guid: e0f93f3d4161f4e4db8be94c6d6b53bc,
        type: 3}
      propertyPath: m_LocalPosition.x
      value: 6.959699
      objectReference: {fileID: 0}
    - target: {fileID: 4628574144284556388, guid: e0f93f3d4161f4e4db8be94c6d6b53bc,
        type: 3}
      propertyPath: m_LocalPosition.y
      value: 5.662853
      objectReference: {fileID: 0}
    - target: {fileID: 4628574144284556388, guid: e0f93f3d4161f4e4db8be94c6d6b53bc,
        type: 3}
      propertyPath: m_LocalPosition.z
      value: 0
      objectReference: {fileID: 0}
    - target: {fileID: 4628574144284556388, guid: e0f93f3d4161f4e4db8be94c6d6b53bc,
        type: 3}
      propertyPath: m_LocalRotation.w
      value: 1
      objectReference: {fileID: 0}
    - target: {fileID: 4628574144284556388, guid: e0f93f3d4161f4e4db8be94c6d6b53bc,
        type: 3}
      propertyPath: m_LocalRotation.x
      value: -0
      objectReference: {fileID: 0}
    - target: {fileID: 4628574144284556388, guid: e0f93f3d4161f4e4db8be94c6d6b53bc,
        type: 3}
      propertyPath: m_LocalRotation.y
      value: -0
      objectReference: {fileID: 0}
    - target: {fileID: 4628574144284556388, guid: e0f93f3d4161f4e4db8be94c6d6b53bc,
        type: 3}
      propertyPath: m_LocalRotation.z
      value: -0
      objectReference: {fileID: 0}
    - target: {fileID: 4628574144284556388, guid: e0f93f3d4161f4e4db8be94c6d6b53bc,
        type: 3}
      propertyPath: m_LocalEulerAnglesHint.x
      value: 0
      objectReference: {fileID: 0}
    - target: {fileID: 4628574144284556388, guid: e0f93f3d4161f4e4db8be94c6d6b53bc,
        type: 3}
      propertyPath: m_LocalEulerAnglesHint.y
      value: 0
      objectReference: {fileID: 0}
    - target: {fileID: 4628574144284556388, guid: e0f93f3d4161f4e4db8be94c6d6b53bc,
        type: 3}
      propertyPath: m_LocalEulerAnglesHint.z
      value: 0
      objectReference: {fileID: 0}
    - target: {fileID: 5881206153566274288, guid: e0f93f3d4161f4e4db8be94c6d6b53bc,
        type: 3}
      propertyPath: m_Name
      value: PICKUP
      objectReference: {fileID: 0}
    m_RemovedComponents: []
  m_SourcePrefab: {fileID: 100100000, guid: e0f93f3d4161f4e4db8be94c6d6b53bc, type: 3}
--- !u!1001 &5117412895506027849
PrefabInstance:
  m_ObjectHideFlags: 0
  serializedVersion: 2
  m_Modification:
    m_TransformParent: {fileID: 1824143807557174715}
    m_Modifications:
    - target: {fileID: 1001085200693856357, guid: 0376c36a6904b441bb01fc152697e3e5,
        type: 3}
      propertyPath: m_Size.x
      value: 0.5
      objectReference: {fileID: 0}
    - target: {fileID: 1001085200693856357, guid: 0376c36a6904b441bb01fc152697e3e5,
        type: 3}
      propertyPath: m_Size.y
      value: 0.5
      objectReference: {fileID: 0}
    - target: {fileID: 1001085200711817300, guid: 0376c36a6904b441bb01fc152697e3e5,
        type: 3}
      propertyPath: m_Size.x
      value: 0.5
      objectReference: {fileID: 0}
    - target: {fileID: 1001085200711817300, guid: 0376c36a6904b441bb01fc152697e3e5,
        type: 3}
      propertyPath: m_Size.y
      value: 0.5
      objectReference: {fileID: 0}
    - target: {fileID: 3615708565415036198, guid: 0376c36a6904b441bb01fc152697e3e5,
        type: 3}
      propertyPath: m_Name
      value: crawlspace vertical (1)
      objectReference: {fileID: 0}
    - target: {fileID: 3615708565415036200, guid: 0376c36a6904b441bb01fc152697e3e5,
        type: 3}
      propertyPath: m_RootOrder
      value: 7
      objectReference: {fileID: 0}
    - target: {fileID: 3615708565415036200, guid: 0376c36a6904b441bb01fc152697e3e5,
        type: 3}
      propertyPath: m_LocalPosition.x
      value: 5.75
      objectReference: {fileID: 0}
    - target: {fileID: 3615708565415036200, guid: 0376c36a6904b441bb01fc152697e3e5,
        type: 3}
      propertyPath: m_LocalPosition.y
      value: 1.5
      objectReference: {fileID: 0}
    - target: {fileID: 3615708565415036200, guid: 0376c36a6904b441bb01fc152697e3e5,
        type: 3}
      propertyPath: m_LocalPosition.z
      value: 0
      objectReference: {fileID: 0}
    - target: {fileID: 3615708565415036200, guid: 0376c36a6904b441bb01fc152697e3e5,
        type: 3}
      propertyPath: m_LocalRotation.w
      value: 1
      objectReference: {fileID: 0}
    - target: {fileID: 3615708565415036200, guid: 0376c36a6904b441bb01fc152697e3e5,
        type: 3}
      propertyPath: m_LocalRotation.x
      value: -0
      objectReference: {fileID: 0}
    - target: {fileID: 3615708565415036200, guid: 0376c36a6904b441bb01fc152697e3e5,
        type: 3}
      propertyPath: m_LocalRotation.y
      value: -0
      objectReference: {fileID: 0}
    - target: {fileID: 3615708565415036200, guid: 0376c36a6904b441bb01fc152697e3e5,
        type: 3}
      propertyPath: m_LocalRotation.z
      value: -0
      objectReference: {fileID: 0}
    - target: {fileID: 3615708565415036200, guid: 0376c36a6904b441bb01fc152697e3e5,
        type: 3}
      propertyPath: m_LocalEulerAnglesHint.x
      value: 0
      objectReference: {fileID: 0}
    - target: {fileID: 3615708565415036200, guid: 0376c36a6904b441bb01fc152697e3e5,
        type: 3}
      propertyPath: m_LocalEulerAnglesHint.y
      value: 0
      objectReference: {fileID: 0}
    - target: {fileID: 3615708565415036200, guid: 0376c36a6904b441bb01fc152697e3e5,
        type: 3}
      propertyPath: m_LocalEulerAnglesHint.z
      value: 0
      objectReference: {fileID: 0}
    m_RemovedComponents: []
  m_SourcePrefab: {fileID: 100100000, guid: 0376c36a6904b441bb01fc152697e3e5, type: 3}
--- !u!1001 &5259573121181056747
PrefabInstance:
  m_ObjectHideFlags: 0
  serializedVersion: 2
  m_Modification:
    m_TransformParent: {fileID: 1824143807557174715}
    m_Modifications:
    - target: {fileID: 1049093956366660, guid: 8670cf86c24234bf391820e408de6d24, type: 3}
      propertyPath: m_Name
      value: floor (8)
      objectReference: {fileID: 0}
    - target: {fileID: 1049093956366660, guid: 8670cf86c24234bf391820e408de6d24, type: 3}
      propertyPath: m_StaticEditorFlags
      value: 4294967295
      objectReference: {fileID: 0}
    - target: {fileID: 4387301254824980, guid: 8670cf86c24234bf391820e408de6d24, type: 3}
      propertyPath: m_RootOrder
      value: 0
      objectReference: {fileID: 0}
    - target: {fileID: 4387301254824980, guid: 8670cf86c24234bf391820e408de6d24, type: 3}
      propertyPath: m_LocalScale.x
      value: 1
      objectReference: {fileID: 0}
    - target: {fileID: 4387301254824980, guid: 8670cf86c24234bf391820e408de6d24, type: 3}
      propertyPath: m_LocalScale.y
      value: 1
      objectReference: {fileID: 0}
    - target: {fileID: 4387301254824980, guid: 8670cf86c24234bf391820e408de6d24, type: 3}
      propertyPath: m_LocalPosition.x
      value: 2.5
      objectReference: {fileID: 0}
    - target: {fileID: 4387301254824980, guid: 8670cf86c24234bf391820e408de6d24, type: 3}
      propertyPath: m_LocalPosition.y
      value: 1.5
      objectReference: {fileID: 0}
    - target: {fileID: 4387301254824980, guid: 8670cf86c24234bf391820e408de6d24, type: 3}
      propertyPath: m_LocalPosition.z
      value: 0
      objectReference: {fileID: 0}
    - target: {fileID: 4387301254824980, guid: 8670cf86c24234bf391820e408de6d24, type: 3}
      propertyPath: m_LocalRotation.w
      value: 1
      objectReference: {fileID: 0}
    - target: {fileID: 4387301254824980, guid: 8670cf86c24234bf391820e408de6d24, type: 3}
      propertyPath: m_LocalRotation.x
      value: -0
      objectReference: {fileID: 0}
    - target: {fileID: 4387301254824980, guid: 8670cf86c24234bf391820e408de6d24, type: 3}
      propertyPath: m_LocalRotation.y
      value: -0
      objectReference: {fileID: 0}
    - target: {fileID: 4387301254824980, guid: 8670cf86c24234bf391820e408de6d24, type: 3}
      propertyPath: m_LocalRotation.z
      value: -0
      objectReference: {fileID: 0}
    - target: {fileID: 4387301254824980, guid: 8670cf86c24234bf391820e408de6d24, type: 3}
      propertyPath: m_LocalEulerAnglesHint.x
      value: 0
      objectReference: {fileID: 0}
    - target: {fileID: 4387301254824980, guid: 8670cf86c24234bf391820e408de6d24, type: 3}
      propertyPath: m_LocalEulerAnglesHint.y
      value: 0
      objectReference: {fileID: 0}
    - target: {fileID: 4387301254824980, guid: 8670cf86c24234bf391820e408de6d24, type: 3}
      propertyPath: m_LocalEulerAnglesHint.z
      value: 0
      objectReference: {fileID: 0}
    - target: {fileID: 61477104421331976, guid: 8670cf86c24234bf391820e408de6d24,
        type: 3}
      propertyPath: m_Size.x
      value: 0.75
      objectReference: {fileID: 0}
    - target: {fileID: 61477104421331976, guid: 8670cf86c24234bf391820e408de6d24,
        type: 3}
      propertyPath: m_Size.y
      value: 0.75
      objectReference: {fileID: 0}
    - target: {fileID: 61477104421331976, guid: 8670cf86c24234bf391820e408de6d24,
        type: 3}
      propertyPath: m_AutoTiling
      value: 1
      objectReference: {fileID: 0}
    - target: {fileID: 61477104421331976, guid: 8670cf86c24234bf391820e408de6d24,
        type: 3}
      propertyPath: m_SpriteTilingProperty.drawMode
      value: 2
      objectReference: {fileID: 0}
    - target: {fileID: 61477104421331976, guid: 8670cf86c24234bf391820e408de6d24,
        type: 3}
      propertyPath: m_SpriteTilingProperty.newSize.x
      value: 3
      objectReference: {fileID: 0}
    - target: {fileID: 61477104421331976, guid: 8670cf86c24234bf391820e408de6d24,
        type: 3}
      propertyPath: m_SpriteTilingProperty.newSize.y
      value: 1
      objectReference: {fileID: 0}
    - target: {fileID: 212926256537594904, guid: 8670cf86c24234bf391820e408de6d24,
        type: 3}
      propertyPath: m_Size.x
      value: 3
      objectReference: {fileID: 0}
    - target: {fileID: 212926256537594904, guid: 8670cf86c24234bf391820e408de6d24,
        type: 3}
      propertyPath: m_Size.y
      value: 1
      objectReference: {fileID: 0}
    - target: {fileID: 212926256537594904, guid: 8670cf86c24234bf391820e408de6d24,
        type: 3}
      propertyPath: m_DrawMode
      value: 2
      objectReference: {fileID: 0}
    - target: {fileID: 1626150754273476976, guid: 8670cf86c24234bf391820e408de6d24,
        type: 3}
      propertyPath: m_Extents.x
      value: 1.5
      objectReference: {fileID: 0}
    - target: {fileID: 1626150754273476976, guid: 8670cf86c24234bf391820e408de6d24,
        type: 3}
      propertyPath: m_Extents.y
      value: 0.5
      objectReference: {fileID: 0}
    - target: {fileID: 1626150754273476976, guid: 8670cf86c24234bf391820e408de6d24,
        type: 3}
      propertyPath: m_Extents.z
      value: 0.15
      objectReference: {fileID: 0}
    m_RemovedComponents: []
  m_SourcePrefab: {fileID: 100100000, guid: 8670cf86c24234bf391820e408de6d24, type: 3}
--- !u!1001 &5693627152654358943
PrefabInstance:
  m_ObjectHideFlags: 0
  serializedVersion: 2
  m_Modification:
    m_TransformParent: {fileID: 1824143807557174715}
    m_Modifications:
    - target: {fileID: 1049093956366660, guid: d6b69d4e3b4ac48e1bf677318fce1444, type: 3}
      propertyPath: m_Name
      value: floor-thin (4)
      objectReference: {fileID: 0}
    - target: {fileID: 4387301254824980, guid: d6b69d4e3b4ac48e1bf677318fce1444, type: 3}
      propertyPath: m_RootOrder
      value: 26
      objectReference: {fileID: 0}
    - target: {fileID: 4387301254824980, guid: d6b69d4e3b4ac48e1bf677318fce1444, type: 3}
      propertyPath: m_LocalPosition.x
      value: 9
      objectReference: {fileID: 0}
    - target: {fileID: 4387301254824980, guid: d6b69d4e3b4ac48e1bf677318fce1444, type: 3}
      propertyPath: m_LocalPosition.y
      value: 9
      objectReference: {fileID: 0}
    - target: {fileID: 4387301254824980, guid: d6b69d4e3b4ac48e1bf677318fce1444, type: 3}
      propertyPath: m_LocalPosition.z
      value: 0
      objectReference: {fileID: 0}
    - target: {fileID: 4387301254824980, guid: d6b69d4e3b4ac48e1bf677318fce1444, type: 3}
      propertyPath: m_LocalRotation.w
      value: 1
      objectReference: {fileID: 0}
    - target: {fileID: 4387301254824980, guid: d6b69d4e3b4ac48e1bf677318fce1444, type: 3}
      propertyPath: m_LocalRotation.x
      value: -0
      objectReference: {fileID: 0}
    - target: {fileID: 4387301254824980, guid: d6b69d4e3b4ac48e1bf677318fce1444, type: 3}
      propertyPath: m_LocalRotation.y
      value: -0
      objectReference: {fileID: 0}
    - target: {fileID: 4387301254824980, guid: d6b69d4e3b4ac48e1bf677318fce1444, type: 3}
      propertyPath: m_LocalRotation.z
      value: -0
      objectReference: {fileID: 0}
    - target: {fileID: 4387301254824980, guid: d6b69d4e3b4ac48e1bf677318fce1444, type: 3}
      propertyPath: m_LocalEulerAnglesHint.x
      value: 0
      objectReference: {fileID: 0}
    - target: {fileID: 4387301254824980, guid: d6b69d4e3b4ac48e1bf677318fce1444, type: 3}
      propertyPath: m_LocalEulerAnglesHint.y
      value: 0
      objectReference: {fileID: 0}
    - target: {fileID: 4387301254824980, guid: d6b69d4e3b4ac48e1bf677318fce1444, type: 3}
      propertyPath: m_LocalEulerAnglesHint.z
      value: 0
      objectReference: {fileID: 0}
    - target: {fileID: 61477104421331976, guid: d6b69d4e3b4ac48e1bf677318fce1444,
        type: 3}
      propertyPath: m_Size.y
      value: 0.75
      objectReference: {fileID: 0}
    m_RemovedComponents: []
  m_SourcePrefab: {fileID: 100100000, guid: d6b69d4e3b4ac48e1bf677318fce1444, type: 3}
--- !u!1001 &6120055844384910671
PrefabInstance:
  m_ObjectHideFlags: 0
  serializedVersion: 2
  m_Modification:
    m_TransformParent: {fileID: 1824143807557174715}
    m_Modifications:
    - target: {fileID: 4076200707986567607, guid: 35ab440881b114e7e892b7b6da38242c,
        type: 3}
      propertyPath: m_Size.x
      value: 0.5
      objectReference: {fileID: 0}
    - target: {fileID: 4076200707986567607, guid: 35ab440881b114e7e892b7b6da38242c,
        type: 3}
      propertyPath: m_Size.y
      value: 0.5
      objectReference: {fileID: 0}
    - target: {fileID: 6580741545624801248, guid: 35ab440881b114e7e892b7b6da38242c,
        type: 3}
      propertyPath: m_RootOrder
      value: 19
      objectReference: {fileID: 0}
    - target: {fileID: 6580741545624801248, guid: 35ab440881b114e7e892b7b6da38242c,
        type: 3}
      propertyPath: m_LocalPosition.x
      value: 8.75
      objectReference: {fileID: 0}
    - target: {fileID: 6580741545624801248, guid: 35ab440881b114e7e892b7b6da38242c,
        type: 3}
      propertyPath: m_LocalPosition.y
      value: 2.25
      objectReference: {fileID: 0}
    - target: {fileID: 6580741545624801248, guid: 35ab440881b114e7e892b7b6da38242c,
        type: 3}
      propertyPath: m_LocalPosition.z
      value: 0
      objectReference: {fileID: 0}
    - target: {fileID: 6580741545624801248, guid: 35ab440881b114e7e892b7b6da38242c,
        type: 3}
      propertyPath: m_LocalRotation.w
      value: 1
      objectReference: {fileID: 0}
    - target: {fileID: 6580741545624801248, guid: 35ab440881b114e7e892b7b6da38242c,
        type: 3}
      propertyPath: m_LocalRotation.x
      value: -0
      objectReference: {fileID: 0}
    - target: {fileID: 6580741545624801248, guid: 35ab440881b114e7e892b7b6da38242c,
        type: 3}
      propertyPath: m_LocalRotation.y
      value: -0
      objectReference: {fileID: 0}
    - target: {fileID: 6580741545624801248, guid: 35ab440881b114e7e892b7b6da38242c,
        type: 3}
      propertyPath: m_LocalRotation.z
      value: -0
      objectReference: {fileID: 0}
    - target: {fileID: 6580741545624801248, guid: 35ab440881b114e7e892b7b6da38242c,
        type: 3}
      propertyPath: m_LocalEulerAnglesHint.x
      value: 0
      objectReference: {fileID: 0}
    - target: {fileID: 6580741545624801248, guid: 35ab440881b114e7e892b7b6da38242c,
        type: 3}
      propertyPath: m_LocalEulerAnglesHint.y
      value: 0
      objectReference: {fileID: 0}
    - target: {fileID: 6580741545624801248, guid: 35ab440881b114e7e892b7b6da38242c,
        type: 3}
      propertyPath: m_LocalEulerAnglesHint.z
      value: 0
      objectReference: {fileID: 0}
    - target: {fileID: 6675930426900349286, guid: 35ab440881b114e7e892b7b6da38242c,
        type: 3}
      propertyPath: m_Name
      value: box (3)
      objectReference: {fileID: 0}
    m_RemovedComponents: []
  m_SourcePrefab: {fileID: 100100000, guid: 35ab440881b114e7e892b7b6da38242c, type: 3}
--- !u!1001 &6429758246541521474
PrefabInstance:
  m_ObjectHideFlags: 0
  serializedVersion: 2
  m_Modification:
    m_TransformParent: {fileID: 1824143807557174715}
    m_Modifications:
    - target: {fileID: 5308494525571725922, guid: c5d7527e599fa45fcb9fb600afffa921,
        type: 3}
      propertyPath: m_Extents.y
      value: 1
      objectReference: {fileID: 0}
    - target: {fileID: 6759559540728682250, guid: c5d7527e599fa45fcb9fb600afffa921,
        type: 3}
      propertyPath: m_Size.y
      value: 2
      objectReference: {fileID: 0}
    - target: {fileID: 6860432358930890502, guid: c5d7527e599fa45fcb9fb600afffa921,
        type: 3}
      propertyPath: m_RootOrder
      value: 14
      objectReference: {fileID: 0}
    - target: {fileID: 6860432358930890502, guid: c5d7527e599fa45fcb9fb600afffa921,
        type: 3}
      propertyPath: m_LocalPosition.x
      value: 5.25
      objectReference: {fileID: 0}
    - target: {fileID: 6860432358930890502, guid: c5d7527e599fa45fcb9fb600afffa921,
        type: 3}
      propertyPath: m_LocalPosition.y
      value: 9
      objectReference: {fileID: 0}
    - target: {fileID: 6860432358930890502, guid: c5d7527e599fa45fcb9fb600afffa921,
        type: 3}
      propertyPath: m_LocalPosition.z
      value: 0
      objectReference: {fileID: 0}
    - target: {fileID: 6860432358930890502, guid: c5d7527e599fa45fcb9fb600afffa921,
        type: 3}
      propertyPath: m_LocalRotation.w
      value: 1
      objectReference: {fileID: 0}
    - target: {fileID: 6860432358930890502, guid: c5d7527e599fa45fcb9fb600afffa921,
        type: 3}
      propertyPath: m_LocalRotation.x
      value: -0
      objectReference: {fileID: 0}
    - target: {fileID: 6860432358930890502, guid: c5d7527e599fa45fcb9fb600afffa921,
        type: 3}
      propertyPath: m_LocalRotation.y
      value: -0
      objectReference: {fileID: 0}
    - target: {fileID: 6860432358930890502, guid: c5d7527e599fa45fcb9fb600afffa921,
        type: 3}
      propertyPath: m_LocalRotation.z
      value: -0
      objectReference: {fileID: 0}
    - target: {fileID: 6860432358930890502, guid: c5d7527e599fa45fcb9fb600afffa921,
        type: 3}
      propertyPath: m_LocalEulerAnglesHint.x
      value: 0
      objectReference: {fileID: 0}
    - target: {fileID: 6860432358930890502, guid: c5d7527e599fa45fcb9fb600afffa921,
        type: 3}
      propertyPath: m_LocalEulerAnglesHint.y
      value: 0
      objectReference: {fileID: 0}
    - target: {fileID: 6860432358930890502, guid: c5d7527e599fa45fcb9fb600afffa921,
        type: 3}
      propertyPath: m_LocalEulerAnglesHint.z
      value: 0
      objectReference: {fileID: 0}
    - target: {fileID: 6861527596734106198, guid: c5d7527e599fa45fcb9fb600afffa921,
        type: 3}
      propertyPath: m_Name
      value: wall (3)
      objectReference: {fileID: 0}
    - target: {fileID: 6908761256600067866, guid: c5d7527e599fa45fcb9fb600afffa921,
        type: 3}
      propertyPath: m_SpriteTilingProperty.newSize.y
      value: 2
      objectReference: {fileID: 0}
    m_RemovedComponents: []
  m_SourcePrefab: {fileID: 100100000, guid: c5d7527e599fa45fcb9fb600afffa921, type: 3}
--- !u!1001 &6851744784081151414
PrefabInstance:
  m_ObjectHideFlags: 0
  serializedVersion: 2
  m_Modification:
    m_TransformParent: {fileID: 1824143807557174715}
    m_Modifications:
    - target: {fileID: 4076200707986567607, guid: 35ab440881b114e7e892b7b6da38242c,
        type: 3}
      propertyPath: m_Size.x
      value: 0.5
      objectReference: {fileID: 0}
    - target: {fileID: 4076200707986567607, guid: 35ab440881b114e7e892b7b6da38242c,
        type: 3}
      propertyPath: m_Size.y
      value: 0.5
      objectReference: {fileID: 0}
    - target: {fileID: 6580741545624801248, guid: 35ab440881b114e7e892b7b6da38242c,
        type: 3}
      propertyPath: m_RootOrder
      value: 20
      objectReference: {fileID: 0}
    - target: {fileID: 6580741545624801248, guid: 35ab440881b114e7e892b7b6da38242c,
        type: 3}
      propertyPath: m_LocalPosition.x
      value: 5.75
      objectReference: {fileID: 0}
    - target: {fileID: 6580741545624801248, guid: 35ab440881b114e7e892b7b6da38242c,
        type: 3}
      propertyPath: m_LocalPosition.y
      value: 2.25
      objectReference: {fileID: 0}
    - target: {fileID: 6580741545624801248, guid: 35ab440881b114e7e892b7b6da38242c,
        type: 3}
      propertyPath: m_LocalPosition.z
      value: 0
      objectReference: {fileID: 0}
    - target: {fileID: 6580741545624801248, guid: 35ab440881b114e7e892b7b6da38242c,
        type: 3}
      propertyPath: m_LocalRotation.w
      value: 1
      objectReference: {fileID: 0}
    - target: {fileID: 6580741545624801248, guid: 35ab440881b114e7e892b7b6da38242c,
        type: 3}
      propertyPath: m_LocalRotation.x
      value: -0
      objectReference: {fileID: 0}
    - target: {fileID: 6580741545624801248, guid: 35ab440881b114e7e892b7b6da38242c,
        type: 3}
      propertyPath: m_LocalRotation.y
      value: -0
      objectReference: {fileID: 0}
    - target: {fileID: 6580741545624801248, guid: 35ab440881b114e7e892b7b6da38242c,
        type: 3}
      propertyPath: m_LocalRotation.z
      value: -0
      objectReference: {fileID: 0}
    - target: {fileID: 6580741545624801248, guid: 35ab440881b114e7e892b7b6da38242c,
        type: 3}
      propertyPath: m_LocalEulerAnglesHint.x
      value: 0
      objectReference: {fileID: 0}
    - target: {fileID: 6580741545624801248, guid: 35ab440881b114e7e892b7b6da38242c,
        type: 3}
      propertyPath: m_LocalEulerAnglesHint.y
      value: 0
      objectReference: {fileID: 0}
    - target: {fileID: 6580741545624801248, guid: 35ab440881b114e7e892b7b6da38242c,
        type: 3}
      propertyPath: m_LocalEulerAnglesHint.z
      value: 0
      objectReference: {fileID: 0}
    - target: {fileID: 6675930426900349286, guid: 35ab440881b114e7e892b7b6da38242c,
        type: 3}
      propertyPath: m_Name
      value: box (4)
      objectReference: {fileID: 0}
    m_RemovedComponents: []
  m_SourcePrefab: {fileID: 100100000, guid: 35ab440881b114e7e892b7b6da38242c, type: 3}
--- !u!1001 &7650307958078825768
PrefabInstance:
  m_ObjectHideFlags: 0
  serializedVersion: 2
  m_Modification:
    m_TransformParent: {fileID: 1824143807557174715}
    m_Modifications:
    - target: {fileID: 2678939294917104063, guid: 79ac5ac1a478d46e5ad2b6ce2336056c,
        type: 3}
      propertyPath: m_RootOrder
      value: 22
      objectReference: {fileID: 0}
    - target: {fileID: 2678939294917104063, guid: 79ac5ac1a478d46e5ad2b6ce2336056c,
        type: 3}
      propertyPath: m_LocalPosition.x
      value: 3.2018166
      objectReference: {fileID: 0}
    - target: {fileID: 2678939294917104063, guid: 79ac5ac1a478d46e5ad2b6ce2336056c,
        type: 3}
      propertyPath: m_LocalPosition.y
      value: 2.426024
      objectReference: {fileID: 0}
    - target: {fileID: 2678939294917104063, guid: 79ac5ac1a478d46e5ad2b6ce2336056c,
        type: 3}
      propertyPath: m_LocalPosition.z
      value: 0
      objectReference: {fileID: 0}
    - target: {fileID: 2678939294917104063, guid: 79ac5ac1a478d46e5ad2b6ce2336056c,
        type: 3}
      propertyPath: m_LocalRotation.w
      value: 1
      objectReference: {fileID: 0}
    - target: {fileID: 2678939294917104063, guid: 79ac5ac1a478d46e5ad2b6ce2336056c,
        type: 3}
      propertyPath: m_LocalRotation.x
      value: -0
      objectReference: {fileID: 0}
    - target: {fileID: 2678939294917104063, guid: 79ac5ac1a478d46e5ad2b6ce2336056c,
        type: 3}
      propertyPath: m_LocalRotation.y
      value: -0
      objectReference: {fileID: 0}
    - target: {fileID: 2678939294917104063, guid: 79ac5ac1a478d46e5ad2b6ce2336056c,
        type: 3}
      propertyPath: m_LocalRotation.z
      value: -0
      objectReference: {fileID: 0}
    - target: {fileID: 2678939294917104063, guid: 79ac5ac1a478d46e5ad2b6ce2336056c,
        type: 3}
      propertyPath: m_LocalEulerAnglesHint.x
      value: 0
      objectReference: {fileID: 0}
    - target: {fileID: 2678939294917104063, guid: 79ac5ac1a478d46e5ad2b6ce2336056c,
        type: 3}
      propertyPath: m_LocalEulerAnglesHint.y
      value: 0
      objectReference: {fileID: 0}
    - target: {fileID: 2678939294917104063, guid: 79ac5ac1a478d46e5ad2b6ce2336056c,
        type: 3}
      propertyPath: m_LocalEulerAnglesHint.z
      value: 0
      objectReference: {fileID: 0}
    - target: {fileID: 3310540495832944520, guid: 79ac5ac1a478d46e5ad2b6ce2336056c,
        type: 3}
      propertyPath: m_Name
      value: ENEMY
      objectReference: {fileID: 0}
    m_RemovedComponents: []
  m_SourcePrefab: {fileID: 100100000, guid: 79ac5ac1a478d46e5ad2b6ce2336056c, type: 3}
--- !u!1001 &7913063671441451340
PrefabInstance:
  m_ObjectHideFlags: 0
  serializedVersion: 2
  m_Modification:
    m_TransformParent: {fileID: 1824143807557174715}
    m_Modifications:
    - target: {fileID: 1049093956366660, guid: d6b69d4e3b4ac48e1bf677318fce1444, type: 3}
      propertyPath: m_Name
      value: floor-thin (2)
      objectReference: {fileID: 0}
    - target: {fileID: 4387301254824980, guid: d6b69d4e3b4ac48e1bf677318fce1444, type: 3}
      propertyPath: m_RootOrder
      value: 24
      objectReference: {fileID: 0}
    - target: {fileID: 4387301254824980, guid: d6b69d4e3b4ac48e1bf677318fce1444, type: 3}
      propertyPath: m_LocalPosition.x
      value: 3.5
      objectReference: {fileID: 0}
    - target: {fileID: 4387301254824980, guid: d6b69d4e3b4ac48e1bf677318fce1444, type: 3}
      propertyPath: m_LocalPosition.y
      value: 6
      objectReference: {fileID: 0}
    - target: {fileID: 4387301254824980, guid: d6b69d4e3b4ac48e1bf677318fce1444, type: 3}
      propertyPath: m_LocalPosition.z
      value: 0
      objectReference: {fileID: 0}
    - target: {fileID: 4387301254824980, guid: d6b69d4e3b4ac48e1bf677318fce1444, type: 3}
      propertyPath: m_LocalRotation.w
      value: 1
      objectReference: {fileID: 0}
    - target: {fileID: 4387301254824980, guid: d6b69d4e3b4ac48e1bf677318fce1444, type: 3}
      propertyPath: m_LocalRotation.x
      value: -0
      objectReference: {fileID: 0}
    - target: {fileID: 4387301254824980, guid: d6b69d4e3b4ac48e1bf677318fce1444, type: 3}
      propertyPath: m_LocalRotation.y
      value: -0
      objectReference: {fileID: 0}
    - target: {fileID: 4387301254824980, guid: d6b69d4e3b4ac48e1bf677318fce1444, type: 3}
      propertyPath: m_LocalRotation.z
      value: -0
      objectReference: {fileID: 0}
    - target: {fileID: 4387301254824980, guid: d6b69d4e3b4ac48e1bf677318fce1444, type: 3}
      propertyPath: m_LocalEulerAnglesHint.x
      value: 0
      objectReference: {fileID: 0}
    - target: {fileID: 4387301254824980, guid: d6b69d4e3b4ac48e1bf677318fce1444, type: 3}
      propertyPath: m_LocalEulerAnglesHint.y
      value: 0
      objectReference: {fileID: 0}
    - target: {fileID: 4387301254824980, guid: d6b69d4e3b4ac48e1bf677318fce1444, type: 3}
      propertyPath: m_LocalEulerAnglesHint.z
      value: 0
      objectReference: {fileID: 0}
    - target: {fileID: 61477104421331976, guid: d6b69d4e3b4ac48e1bf677318fce1444,
        type: 3}
      propertyPath: m_Size.y
      value: 0.75
      objectReference: {fileID: 0}
    m_RemovedComponents: []
  m_SourcePrefab: {fileID: 100100000, guid: d6b69d4e3b4ac48e1bf677318fce1444, type: 3}
--- !u!1001 &7914909149518753409
PrefabInstance:
  m_ObjectHideFlags: 0
  serializedVersion: 2
  m_Modification:
    m_TransformParent: {fileID: 1824143807557174715}
    m_Modifications:
    - target: {fileID: 1049093956366660, guid: d6b69d4e3b4ac48e1bf677318fce1444, type: 3}
      propertyPath: m_Name
      value: floor-thin
      objectReference: {fileID: 0}
    - target: {fileID: 4387301254824980, guid: d6b69d4e3b4ac48e1bf677318fce1444, type: 3}
      propertyPath: m_RootOrder
      value: 9
      objectReference: {fileID: 0}
    - target: {fileID: 4387301254824980, guid: d6b69d4e3b4ac48e1bf677318fce1444, type: 3}
      propertyPath: m_LocalPosition.x
      value: 3.128
      objectReference: {fileID: 0}
    - target: {fileID: 4387301254824980, guid: d6b69d4e3b4ac48e1bf677318fce1444, type: 3}
      propertyPath: m_LocalPosition.y
      value: 9.328
      objectReference: {fileID: 0}
    - target: {fileID: 4387301254824980, guid: d6b69d4e3b4ac48e1bf677318fce1444, type: 3}
      propertyPath: m_LocalPosition.z
      value: 0
      objectReference: {fileID: 0}
    - target: {fileID: 4387301254824980, guid: d6b69d4e3b4ac48e1bf677318fce1444, type: 3}
      propertyPath: m_LocalRotation.w
      value: 0.9940564
      objectReference: {fileID: 0}
    - target: {fileID: 4387301254824980, guid: d6b69d4e3b4ac48e1bf677318fce1444, type: 3}
      propertyPath: m_LocalRotation.x
      value: 0
      objectReference: {fileID: 0}
    - target: {fileID: 4387301254824980, guid: d6b69d4e3b4ac48e1bf677318fce1444, type: 3}
      propertyPath: m_LocalRotation.y
      value: 0
      objectReference: {fileID: 0}
    - target: {fileID: 4387301254824980, guid: d6b69d4e3b4ac48e1bf677318fce1444, type: 3}
      propertyPath: m_LocalRotation.z
      value: 0.10886683
      objectReference: {fileID: 0}
    - target: {fileID: 4387301254824980, guid: d6b69d4e3b4ac48e1bf677318fce1444, type: 3}
      propertyPath: m_LocalEulerAnglesHint.x
      value: 0
      objectReference: {fileID: 0}
    - target: {fileID: 4387301254824980, guid: d6b69d4e3b4ac48e1bf677318fce1444, type: 3}
      propertyPath: m_LocalEulerAnglesHint.y
      value: 0
      objectReference: {fileID: 0}
    - target: {fileID: 4387301254824980, guid: d6b69d4e3b4ac48e1bf677318fce1444, type: 3}
      propertyPath: m_LocalEulerAnglesHint.z
      value: 12.5
      objectReference: {fileID: 0}
    - target: {fileID: 61477104421331976, guid: d6b69d4e3b4ac48e1bf677318fce1444,
        type: 3}
      propertyPath: m_Size.y
      value: 0.75
      objectReference: {fileID: 0}
    - target: {fileID: 61477104421331976, guid: d6b69d4e3b4ac48e1bf677318fce1444,
        type: 3}
      propertyPath: m_SpriteTilingProperty.newSize.x
      value: 4
      objectReference: {fileID: 0}
    - target: {fileID: 212926256537594904, guid: d6b69d4e3b4ac48e1bf677318fce1444,
        type: 3}
      propertyPath: m_Size.x
      value: 4
      objectReference: {fileID: 0}
    - target: {fileID: 212926256537594904, guid: d6b69d4e3b4ac48e1bf677318fce1444,
        type: 3}
      propertyPath: m_SortingOrder
      value: -1
      objectReference: {fileID: 0}
    - target: {fileID: 1626150754273476976, guid: d6b69d4e3b4ac48e1bf677318fce1444,
        type: 3}
      propertyPath: m_Center.x
      value: 0
      objectReference: {fileID: 0}
    - target: {fileID: 1626150754273476976, guid: d6b69d4e3b4ac48e1bf677318fce1444,
        type: 3}
      propertyPath: m_Center.y
      value: 0
      objectReference: {fileID: 0}
    - target: {fileID: 1626150754273476976, guid: d6b69d4e3b4ac48e1bf677318fce1444,
        type: 3}
      propertyPath: m_Extents.x
      value: 2
      objectReference: {fileID: 0}
    m_RemovedComponents: []
  m_SourcePrefab: {fileID: 100100000, guid: d6b69d4e3b4ac48e1bf677318fce1444, type: 3}
--- !u!1001 &8843495553075593973
PrefabInstance:
  m_ObjectHideFlags: 0
  serializedVersion: 2
  m_Modification:
    m_TransformParent: {fileID: 1824143807557174715}
    m_Modifications:
    - target: {fileID: 1049093956366660, guid: 8670cf86c24234bf391820e408de6d24, type: 3}
      propertyPath: m_Name
      value: floor (6)
      objectReference: {fileID: 0}
    - target: {fileID: 1049093956366660, guid: 8670cf86c24234bf391820e408de6d24, type: 3}
      propertyPath: m_StaticEditorFlags
      value: 4294967295
      objectReference: {fileID: 0}
    - target: {fileID: 4387301254824980, guid: 8670cf86c24234bf391820e408de6d24, type: 3}
      propertyPath: m_RootOrder
      value: 2
      objectReference: {fileID: 0}
    - target: {fileID: 4387301254824980, guid: 8670cf86c24234bf391820e408de6d24, type: 3}
      propertyPath: m_LocalScale.x
      value: 1
      objectReference: {fileID: 0}
    - target: {fileID: 4387301254824980, guid: 8670cf86c24234bf391820e408de6d24, type: 3}
      propertyPath: m_LocalScale.y
      value: 1
      objectReference: {fileID: 0}
    - target: {fileID: 4387301254824980, guid: 8670cf86c24234bf391820e408de6d24, type: 3}
      propertyPath: m_LocalPosition.x
      value: 0.5
      objectReference: {fileID: 0}
    - target: {fileID: 4387301254824980, guid: 8670cf86c24234bf391820e408de6d24, type: 3}
      propertyPath: m_LocalPosition.y
      value: 2
      objectReference: {fileID: 0}
    - target: {fileID: 4387301254824980, guid: 8670cf86c24234bf391820e408de6d24, type: 3}
      propertyPath: m_LocalPosition.z
      value: 0
      objectReference: {fileID: 0}
    - target: {fileID: 4387301254824980, guid: 8670cf86c24234bf391820e408de6d24, type: 3}
      propertyPath: m_LocalRotation.w
      value: 1
      objectReference: {fileID: 0}
    - target: {fileID: 4387301254824980, guid: 8670cf86c24234bf391820e408de6d24, type: 3}
      propertyPath: m_LocalRotation.x
      value: -0
      objectReference: {fileID: 0}
    - target: {fileID: 4387301254824980, guid: 8670cf86c24234bf391820e408de6d24, type: 3}
      propertyPath: m_LocalRotation.y
      value: -0
      objectReference: {fileID: 0}
    - target: {fileID: 4387301254824980, guid: 8670cf86c24234bf391820e408de6d24, type: 3}
      propertyPath: m_LocalRotation.z
      value: -0
      objectReference: {fileID: 0}
    - target: {fileID: 4387301254824980, guid: 8670cf86c24234bf391820e408de6d24, type: 3}
      propertyPath: m_LocalEulerAnglesHint.x
      value: 0
      objectReference: {fileID: 0}
    - target: {fileID: 4387301254824980, guid: 8670cf86c24234bf391820e408de6d24, type: 3}
      propertyPath: m_LocalEulerAnglesHint.y
      value: 0
      objectReference: {fileID: 0}
    - target: {fileID: 4387301254824980, guid: 8670cf86c24234bf391820e408de6d24, type: 3}
      propertyPath: m_LocalEulerAnglesHint.z
      value: 0
      objectReference: {fileID: 0}
    - target: {fileID: 61477104421331976, guid: 8670cf86c24234bf391820e408de6d24,
        type: 3}
      propertyPath: m_Size.x
      value: 0.75
      objectReference: {fileID: 0}
    - target: {fileID: 61477104421331976, guid: 8670cf86c24234bf391820e408de6d24,
        type: 3}
      propertyPath: m_Size.y
      value: 0.75
      objectReference: {fileID: 0}
    - target: {fileID: 61477104421331976, guid: 8670cf86c24234bf391820e408de6d24,
        type: 3}
      propertyPath: m_AutoTiling
      value: 1
      objectReference: {fileID: 0}
    - target: {fileID: 61477104421331976, guid: 8670cf86c24234bf391820e408de6d24,
        type: 3}
      propertyPath: m_SpriteTilingProperty.drawMode
      value: 2
      objectReference: {fileID: 0}
    - target: {fileID: 61477104421331976, guid: 8670cf86c24234bf391820e408de6d24,
        type: 3}
      propertyPath: m_SpriteTilingProperty.newSize.x
      value: 1
      objectReference: {fileID: 0}
    - target: {fileID: 61477104421331976, guid: 8670cf86c24234bf391820e408de6d24,
        type: 3}
      propertyPath: m_SpriteTilingProperty.newSize.y
      value: 4
      objectReference: {fileID: 0}
    - target: {fileID: 212926256537594904, guid: 8670cf86c24234bf391820e408de6d24,
        type: 3}
      propertyPath: m_Size.x
      value: 1
      objectReference: {fileID: 0}
    - target: {fileID: 212926256537594904, guid: 8670cf86c24234bf391820e408de6d24,
        type: 3}
      propertyPath: m_Size.y
      value: 4
      objectReference: {fileID: 0}
    - target: {fileID: 212926256537594904, guid: 8670cf86c24234bf391820e408de6d24,
        type: 3}
      propertyPath: m_DrawMode
      value: 2
      objectReference: {fileID: 0}
    - target: {fileID: 1626150754273476976, guid: 8670cf86c24234bf391820e408de6d24,
        type: 3}
      propertyPath: m_Extents.x
      value: 0.5
      objectReference: {fileID: 0}
    - target: {fileID: 1626150754273476976, guid: 8670cf86c24234bf391820e408de6d24,
        type: 3}
      propertyPath: m_Extents.y
      value: 2
      objectReference: {fileID: 0}
    - target: {fileID: 1626150754273476976, guid: 8670cf86c24234bf391820e408de6d24,
        type: 3}
      propertyPath: m_Extents.z
      value: 0.15
      objectReference: {fileID: 0}
    m_RemovedComponents: []
  m_SourcePrefab: {fileID: 100100000, guid: 8670cf86c24234bf391820e408de6d24, type: 3}
--- !u!1001 &8877926680317364099
PrefabInstance:
  m_ObjectHideFlags: 0
  serializedVersion: 2
  m_Modification:
    m_TransformParent: {fileID: 1824143807557174715}
    m_Modifications:
    - target: {fileID: 1049093956366660, guid: 8670cf86c24234bf391820e408de6d24, type: 3}
      propertyPath: m_Name
      value: floor (9)
      objectReference: {fileID: 0}
    - target: {fileID: 1049093956366660, guid: 8670cf86c24234bf391820e408de6d24, type: 3}
      propertyPath: m_StaticEditorFlags
      value: 4294967295
      objectReference: {fileID: 0}
    - target: {fileID: 4387301254824980, guid: 8670cf86c24234bf391820e408de6d24, type: 3}
      propertyPath: m_RootOrder
      value: 5
      objectReference: {fileID: 0}
    - target: {fileID: 4387301254824980, guid: 8670cf86c24234bf391820e408de6d24, type: 3}
      propertyPath: m_LocalScale.x
      value: 1
      objectReference: {fileID: 0}
    - target: {fileID: 4387301254824980, guid: 8670cf86c24234bf391820e408de6d24, type: 3}
      propertyPath: m_LocalScale.y
      value: 1
      objectReference: {fileID: 0}
    - target: {fileID: 4387301254824980, guid: 8670cf86c24234bf391820e408de6d24, type: 3}
      propertyPath: m_LocalPosition.x
      value: 7.5
      objectReference: {fileID: 0}
    - target: {fileID: 4387301254824980, guid: 8670cf86c24234bf391820e408de6d24, type: 3}
      propertyPath: m_LocalPosition.y
      value: 1.5
      objectReference: {fileID: 0}
    - target: {fileID: 4387301254824980, guid: 8670cf86c24234bf391820e408de6d24, type: 3}
      propertyPath: m_LocalPosition.z
      value: 0
      objectReference: {fileID: 0}
    - target: {fileID: 4387301254824980, guid: 8670cf86c24234bf391820e408de6d24, type: 3}
      propertyPath: m_LocalRotation.w
      value: 1
      objectReference: {fileID: 0}
    - target: {fileID: 4387301254824980, guid: 8670cf86c24234bf391820e408de6d24, type: 3}
      propertyPath: m_LocalRotation.x
      value: -0
      objectReference: {fileID: 0}
    - target: {fileID: 4387301254824980, guid: 8670cf86c24234bf391820e408de6d24, type: 3}
      propertyPath: m_LocalRotation.y
      value: -0
      objectReference: {fileID: 0}
    - target: {fileID: 4387301254824980, guid: 8670cf86c24234bf391820e408de6d24, type: 3}
      propertyPath: m_LocalRotation.z
      value: -0
      objectReference: {fileID: 0}
    - target: {fileID: 4387301254824980, guid: 8670cf86c24234bf391820e408de6d24, type: 3}
      propertyPath: m_LocalEulerAnglesHint.x
      value: 0
      objectReference: {fileID: 0}
    - target: {fileID: 4387301254824980, guid: 8670cf86c24234bf391820e408de6d24, type: 3}
      propertyPath: m_LocalEulerAnglesHint.y
      value: 0
      objectReference: {fileID: 0}
    - target: {fileID: 4387301254824980, guid: 8670cf86c24234bf391820e408de6d24, type: 3}
      propertyPath: m_LocalEulerAnglesHint.z
      value: 0
      objectReference: {fileID: 0}
    - target: {fileID: 61477104421331976, guid: 8670cf86c24234bf391820e408de6d24,
        type: 3}
      propertyPath: m_Size.x
      value: 0.75
      objectReference: {fileID: 0}
    - target: {fileID: 61477104421331976, guid: 8670cf86c24234bf391820e408de6d24,
        type: 3}
      propertyPath: m_Size.y
      value: 0.75
      objectReference: {fileID: 0}
    - target: {fileID: 61477104421331976, guid: 8670cf86c24234bf391820e408de6d24,
        type: 3}
      propertyPath: m_AutoTiling
      value: 1
      objectReference: {fileID: 0}
    - target: {fileID: 61477104421331976, guid: 8670cf86c24234bf391820e408de6d24,
        type: 3}
      propertyPath: m_SpriteTilingProperty.drawMode
      value: 2
      objectReference: {fileID: 0}
    - target: {fileID: 61477104421331976, guid: 8670cf86c24234bf391820e408de6d24,
        type: 3}
      propertyPath: m_SpriteTilingProperty.newSize.x
      value: 3
      objectReference: {fileID: 0}
    - target: {fileID: 61477104421331976, guid: 8670cf86c24234bf391820e408de6d24,
        type: 3}
      propertyPath: m_SpriteTilingProperty.newSize.y
      value: 1
      objectReference: {fileID: 0}
    - target: {fileID: 212926256537594904, guid: 8670cf86c24234bf391820e408de6d24,
        type: 3}
      propertyPath: m_Size.x
      value: 3
      objectReference: {fileID: 0}
    - target: {fileID: 212926256537594904, guid: 8670cf86c24234bf391820e408de6d24,
        type: 3}
      propertyPath: m_Size.y
      value: 1
      objectReference: {fileID: 0}
    - target: {fileID: 212926256537594904, guid: 8670cf86c24234bf391820e408de6d24,
        type: 3}
      propertyPath: m_DrawMode
      value: 2
      objectReference: {fileID: 0}
    - target: {fileID: 1626150754273476976, guid: 8670cf86c24234bf391820e408de6d24,
        type: 3}
      propertyPath: m_Extents.x
      value: 1.5
      objectReference: {fileID: 0}
    - target: {fileID: 1626150754273476976, guid: 8670cf86c24234bf391820e408de6d24,
        type: 3}
      propertyPath: m_Extents.y
      value: 0.5
      objectReference: {fileID: 0}
    - target: {fileID: 1626150754273476976, guid: 8670cf86c24234bf391820e408de6d24,
        type: 3}
      propertyPath: m_Extents.z
      value: 0.15
      objectReference: {fileID: 0}
    m_RemovedComponents: []
  m_SourcePrefab: {fileID: 100100000, guid: 8670cf86c24234bf391820e408de6d24, type: 3}
