%YAML 1.1
%TAG !u! tag:unity3d.com,2011:
--- !u!1001 &68893986239482084
PrefabInstance:
  m_ObjectHideFlags: 0
  serializedVersion: 2
  m_Modification:
    m_TransformParent: {fileID: 6737509753206271649}
    m_Modifications:
    - target: {fileID: 1531869447189520822, guid: 97fd5e00c27064fe3a9891a8484d9074,
        type: 3}
      propertyPath: m_Name
      value: bg wall (4)
      objectReference: {fileID: 0}
    - target: {fileID: 3784639491395550152, guid: 97fd5e00c27064fe3a9891a8484d9074,
        type: 3}
      propertyPath: m_RootOrder
      value: 6
      objectReference: {fileID: 0}
    - target: {fileID: 3784639491395550152, guid: 97fd5e00c27064fe3a9891a8484d9074,
        type: 3}
      propertyPath: m_LocalPosition.x
      value: 3
      objectReference: {fileID: 0}
    - target: {fileID: 3784639491395550152, guid: 97fd5e00c27064fe3a9891a8484d9074,
        type: 3}
      propertyPath: m_LocalPosition.y
      value: 7.5
      objectReference: {fileID: 0}
    - target: {fileID: 3784639491395550152, guid: 97fd5e00c27064fe3a9891a8484d9074,
        type: 3}
      propertyPath: m_LocalPosition.z
      value: 0
      objectReference: {fileID: 0}
    - target: {fileID: 3784639491395550152, guid: 97fd5e00c27064fe3a9891a8484d9074,
        type: 3}
      propertyPath: m_LocalRotation.w
      value: 1
      objectReference: {fileID: 0}
    - target: {fileID: 3784639491395550152, guid: 97fd5e00c27064fe3a9891a8484d9074,
        type: 3}
      propertyPath: m_LocalRotation.x
      value: -0
      objectReference: {fileID: 0}
    - target: {fileID: 3784639491395550152, guid: 97fd5e00c27064fe3a9891a8484d9074,
        type: 3}
      propertyPath: m_LocalRotation.y
      value: -0
      objectReference: {fileID: 0}
    - target: {fileID: 3784639491395550152, guid: 97fd5e00c27064fe3a9891a8484d9074,
        type: 3}
      propertyPath: m_LocalRotation.z
      value: -0
      objectReference: {fileID: 0}
    - target: {fileID: 3784639491395550152, guid: 97fd5e00c27064fe3a9891a8484d9074,
        type: 3}
      propertyPath: m_LocalEulerAnglesHint.x
      value: 0
      objectReference: {fileID: 0}
    - target: {fileID: 3784639491395550152, guid: 97fd5e00c27064fe3a9891a8484d9074,
        type: 3}
      propertyPath: m_LocalEulerAnglesHint.y
      value: 0
      objectReference: {fileID: 0}
    - target: {fileID: 3784639491395550152, guid: 97fd5e00c27064fe3a9891a8484d9074,
        type: 3}
      propertyPath: m_LocalEulerAnglesHint.z
      value: 0
      objectReference: {fileID: 0}
    - target: {fileID: 4654359712525082122, guid: 97fd5e00c27064fe3a9891a8484d9074,
        type: 3}
      propertyPath: m_Size.x
      value: 6
      objectReference: {fileID: 0}
    m_RemovedComponents: []
  m_SourcePrefab: {fileID: 100100000, guid: 97fd5e00c27064fe3a9891a8484d9074, type: 3}
--- !u!1001 &550853737340569376
PrefabInstance:
  m_ObjectHideFlags: 0
  serializedVersion: 2
  m_Modification:
    m_TransformParent: {fileID: 6737509753206271649}
    m_Modifications:
    - target: {fileID: 1049093956366660, guid: d6b69d4e3b4ac48e1bf677318fce1444, type: 3}
      propertyPath: m_Name
      value: floor-thin (4)
      objectReference: {fileID: 0}
    - target: {fileID: 4387301254824980, guid: d6b69d4e3b4ac48e1bf677318fce1444, type: 3}
      propertyPath: m_RootOrder
      value: 17
      objectReference: {fileID: 0}
    - target: {fileID: 4387301254824980, guid: d6b69d4e3b4ac48e1bf677318fce1444, type: 3}
      propertyPath: m_LocalPosition.x
      value: 8.5
      objectReference: {fileID: 0}
    - target: {fileID: 4387301254824980, guid: d6b69d4e3b4ac48e1bf677318fce1444, type: 3}
      propertyPath: m_LocalPosition.y
      value: 3.25
      objectReference: {fileID: 0}
    - target: {fileID: 4387301254824980, guid: d6b69d4e3b4ac48e1bf677318fce1444, type: 3}
      propertyPath: m_LocalPosition.z
      value: 0
      objectReference: {fileID: 0}
    - target: {fileID: 4387301254824980, guid: d6b69d4e3b4ac48e1bf677318fce1444, type: 3}
      propertyPath: m_LocalRotation.w
      value: 1
      objectReference: {fileID: 0}
    - target: {fileID: 4387301254824980, guid: d6b69d4e3b4ac48e1bf677318fce1444, type: 3}
      propertyPath: m_LocalRotation.x
      value: -0
      objectReference: {fileID: 0}
    - target: {fileID: 4387301254824980, guid: d6b69d4e3b4ac48e1bf677318fce1444, type: 3}
      propertyPath: m_LocalRotation.y
      value: -0
      objectReference: {fileID: 0}
    - target: {fileID: 4387301254824980, guid: d6b69d4e3b4ac48e1bf677318fce1444, type: 3}
      propertyPath: m_LocalRotation.z
      value: -0
      objectReference: {fileID: 0}
    - target: {fileID: 4387301254824980, guid: d6b69d4e3b4ac48e1bf677318fce1444, type: 3}
      propertyPath: m_LocalEulerAnglesHint.x
      value: 0
      objectReference: {fileID: 0}
    - target: {fileID: 4387301254824980, guid: d6b69d4e3b4ac48e1bf677318fce1444, type: 3}
      propertyPath: m_LocalEulerAnglesHint.y
      value: 0
      objectReference: {fileID: 0}
    - target: {fileID: 4387301254824980, guid: d6b69d4e3b4ac48e1bf677318fce1444, type: 3}
      propertyPath: m_LocalEulerAnglesHint.z
      value: 0
      objectReference: {fileID: 0}
    - target: {fileID: 61477104421331976, guid: d6b69d4e3b4ac48e1bf677318fce1444,
        type: 3}
      propertyPath: m_Size.y
      value: 0.75
      objectReference: {fileID: 0}
    m_RemovedComponents: []
  m_SourcePrefab: {fileID: 100100000, guid: d6b69d4e3b4ac48e1bf677318fce1444, type: 3}
--- !u!1001 &1892110405372831308
PrefabInstance:
  m_ObjectHideFlags: 0
  serializedVersion: 2
  m_Modification:
    m_TransformParent: {fileID: 6737509753206271649}
    m_Modifications:
    - target: {fileID: 1049093956366660, guid: 8670cf86c24234bf391820e408de6d24, type: 3}
      propertyPath: m_Name
      value: floor (3)
      objectReference: {fileID: 0}
    - target: {fileID: 1049093956366660, guid: 8670cf86c24234bf391820e408de6d24, type: 3}
      propertyPath: m_StaticEditorFlags
      value: 4294967295
      objectReference: {fileID: 0}
    - target: {fileID: 4387301254824980, guid: 8670cf86c24234bf391820e408de6d24, type: 3}
      propertyPath: m_RootOrder
      value: 2
      objectReference: {fileID: 0}
    - target: {fileID: 4387301254824980, guid: 8670cf86c24234bf391820e408de6d24, type: 3}
      propertyPath: m_LocalScale.x
      value: 1
      objectReference: {fileID: 0}
    - target: {fileID: 4387301254824980, guid: 8670cf86c24234bf391820e408de6d24, type: 3}
      propertyPath: m_LocalScale.y
      value: 1
      objectReference: {fileID: 0}
    - target: {fileID: 4387301254824980, guid: 8670cf86c24234bf391820e408de6d24, type: 3}
      propertyPath: m_LocalPosition.x
      value: 7.237
      objectReference: {fileID: 0}
    - target: {fileID: 4387301254824980, guid: 8670cf86c24234bf391820e408de6d24, type: 3}
      propertyPath: m_LocalPosition.y
      value: 6.22
      objectReference: {fileID: 0}
    - target: {fileID: 4387301254824980, guid: 8670cf86c24234bf391820e408de6d24, type: 3}
      propertyPath: m_LocalPosition.z
      value: 0
      objectReference: {fileID: 0}
    - target: {fileID: 4387301254824980, guid: 8670cf86c24234bf391820e408de6d24, type: 3}
      propertyPath: m_LocalRotation.w
      value: 0.92387956
      objectReference: {fileID: 0}
    - target: {fileID: 4387301254824980, guid: 8670cf86c24234bf391820e408de6d24, type: 3}
      propertyPath: m_LocalRotation.x
      value: 0
      objectReference: {fileID: 0}
    - target: {fileID: 4387301254824980, guid: 8670cf86c24234bf391820e408de6d24, type: 3}
      propertyPath: m_LocalRotation.y
      value: 0
      objectReference: {fileID: 0}
    - target: {fileID: 4387301254824980, guid: 8670cf86c24234bf391820e408de6d24, type: 3}
      propertyPath: m_LocalRotation.z
      value: 0.38268343
      objectReference: {fileID: 0}
    - target: {fileID: 4387301254824980, guid: 8670cf86c24234bf391820e408de6d24, type: 3}
      propertyPath: m_LocalEulerAnglesHint.x
      value: 0
      objectReference: {fileID: 0}
    - target: {fileID: 4387301254824980, guid: 8670cf86c24234bf391820e408de6d24, type: 3}
      propertyPath: m_LocalEulerAnglesHint.y
      value: 0
      objectReference: {fileID: 0}
    - target: {fileID: 4387301254824980, guid: 8670cf86c24234bf391820e408de6d24, type: 3}
      propertyPath: m_LocalEulerAnglesHint.z
      value: 45
      objectReference: {fileID: 0}
    - target: {fileID: 61477104421331976, guid: 8670cf86c24234bf391820e408de6d24,
        type: 3}
      propertyPath: m_Size.x
      value: 0.75
      objectReference: {fileID: 0}
    - target: {fileID: 61477104421331976, guid: 8670cf86c24234bf391820e408de6d24,
        type: 3}
      propertyPath: m_Size.y
      value: 0.75
      objectReference: {fileID: 0}
    - target: {fileID: 61477104421331976, guid: 8670cf86c24234bf391820e408de6d24,
        type: 3}
      propertyPath: m_AutoTiling
      value: 1
      objectReference: {fileID: 0}
    - target: {fileID: 61477104421331976, guid: 8670cf86c24234bf391820e408de6d24,
        type: 3}
      propertyPath: m_SpriteTilingProperty.drawMode
      value: 2
      objectReference: {fileID: 0}
    - target: {fileID: 61477104421331976, guid: 8670cf86c24234bf391820e408de6d24,
        type: 3}
      propertyPath: m_SpriteTilingProperty.newSize.x
      value: 1
      objectReference: {fileID: 0}
    - target: {fileID: 61477104421331976, guid: 8670cf86c24234bf391820e408de6d24,
        type: 3}
      propertyPath: m_SpriteTilingProperty.newSize.y
      value: 4.5
      objectReference: {fileID: 0}
    - target: {fileID: 212926256537594904, guid: 8670cf86c24234bf391820e408de6d24,
        type: 3}
      propertyPath: m_Size.x
      value: 1
      objectReference: {fileID: 0}
    - target: {fileID: 212926256537594904, guid: 8670cf86c24234bf391820e408de6d24,
        type: 3}
      propertyPath: m_Size.y
      value: 4.5
      objectReference: {fileID: 0}
    - target: {fileID: 212926256537594904, guid: 8670cf86c24234bf391820e408de6d24,
        type: 3}
      propertyPath: m_DrawMode
      value: 2
      objectReference: {fileID: 0}
    - target: {fileID: 212926256537594904, guid: 8670cf86c24234bf391820e408de6d24,
        type: 3}
      propertyPath: m_SortingOrder
      value: -1
      objectReference: {fileID: 0}
    - target: {fileID: 1626150754273476976, guid: 8670cf86c24234bf391820e408de6d24,
        type: 3}
      propertyPath: m_Center.x
      value: 0
      objectReference: {fileID: 0}
    - target: {fileID: 1626150754273476976, guid: 8670cf86c24234bf391820e408de6d24,
        type: 3}
      propertyPath: m_Center.y
      value: 0
      objectReference: {fileID: 0}
    - target: {fileID: 1626150754273476976, guid: 8670cf86c24234bf391820e408de6d24,
        type: 3}
      propertyPath: m_Extents.x
      value: 0.5
      objectReference: {fileID: 0}
    - target: {fileID: 1626150754273476976, guid: 8670cf86c24234bf391820e408de6d24,
        type: 3}
      propertyPath: m_Extents.y
      value: 2.25
      objectReference: {fileID: 0}
    - target: {fileID: 1626150754273476976, guid: 8670cf86c24234bf391820e408de6d24,
        type: 3}
      propertyPath: m_Extents.z
      value: 0.15
      objectReference: {fileID: 0}
    m_RemovedComponents: []
  m_SourcePrefab: {fileID: 100100000, guid: 8670cf86c24234bf391820e408de6d24, type: 3}
--- !u!1001 &2735171179702961866
PrefabInstance:
  m_ObjectHideFlags: 0
  serializedVersion: 2
  m_Modification:
    m_TransformParent: {fileID: 6737509753206271649}
    m_Modifications:
    - target: {fileID: 1807283359499242, guid: 9d910a7bcbf8f458fbb579daa4c82c63, type: 3}
      propertyPath: m_Name
      value: door
      objectReference: {fileID: 0}
    - target: {fileID: 4289417388881982, guid: 9d910a7bcbf8f458fbb579daa4c82c63, type: 3}
      propertyPath: m_RootOrder
      value: 8
      objectReference: {fileID: 0}
    - target: {fileID: 4289417388881982, guid: 9d910a7bcbf8f458fbb579daa4c82c63, type: 3}
      propertyPath: m_LocalPosition.x
      value: 5.878
      objectReference: {fileID: 0}
    - target: {fileID: 4289417388881982, guid: 9d910a7bcbf8f458fbb579daa4c82c63, type: 3}
      propertyPath: m_LocalPosition.y
      value: 8.622
      objectReference: {fileID: 0}
    - target: {fileID: 4289417388881982, guid: 9d910a7bcbf8f458fbb579daa4c82c63, type: 3}
      propertyPath: m_LocalPosition.z
      value: 0
      objectReference: {fileID: 0}
    - target: {fileID: 4289417388881982, guid: 9d910a7bcbf8f458fbb579daa4c82c63, type: 3}
      propertyPath: m_LocalRotation.w
      value: 1
      objectReference: {fileID: 0}
    - target: {fileID: 4289417388881982, guid: 9d910a7bcbf8f458fbb579daa4c82c63, type: 3}
      propertyPath: m_LocalRotation.x
      value: -0
      objectReference: {fileID: 0}
    - target: {fileID: 4289417388881982, guid: 9d910a7bcbf8f458fbb579daa4c82c63, type: 3}
      propertyPath: m_LocalRotation.y
      value: -0
      objectReference: {fileID: 0}
    - target: {fileID: 4289417388881982, guid: 9d910a7bcbf8f458fbb579daa4c82c63, type: 3}
      propertyPath: m_LocalRotation.z
      value: -0
      objectReference: {fileID: 0}
    - target: {fileID: 4289417388881982, guid: 9d910a7bcbf8f458fbb579daa4c82c63, type: 3}
      propertyPath: m_LocalEulerAnglesHint.x
      value: 0
      objectReference: {fileID: 0}
    - target: {fileID: 4289417388881982, guid: 9d910a7bcbf8f458fbb579daa4c82c63, type: 3}
      propertyPath: m_LocalEulerAnglesHint.y
      value: 0
      objectReference: {fileID: 0}
    - target: {fileID: 4289417388881982, guid: 9d910a7bcbf8f458fbb579daa4c82c63, type: 3}
      propertyPath: m_LocalEulerAnglesHint.z
      value: 0
      objectReference: {fileID: 0}
    - target: {fileID: 4974051015843839127, guid: 9d910a7bcbf8f458fbb579daa4c82c63,
        type: 3}
      propertyPath: m_Size.y
      value: 0.71875
      objectReference: {fileID: 0}
    - target: {fileID: 5549836153273382509, guid: 9d910a7bcbf8f458fbb579daa4c82c63,
        type: 3}
      propertyPath: m_Extents.y
      value: 0.359375
      objectReference: {fileID: 0}
    - target: {fileID: 5549836153273382509, guid: 9d910a7bcbf8f458fbb579daa4c82c63,
        type: 3}
      propertyPath: m_Extents.z
      value: 0.15
      objectReference: {fileID: 0}
    - target: {fileID: 6919952749474211989, guid: 9d910a7bcbf8f458fbb579daa4c82c63,
        type: 3}
      propertyPath: m_Size.y
      value: 0.71875
      objectReference: {fileID: 0}
    - target: {fileID: 7958837634883122745, guid: 9d910a7bcbf8f458fbb579daa4c82c63,
        type: 3}
      propertyPath: m_Extents.y
      value: 0.359375
      objectReference: {fileID: 0}
    - target: {fileID: 7958837634883122745, guid: 9d910a7bcbf8f458fbb579daa4c82c63,
        type: 3}
      propertyPath: m_Extents.z
      value: 0.15
      objectReference: {fileID: 0}
    m_RemovedComponents: []
  m_SourcePrefab: {fileID: 100100000, guid: 9d910a7bcbf8f458fbb579daa4c82c63, type: 3}
--- !u!1001 &3075447156641995479
PrefabInstance:
  m_ObjectHideFlags: 0
  serializedVersion: 2
  m_Modification:
    m_TransformParent: {fileID: 6737509753206271649}
    m_Modifications:
    - target: {fileID: 1049093956366660, guid: d6b69d4e3b4ac48e1bf677318fce1444, type: 3}
      propertyPath: m_Name
      value: floor-thin
      objectReference: {fileID: 0}
    - target: {fileID: 4387301254824980, guid: d6b69d4e3b4ac48e1bf677318fce1444, type: 3}
      propertyPath: m_RootOrder
      value: 11
      objectReference: {fileID: 0}
    - target: {fileID: 4387301254824980, guid: d6b69d4e3b4ac48e1bf677318fce1444, type: 3}
      propertyPath: m_LocalPosition.x
      value: 3.25
      objectReference: {fileID: 0}
    - target: {fileID: 4387301254824980, guid: d6b69d4e3b4ac48e1bf677318fce1444, type: 3}
      propertyPath: m_LocalPosition.y
      value: 1
      objectReference: {fileID: 0}
    - target: {fileID: 4387301254824980, guid: d6b69d4e3b4ac48e1bf677318fce1444, type: 3}
      propertyPath: m_LocalPosition.z
      value: 0
      objectReference: {fileID: 0}
    - target: {fileID: 4387301254824980, guid: d6b69d4e3b4ac48e1bf677318fce1444, type: 3}
      propertyPath: m_LocalRotation.w
      value: 1
      objectReference: {fileID: 0}
    - target: {fileID: 4387301254824980, guid: d6b69d4e3b4ac48e1bf677318fce1444, type: 3}
      propertyPath: m_LocalRotation.x
      value: -0
      objectReference: {fileID: 0}
    - target: {fileID: 4387301254824980, guid: d6b69d4e3b4ac48e1bf677318fce1444, type: 3}
      propertyPath: m_LocalRotation.y
      value: -0
      objectReference: {fileID: 0}
    - target: {fileID: 4387301254824980, guid: d6b69d4e3b4ac48e1bf677318fce1444, type: 3}
      propertyPath: m_LocalRotation.z
      value: -0
      objectReference: {fileID: 0}
    - target: {fileID: 4387301254824980, guid: d6b69d4e3b4ac48e1bf677318fce1444, type: 3}
      propertyPath: m_LocalEulerAnglesHint.x
      value: 0
      objectReference: {fileID: 0}
    - target: {fileID: 4387301254824980, guid: d6b69d4e3b4ac48e1bf677318fce1444, type: 3}
      propertyPath: m_LocalEulerAnglesHint.y
      value: 0
      objectReference: {fileID: 0}
    - target: {fileID: 4387301254824980, guid: d6b69d4e3b4ac48e1bf677318fce1444, type: 3}
      propertyPath: m_LocalEulerAnglesHint.z
      value: 0
      objectReference: {fileID: 0}
    - target: {fileID: 61477104421331976, guid: d6b69d4e3b4ac48e1bf677318fce1444,
        type: 3}
      propertyPath: m_Size.y
      value: 0.75
      objectReference: {fileID: 0}
    - target: {fileID: 61477104421331976, guid: d6b69d4e3b4ac48e1bf677318fce1444,
        type: 3}
      propertyPath: m_SpriteTilingProperty.newSize.x
      value: 4
      objectReference: {fileID: 0}
    - target: {fileID: 212926256537594904, guid: d6b69d4e3b4ac48e1bf677318fce1444,
        type: 3}
      propertyPath: m_Size.x
      value: 4
      objectReference: {fileID: 0}
    - target: {fileID: 1626150754273476976, guid: d6b69d4e3b4ac48e1bf677318fce1444,
        type: 3}
      propertyPath: m_Extents.x
      value: 2
      objectReference: {fileID: 0}
    m_RemovedComponents: []
  m_SourcePrefab: {fileID: 100100000, guid: d6b69d4e3b4ac48e1bf677318fce1444, type: 3}
--- !u!1001 &3169514187595886816
PrefabInstance:
  m_ObjectHideFlags: 0
  serializedVersion: 2
  m_Modification:
    m_TransformParent: {fileID: 6737509753206271649}
    m_Modifications:
    - target: {fileID: 1049093956366660, guid: d6b69d4e3b4ac48e1bf677318fce1444, type: 3}
      propertyPath: m_Name
      value: floor-thin (1)
      objectReference: {fileID: 0}
    - target: {fileID: 4387301254824980, guid: d6b69d4e3b4ac48e1bf677318fce1444, type: 3}
      propertyPath: m_RootOrder
      value: 14
      objectReference: {fileID: 0}
    - target: {fileID: 4387301254824980, guid: d6b69d4e3b4ac48e1bf677318fce1444, type: 3}
      propertyPath: m_LocalPosition.x
      value: 2.5
      objectReference: {fileID: 0}
    - target: {fileID: 4387301254824980, guid: d6b69d4e3b4ac48e1bf677318fce1444, type: 3}
      propertyPath: m_LocalPosition.y
      value: 8
      objectReference: {fileID: 0}
    - target: {fileID: 4387301254824980, guid: d6b69d4e3b4ac48e1bf677318fce1444, type: 3}
      propertyPath: m_LocalPosition.z
      value: 0
      objectReference: {fileID: 0}
    - target: {fileID: 4387301254824980, guid: d6b69d4e3b4ac48e1bf677318fce1444, type: 3}
      propertyPath: m_LocalRotation.w
      value: 1
      objectReference: {fileID: 0}
    - target: {fileID: 4387301254824980, guid: d6b69d4e3b4ac48e1bf677318fce1444, type: 3}
      propertyPath: m_LocalRotation.x
      value: -0
      objectReference: {fileID: 0}
    - target: {fileID: 4387301254824980, guid: d6b69d4e3b4ac48e1bf677318fce1444, type: 3}
      propertyPath: m_LocalRotation.y
      value: -0
      objectReference: {fileID: 0}
    - target: {fileID: 4387301254824980, guid: d6b69d4e3b4ac48e1bf677318fce1444, type: 3}
      propertyPath: m_LocalRotation.z
      value: -0
      objectReference: {fileID: 0}
    - target: {fileID: 4387301254824980, guid: d6b69d4e3b4ac48e1bf677318fce1444, type: 3}
      propertyPath: m_LocalEulerAnglesHint.x
      value: 0
      objectReference: {fileID: 0}
    - target: {fileID: 4387301254824980, guid: d6b69d4e3b4ac48e1bf677318fce1444, type: 3}
      propertyPath: m_LocalEulerAnglesHint.y
      value: 0
      objectReference: {fileID: 0}
    - target: {fileID: 4387301254824980, guid: d6b69d4e3b4ac48e1bf677318fce1444, type: 3}
      propertyPath: m_LocalEulerAnglesHint.z
      value: 0
      objectReference: {fileID: 0}
    - target: {fileID: 61477104421331976, guid: d6b69d4e3b4ac48e1bf677318fce1444,
        type: 3}
      propertyPath: m_Size.y
      value: 0.75
      objectReference: {fileID: 0}
    m_RemovedComponents: []
  m_SourcePrefab: {fileID: 100100000, guid: d6b69d4e3b4ac48e1bf677318fce1444, type: 3}
--- !u!1001 &3312887485475092357
PrefabInstance:
  m_ObjectHideFlags: 0
  serializedVersion: 2
  m_Modification:
    m_TransformParent: {fileID: 6737509753206271649}
    m_Modifications:
    - target: {fileID: 1049093956366660, guid: d6b69d4e3b4ac48e1bf677318fce1444, type: 3}
      propertyPath: m_Name
      value: floor-thin (6)
      objectReference: {fileID: 0}
    - target: {fileID: 4387301254824980, guid: d6b69d4e3b4ac48e1bf677318fce1444, type: 3}
      propertyPath: m_RootOrder
      value: 19
      objectReference: {fileID: 0}
    - target: {fileID: 4387301254824980, guid: d6b69d4e3b4ac48e1bf677318fce1444, type: 3}
      propertyPath: m_LocalPosition.x
      value: 7
      objectReference: {fileID: 0}
    - target: {fileID: 4387301254824980, guid: d6b69d4e3b4ac48e1bf677318fce1444, type: 3}
      propertyPath: m_LocalPosition.y
      value: 2.25
      objectReference: {fileID: 0}
    - target: {fileID: 4387301254824980, guid: d6b69d4e3b4ac48e1bf677318fce1444, type: 3}
      propertyPath: m_LocalPosition.z
      value: 0
      objectReference: {fileID: 0}
    - target: {fileID: 4387301254824980, guid: d6b69d4e3b4ac48e1bf677318fce1444, type: 3}
      propertyPath: m_LocalRotation.w
      value: 1
      objectReference: {fileID: 0}
    - target: {fileID: 4387301254824980, guid: d6b69d4e3b4ac48e1bf677318fce1444, type: 3}
      propertyPath: m_LocalRotation.x
      value: -0
      objectReference: {fileID: 0}
    - target: {fileID: 4387301254824980, guid: d6b69d4e3b4ac48e1bf677318fce1444, type: 3}
      propertyPath: m_LocalRotation.y
      value: -0
      objectReference: {fileID: 0}
    - target: {fileID: 4387301254824980, guid: d6b69d4e3b4ac48e1bf677318fce1444, type: 3}
      propertyPath: m_LocalRotation.z
      value: -0
      objectReference: {fileID: 0}
    - target: {fileID: 4387301254824980, guid: d6b69d4e3b4ac48e1bf677318fce1444, type: 3}
      propertyPath: m_LocalEulerAnglesHint.x
      value: 0
      objectReference: {fileID: 0}
    - target: {fileID: 4387301254824980, guid: d6b69d4e3b4ac48e1bf677318fce1444, type: 3}
      propertyPath: m_LocalEulerAnglesHint.y
      value: 0
      objectReference: {fileID: 0}
    - target: {fileID: 4387301254824980, guid: d6b69d4e3b4ac48e1bf677318fce1444, type: 3}
      propertyPath: m_LocalEulerAnglesHint.z
      value: 0
      objectReference: {fileID: 0}
    - target: {fileID: 61477104421331976, guid: d6b69d4e3b4ac48e1bf677318fce1444,
        type: 3}
      propertyPath: m_Size.y
      value: 0.75
      objectReference: {fileID: 0}
    m_RemovedComponents: []
  m_SourcePrefab: {fileID: 100100000, guid: d6b69d4e3b4ac48e1bf677318fce1444, type: 3}
--- !u!1001 &4300744506271603259
PrefabInstance:
  m_ObjectHideFlags: 0
  serializedVersion: 2
  m_Modification:
    m_TransformParent: {fileID: 6737509753206271649}
    m_Modifications:
    - target: {fileID: 1049093956366660, guid: 8670cf86c24234bf391820e408de6d24, type: 3}
      propertyPath: m_Name
      value: floor (1)
      objectReference: {fileID: 0}
    - target: {fileID: 1049093956366660, guid: 8670cf86c24234bf391820e408de6d24, type: 3}
      propertyPath: m_StaticEditorFlags
      value: 4294967295
      objectReference: {fileID: 0}
    - target: {fileID: 4387301254824980, guid: 8670cf86c24234bf391820e408de6d24, type: 3}
      propertyPath: m_RootOrder
      value: 0
      objectReference: {fileID: 0}
    - target: {fileID: 4387301254824980, guid: 8670cf86c24234bf391820e408de6d24, type: 3}
      propertyPath: m_LocalScale.x
      value: 1
      objectReference: {fileID: 0}
    - target: {fileID: 4387301254824980, guid: 8670cf86c24234bf391820e408de6d24, type: 3}
      propertyPath: m_LocalScale.y
      value: 1
      objectReference: {fileID: 0}
    - target: {fileID: 4387301254824980, guid: 8670cf86c24234bf391820e408de6d24, type: 3}
      propertyPath: m_LocalPosition.x
      value: 4
      objectReference: {fileID: 0}
    - target: {fileID: 4387301254824980, guid: 8670cf86c24234bf391820e408de6d24, type: 3}
      propertyPath: m_LocalPosition.y
      value: 9.5
      objectReference: {fileID: 0}
    - target: {fileID: 4387301254824980, guid: 8670cf86c24234bf391820e408de6d24, type: 3}
      propertyPath: m_LocalPosition.z
      value: 0
      objectReference: {fileID: 0}
    - target: {fileID: 4387301254824980, guid: 8670cf86c24234bf391820e408de6d24, type: 3}
      propertyPath: m_LocalRotation.w
      value: 1
      objectReference: {fileID: 0}
    - target: {fileID: 4387301254824980, guid: 8670cf86c24234bf391820e408de6d24, type: 3}
      propertyPath: m_LocalRotation.x
      value: -0
      objectReference: {fileID: 0}
    - target: {fileID: 4387301254824980, guid: 8670cf86c24234bf391820e408de6d24, type: 3}
      propertyPath: m_LocalRotation.y
      value: -0
      objectReference: {fileID: 0}
    - target: {fileID: 4387301254824980, guid: 8670cf86c24234bf391820e408de6d24, type: 3}
      propertyPath: m_LocalRotation.z
      value: -0
      objectReference: {fileID: 0}
    - target: {fileID: 4387301254824980, guid: 8670cf86c24234bf391820e408de6d24, type: 3}
      propertyPath: m_LocalEulerAnglesHint.x
      value: 0
      objectReference: {fileID: 0}
    - target: {fileID: 4387301254824980, guid: 8670cf86c24234bf391820e408de6d24, type: 3}
      propertyPath: m_LocalEulerAnglesHint.y
      value: 0
      objectReference: {fileID: 0}
    - target: {fileID: 4387301254824980, guid: 8670cf86c24234bf391820e408de6d24, type: 3}
      propertyPath: m_LocalEulerAnglesHint.z
      value: 0
      objectReference: {fileID: 0}
    - target: {fileID: 61477104421331976, guid: 8670cf86c24234bf391820e408de6d24,
        type: 3}
      propertyPath: m_Size.x
      value: 0.75
      objectReference: {fileID: 0}
    - target: {fileID: 61477104421331976, guid: 8670cf86c24234bf391820e408de6d24,
        type: 3}
      propertyPath: m_Size.y
      value: 0.75
      objectReference: {fileID: 0}
    - target: {fileID: 61477104421331976, guid: 8670cf86c24234bf391820e408de6d24,
        type: 3}
      propertyPath: m_AutoTiling
      value: 1
      objectReference: {fileID: 0}
    - target: {fileID: 61477104421331976, guid: 8670cf86c24234bf391820e408de6d24,
        type: 3}
      propertyPath: m_SpriteTilingProperty.drawMode
      value: 2
      objectReference: {fileID: 0}
    - target: {fileID: 61477104421331976, guid: 8670cf86c24234bf391820e408de6d24,
        type: 3}
      propertyPath: m_SpriteTilingProperty.newSize.x
      value: 4
      objectReference: {fileID: 0}
    - target: {fileID: 61477104421331976, guid: 8670cf86c24234bf391820e408de6d24,
        type: 3}
      propertyPath: m_SpriteTilingProperty.newSize.y
      value: 1
      objectReference: {fileID: 0}
    - target: {fileID: 212926256537594904, guid: 8670cf86c24234bf391820e408de6d24,
        type: 3}
      propertyPath: m_Size.x
      value: 4
      objectReference: {fileID: 0}
    - target: {fileID: 212926256537594904, guid: 8670cf86c24234bf391820e408de6d24,
        type: 3}
      propertyPath: m_Size.y
      value: 1
      objectReference: {fileID: 0}
    - target: {fileID: 212926256537594904, guid: 8670cf86c24234bf391820e408de6d24,
        type: 3}
      propertyPath: m_DrawMode
      value: 2
      objectReference: {fileID: 0}
    - target: {fileID: 1626150754273476976, guid: 8670cf86c24234bf391820e408de6d24,
        type: 3}
      propertyPath: m_Center.x
      value: 0
      objectReference: {fileID: 0}
    - target: {fileID: 1626150754273476976, guid: 8670cf86c24234bf391820e408de6d24,
        type: 3}
      propertyPath: m_Center.y
      value: 0
      objectReference: {fileID: 0}
    - target: {fileID: 1626150754273476976, guid: 8670cf86c24234bf391820e408de6d24,
        type: 3}
      propertyPath: m_Extents.x
      value: 2
      objectReference: {fileID: 0}
    - target: {fileID: 1626150754273476976, guid: 8670cf86c24234bf391820e408de6d24,
        type: 3}
      propertyPath: m_Extents.y
      value: 0.5
      objectReference: {fileID: 0}
    - target: {fileID: 1626150754273476976, guid: 8670cf86c24234bf391820e408de6d24,
        type: 3}
      propertyPath: m_Extents.z
      value: 0.15
      objectReference: {fileID: 0}
    m_RemovedComponents: []
  m_SourcePrefab: {fileID: 100100000, guid: 8670cf86c24234bf391820e408de6d24, type: 3}
--- !u!1001 &4428263780373419382
PrefabInstance:
  m_ObjectHideFlags: 0
  serializedVersion: 2
  m_Modification:
    m_TransformParent: {fileID: 6737509753206271649}
    m_Modifications:
    - target: {fileID: 1531869447189520822, guid: 97fd5e00c27064fe3a9891a8484d9074,
        type: 3}
      propertyPath: m_Name
      value: bg wall (3)
      objectReference: {fileID: 0}
    - target: {fileID: 3784639491395550152, guid: 97fd5e00c27064fe3a9891a8484d9074,
        type: 3}
      propertyPath: m_RootOrder
      value: 5
      objectReference: {fileID: 0}
    - target: {fileID: 3784639491395550152, guid: 97fd5e00c27064fe3a9891a8484d9074,
        type: 3}
      propertyPath: m_LocalPosition.x
      value: 7.5
      objectReference: {fileID: 0}
    - target: {fileID: 3784639491395550152, guid: 97fd5e00c27064fe3a9891a8484d9074,
        type: 3}
      propertyPath: m_LocalPosition.y
      value: 2.5
      objectReference: {fileID: 0}
    - target: {fileID: 3784639491395550152, guid: 97fd5e00c27064fe3a9891a8484d9074,
        type: 3}
      propertyPath: m_LocalPosition.z
      value: 0
      objectReference: {fileID: 0}
    - target: {fileID: 3784639491395550152, guid: 97fd5e00c27064fe3a9891a8484d9074,
        type: 3}
      propertyPath: m_LocalRotation.w
      value: 1
      objectReference: {fileID: 0}
    - target: {fileID: 3784639491395550152, guid: 97fd5e00c27064fe3a9891a8484d9074,
        type: 3}
      propertyPath: m_LocalRotation.x
      value: -0
      objectReference: {fileID: 0}
    - target: {fileID: 3784639491395550152, guid: 97fd5e00c27064fe3a9891a8484d9074,
        type: 3}
      propertyPath: m_LocalRotation.y
      value: -0
      objectReference: {fileID: 0}
    - target: {fileID: 3784639491395550152, guid: 97fd5e00c27064fe3a9891a8484d9074,
        type: 3}
      propertyPath: m_LocalRotation.z
      value: -0
      objectReference: {fileID: 0}
    - target: {fileID: 3784639491395550152, guid: 97fd5e00c27064fe3a9891a8484d9074,
        type: 3}
      propertyPath: m_LocalEulerAnglesHint.x
      value: 0
      objectReference: {fileID: 0}
    - target: {fileID: 3784639491395550152, guid: 97fd5e00c27064fe3a9891a8484d9074,
        type: 3}
      propertyPath: m_LocalEulerAnglesHint.y
      value: 0
      objectReference: {fileID: 0}
    - target: {fileID: 3784639491395550152, guid: 97fd5e00c27064fe3a9891a8484d9074,
        type: 3}
      propertyPath: m_LocalEulerAnglesHint.z
      value: 0
      objectReference: {fileID: 0}
    m_RemovedComponents: []
  m_SourcePrefab: {fileID: 100100000, guid: 97fd5e00c27064fe3a9891a8484d9074, type: 3}
--- !u!1001 &4822937716897345433
PrefabInstance:
  m_ObjectHideFlags: 0
  serializedVersion: 2
  m_Modification:
    m_TransformParent: {fileID: 6737509753206271649}
    m_Modifications:
    - target: {fileID: 6860432358930890502, guid: c5d7527e599fa45fcb9fb600afffa921,
        type: 3}
      propertyPath: m_RootOrder
      value: 21
      objectReference: {fileID: 0}
    - target: {fileID: 6860432358930890502, guid: c5d7527e599fa45fcb9fb600afffa921,
        type: 3}
      propertyPath: m_LocalPosition.x
      value: 1.25
      objectReference: {fileID: 0}
    - target: {fileID: 6860432358930890502, guid: c5d7527e599fa45fcb9fb600afffa921,
        type: 3}
      propertyPath: m_LocalPosition.y
      value: 4.75
      objectReference: {fileID: 0}
    - target: {fileID: 6860432358930890502, guid: c5d7527e599fa45fcb9fb600afffa921,
        type: 3}
      propertyPath: m_LocalPosition.z
      value: 0
      objectReference: {fileID: 0}
    - target: {fileID: 6860432358930890502, guid: c5d7527e599fa45fcb9fb600afffa921,
        type: 3}
      propertyPath: m_LocalRotation.w
      value: 1
      objectReference: {fileID: 0}
    - target: {fileID: 6860432358930890502, guid: c5d7527e599fa45fcb9fb600afffa921,
        type: 3}
      propertyPath: m_LocalRotation.x
      value: -0
      objectReference: {fileID: 0}
    - target: {fileID: 6860432358930890502, guid: c5d7527e599fa45fcb9fb600afffa921,
        type: 3}
      propertyPath: m_LocalRotation.y
      value: -0
      objectReference: {fileID: 0}
    - target: {fileID: 6860432358930890502, guid: c5d7527e599fa45fcb9fb600afffa921,
        type: 3}
      propertyPath: m_LocalRotation.z
      value: -0
      objectReference: {fileID: 0}
    - target: {fileID: 6860432358930890502, guid: c5d7527e599fa45fcb9fb600afffa921,
        type: 3}
      propertyPath: m_LocalEulerAnglesHint.x
      value: 0
      objectReference: {fileID: 0}
    - target: {fileID: 6860432358930890502, guid: c5d7527e599fa45fcb9fb600afffa921,
        type: 3}
      propertyPath: m_LocalEulerAnglesHint.y
      value: 0
      objectReference: {fileID: 0}
    - target: {fileID: 6860432358930890502, guid: c5d7527e599fa45fcb9fb600afffa921,
        type: 3}
      propertyPath: m_LocalEulerAnglesHint.z
      value: 0
      objectReference: {fileID: 0}
    - target: {fileID: 6861527596734106198, guid: c5d7527e599fa45fcb9fb600afffa921,
        type: 3}
      propertyPath: m_Name
      value: wall (1)
      objectReference: {fileID: 0}
    m_RemovedComponents: []
  m_SourcePrefab: {fileID: 100100000, guid: c5d7527e599fa45fcb9fb600afffa921, type: 3}
--- !u!1001 &4945148499034439813
PrefabInstance:
  m_ObjectHideFlags: 0
  serializedVersion: 2
  m_Modification:
    m_TransformParent: {fileID: 0}
    m_Modifications:
    - target: {fileID: 437275677996588713, guid: d1864b87248b74381b59748b50dbd186,
        type: 3}
      propertyPath: m_Text
      value: node-11-0
      objectReference: {fileID: 0}
    - target: {fileID: 1054686322908492400, guid: d1864b87248b74381b59748b50dbd186,
        type: 3}
      propertyPath: m_RootOrder
      value: 9
      objectReference: {fileID: 0}
    - target: {fileID: 1301624615008601836, guid: d1864b87248b74381b59748b50dbd186,
        type: 3}
      propertyPath: m_Name
      value: node-11-0
      objectReference: {fileID: 0}
    - target: {fileID: 1810661693476826660, guid: d1864b87248b74381b59748b50dbd186,
        type: 3}
      propertyPath: m_RootOrder
      value: 0
      objectReference: {fileID: 0}
    - target: {fileID: 1810661693476826660, guid: d1864b87248b74381b59748b50dbd186,
        type: 3}
      propertyPath: m_LocalPosition.x
      value: 0
      objectReference: {fileID: 0}
    - target: {fileID: 1810661693476826660, guid: d1864b87248b74381b59748b50dbd186,
        type: 3}
      propertyPath: m_LocalPosition.y
      value: 0
      objectReference: {fileID: 0}
    - target: {fileID: 1810661693476826660, guid: d1864b87248b74381b59748b50dbd186,
        type: 3}
      propertyPath: m_LocalPosition.z
      value: 0
      objectReference: {fileID: 0}
    - target: {fileID: 1810661693476826660, guid: d1864b87248b74381b59748b50dbd186,
        type: 3}
      propertyPath: m_LocalRotation.w
      value: 1
      objectReference: {fileID: 0}
    - target: {fileID: 1810661693476826660, guid: d1864b87248b74381b59748b50dbd186,
        type: 3}
      propertyPath: m_LocalRotation.x
      value: 0
      objectReference: {fileID: 0}
    - target: {fileID: 1810661693476826660, guid: d1864b87248b74381b59748b50dbd186,
        type: 3}
      propertyPath: m_LocalRotation.y
      value: 0
      objectReference: {fileID: 0}
    - target: {fileID: 1810661693476826660, guid: d1864b87248b74381b59748b50dbd186,
        type: 3}
      propertyPath: m_LocalRotation.z
      value: 0
      objectReference: {fileID: 0}
    - target: {fileID: 1810661693476826660, guid: d1864b87248b74381b59748b50dbd186,
        type: 3}
      propertyPath: m_LocalEulerAnglesHint.x
      value: 0
      objectReference: {fileID: 0}
    - target: {fileID: 1810661693476826660, guid: d1864b87248b74381b59748b50dbd186,
        type: 3}
      propertyPath: m_LocalEulerAnglesHint.y
      value: 0
      objectReference: {fileID: 0}
    - target: {fileID: 1810661693476826660, guid: d1864b87248b74381b59748b50dbd186,
        type: 3}
      propertyPath: m_LocalEulerAnglesHint.z
      value: 0
      objectReference: {fileID: 0}
    - target: {fileID: 6379974361363133168, guid: d1864b87248b74381b59748b50dbd186,
        type: 3}
      propertyPath: m_RootOrder
      value: 22
      objectReference: {fileID: 0}
    - target: {fileID: 6379974361363133169, guid: d1864b87248b74381b59748b50dbd186,
        type: 3}
      propertyPath: text
      value: node-11-0
      objectReference: {fileID: 0}
    m_RemovedComponents: []
  m_SourcePrefab: {fileID: 100100000, guid: d1864b87248b74381b59748b50dbd186, type: 3}
--- !u!4 &6737509753206271649 stripped
Transform:
  m_CorrespondingSourceObject: {fileID: 1810661693476826660, guid: d1864b87248b74381b59748b50dbd186,
    type: 3}
  m_PrefabInstance: {fileID: 4945148499034439813}
  m_PrefabAsset: {fileID: 0}
--- !u!1001 &4946213962171488795
PrefabInstance:
  m_ObjectHideFlags: 0
  serializedVersion: 2
  m_Modification:
    m_TransformParent: {fileID: 6737509753206271649}
    m_Modifications:
    - target: {fileID: 1531869447189520822, guid: 97fd5e00c27064fe3a9891a8484d9074,
        type: 3}
      propertyPath: m_Name
      value: bg wall (2)
      objectReference: {fileID: 0}
    - target: {fileID: 3784639491395550152, guid: 97fd5e00c27064fe3a9891a8484d9074,
        type: 3}
      propertyPath: m_RootOrder
      value: 4
      objectReference: {fileID: 0}
    - target: {fileID: 3784639491395550152, guid: 97fd5e00c27064fe3a9891a8484d9074,
        type: 3}
      propertyPath: m_LocalPosition.x
      value: 2.5
      objectReference: {fileID: 0}
    - target: {fileID: 3784639491395550152, guid: 97fd5e00c27064fe3a9891a8484d9074,
        type: 3}
      propertyPath: m_LocalPosition.y
      value: 2.5
      objectReference: {fileID: 0}
    - target: {fileID: 3784639491395550152, guid: 97fd5e00c27064fe3a9891a8484d9074,
        type: 3}
      propertyPath: m_LocalPosition.z
      value: 0
      objectReference: {fileID: 0}
    - target: {fileID: 3784639491395550152, guid: 97fd5e00c27064fe3a9891a8484d9074,
        type: 3}
      propertyPath: m_LocalRotation.w
      value: 1
      objectReference: {fileID: 0}
    - target: {fileID: 3784639491395550152, guid: 97fd5e00c27064fe3a9891a8484d9074,
        type: 3}
      propertyPath: m_LocalRotation.x
      value: -0
      objectReference: {fileID: 0}
    - target: {fileID: 3784639491395550152, guid: 97fd5e00c27064fe3a9891a8484d9074,
        type: 3}
      propertyPath: m_LocalRotation.y
      value: -0
      objectReference: {fileID: 0}
    - target: {fileID: 3784639491395550152, guid: 97fd5e00c27064fe3a9891a8484d9074,
        type: 3}
      propertyPath: m_LocalRotation.z
      value: -0
      objectReference: {fileID: 0}
    - target: {fileID: 3784639491395550152, guid: 97fd5e00c27064fe3a9891a8484d9074,
        type: 3}
      propertyPath: m_LocalEulerAnglesHint.x
      value: 0
      objectReference: {fileID: 0}
    - target: {fileID: 3784639491395550152, guid: 97fd5e00c27064fe3a9891a8484d9074,
        type: 3}
      propertyPath: m_LocalEulerAnglesHint.y
      value: 0
      objectReference: {fileID: 0}
    - target: {fileID: 3784639491395550152, guid: 97fd5e00c27064fe3a9891a8484d9074,
        type: 3}
      propertyPath: m_LocalEulerAnglesHint.z
      value: 0
      objectReference: {fileID: 0}
    - target: {fileID: 4654359712525082122, guid: 97fd5e00c27064fe3a9891a8484d9074,
        type: 3}
      propertyPath: m_Size.x
      value: 5
      objectReference: {fileID: 0}
    m_RemovedComponents: []
  m_SourcePrefab: {fileID: 100100000, guid: 97fd5e00c27064fe3a9891a8484d9074, type: 3}
--- !u!1001 &5607278134279476523
PrefabInstance:
  m_ObjectHideFlags: 0
  serializedVersion: 2
  m_Modification:
    m_TransformParent: {fileID: 6737509753206271649}
    m_Modifications:
    - target: {fileID: 1049093956366660, guid: d6b69d4e3b4ac48e1bf677318fce1444, type: 3}
      propertyPath: m_Name
      value: floor-thin (3)
      objectReference: {fileID: 0}
    - target: {fileID: 4387301254824980, guid: d6b69d4e3b4ac48e1bf677318fce1444, type: 3}
      propertyPath: m_RootOrder
      value: 16
      objectReference: {fileID: 0}
    - target: {fileID: 4387301254824980, guid: d6b69d4e3b4ac48e1bf677318fce1444, type: 3}
      propertyPath: m_LocalPosition.x
      value: 8
      objectReference: {fileID: 0}
    - target: {fileID: 4387301254824980, guid: d6b69d4e3b4ac48e1bf677318fce1444, type: 3}
      propertyPath: m_LocalPosition.y
      value: 1
      objectReference: {fileID: 0}
    - target: {fileID: 4387301254824980, guid: d6b69d4e3b4ac48e1bf677318fce1444, type: 3}
      propertyPath: m_LocalPosition.z
      value: 0
      objectReference: {fileID: 0}
    - target: {fileID: 4387301254824980, guid: d6b69d4e3b4ac48e1bf677318fce1444, type: 3}
      propertyPath: m_LocalRotation.w
      value: 1
      objectReference: {fileID: 0}
    - target: {fileID: 4387301254824980, guid: d6b69d4e3b4ac48e1bf677318fce1444, type: 3}
      propertyPath: m_LocalRotation.x
      value: -0
      objectReference: {fileID: 0}
    - target: {fileID: 4387301254824980, guid: d6b69d4e3b4ac48e1bf677318fce1444, type: 3}
      propertyPath: m_LocalRotation.y
      value: -0
      objectReference: {fileID: 0}
    - target: {fileID: 4387301254824980, guid: d6b69d4e3b4ac48e1bf677318fce1444, type: 3}
      propertyPath: m_LocalRotation.z
      value: -0
      objectReference: {fileID: 0}
    - target: {fileID: 4387301254824980, guid: d6b69d4e3b4ac48e1bf677318fce1444, type: 3}
      propertyPath: m_LocalEulerAnglesHint.x
      value: 0
      objectReference: {fileID: 0}
    - target: {fileID: 4387301254824980, guid: d6b69d4e3b4ac48e1bf677318fce1444, type: 3}
      propertyPath: m_LocalEulerAnglesHint.y
      value: 0
      objectReference: {fileID: 0}
    - target: {fileID: 4387301254824980, guid: d6b69d4e3b4ac48e1bf677318fce1444, type: 3}
      propertyPath: m_LocalEulerAnglesHint.z
      value: 0
      objectReference: {fileID: 0}
    - target: {fileID: 61477104421331976, guid: d6b69d4e3b4ac48e1bf677318fce1444,
        type: 3}
      propertyPath: m_Size.y
      value: 0.75
      objectReference: {fileID: 0}
    m_RemovedComponents: []
  m_SourcePrefab: {fileID: 100100000, guid: d6b69d4e3b4ac48e1bf677318fce1444, type: 3}
--- !u!1001 &5757452583176687830
PrefabInstance:
  m_ObjectHideFlags: 0
  serializedVersion: 2
  m_Modification:
    m_TransformParent: {fileID: 6737509753206271649}
    m_Modifications:
    - target: {fileID: 1049093956366660, guid: 8670cf86c24234bf391820e408de6d24, type: 3}
      propertyPath: m_Name
      value: floor (4)
      objectReference: {fileID: 0}
    - target: {fileID: 1049093956366660, guid: 8670cf86c24234bf391820e408de6d24, type: 3}
      propertyPath: m_StaticEditorFlags
      value: 4294967295
      objectReference: {fileID: 0}
    - target: {fileID: 4387301254824980, guid: 8670cf86c24234bf391820e408de6d24, type: 3}
      propertyPath: m_RootOrder
      value: 3
      objectReference: {fileID: 0}
    - target: {fileID: 4387301254824980, guid: 8670cf86c24234bf391820e408de6d24, type: 3}
      propertyPath: m_LocalScale.x
      value: 1
      objectReference: {fileID: 0}
    - target: {fileID: 4387301254824980, guid: 8670cf86c24234bf391820e408de6d24, type: 3}
      propertyPath: m_LocalScale.y
      value: 1
      objectReference: {fileID: 0}
    - target: {fileID: 4387301254824980, guid: 8670cf86c24234bf391820e408de6d24, type: 3}
      propertyPath: m_LocalPosition.x
      value: 9.5
      objectReference: {fileID: 0}
    - target: {fileID: 4387301254824980, guid: 8670cf86c24234bf391820e408de6d24, type: 3}
      propertyPath: m_LocalPosition.y
      value: 2
      objectReference: {fileID: 0}
    - target: {fileID: 4387301254824980, guid: 8670cf86c24234bf391820e408de6d24, type: 3}
      propertyPath: m_LocalPosition.z
      value: 0
      objectReference: {fileID: 0}
    - target: {fileID: 4387301254824980, guid: 8670cf86c24234bf391820e408de6d24, type: 3}
      propertyPath: m_LocalRotation.w
      value: 1
      objectReference: {fileID: 0}
    - target: {fileID: 4387301254824980, guid: 8670cf86c24234bf391820e408de6d24, type: 3}
      propertyPath: m_LocalRotation.x
      value: -0
      objectReference: {fileID: 0}
    - target: {fileID: 4387301254824980, guid: 8670cf86c24234bf391820e408de6d24, type: 3}
      propertyPath: m_LocalRotation.y
      value: -0
      objectReference: {fileID: 0}
    - target: {fileID: 4387301254824980, guid: 8670cf86c24234bf391820e408de6d24, type: 3}
      propertyPath: m_LocalRotation.z
      value: -0
      objectReference: {fileID: 0}
    - target: {fileID: 4387301254824980, guid: 8670cf86c24234bf391820e408de6d24, type: 3}
      propertyPath: m_LocalEulerAnglesHint.x
      value: 0
      objectReference: {fileID: 0}
    - target: {fileID: 4387301254824980, guid: 8670cf86c24234bf391820e408de6d24, type: 3}
      propertyPath: m_LocalEulerAnglesHint.y
      value: 0
      objectReference: {fileID: 0}
    - target: {fileID: 4387301254824980, guid: 8670cf86c24234bf391820e408de6d24, type: 3}
      propertyPath: m_LocalEulerAnglesHint.z
      value: 0
      objectReference: {fileID: 0}
    - target: {fileID: 61477104421331976, guid: 8670cf86c24234bf391820e408de6d24,
        type: 3}
      propertyPath: m_Size.x
      value: 0.75
      objectReference: {fileID: 0}
    - target: {fileID: 61477104421331976, guid: 8670cf86c24234bf391820e408de6d24,
        type: 3}
      propertyPath: m_Size.y
      value: 0.75
      objectReference: {fileID: 0}
    - target: {fileID: 61477104421331976, guid: 8670cf86c24234bf391820e408de6d24,
        type: 3}
      propertyPath: m_AutoTiling
      value: 1
      objectReference: {fileID: 0}
    - target: {fileID: 61477104421331976, guid: 8670cf86c24234bf391820e408de6d24,
        type: 3}
      propertyPath: m_SpriteTilingProperty.drawMode
      value: 2
      objectReference: {fileID: 0}
    - target: {fileID: 61477104421331976, guid: 8670cf86c24234bf391820e408de6d24,
        type: 3}
      propertyPath: m_SpriteTilingProperty.newSize.x
      value: 1
      objectReference: {fileID: 0}
    - target: {fileID: 61477104421331976, guid: 8670cf86c24234bf391820e408de6d24,
        type: 3}
      propertyPath: m_SpriteTilingProperty.newSize.y
      value: 4
      objectReference: {fileID: 0}
    - target: {fileID: 212926256537594904, guid: 8670cf86c24234bf391820e408de6d24,
        type: 3}
      propertyPath: m_Size.x
      value: 1
      objectReference: {fileID: 0}
    - target: {fileID: 212926256537594904, guid: 8670cf86c24234bf391820e408de6d24,
        type: 3}
      propertyPath: m_Size.y
      value: 4
      objectReference: {fileID: 0}
    - target: {fileID: 212926256537594904, guid: 8670cf86c24234bf391820e408de6d24,
        type: 3}
      propertyPath: m_DrawMode
      value: 2
      objectReference: {fileID: 0}
    - target: {fileID: 1626150754273476976, guid: 8670cf86c24234bf391820e408de6d24,
        type: 3}
      propertyPath: m_Center.x
      value: 0
      objectReference: {fileID: 0}
    - target: {fileID: 1626150754273476976, guid: 8670cf86c24234bf391820e408de6d24,
        type: 3}
      propertyPath: m_Center.y
      value: 0
      objectReference: {fileID: 0}
    - target: {fileID: 1626150754273476976, guid: 8670cf86c24234bf391820e408de6d24,
        type: 3}
      propertyPath: m_Extents.x
      value: 0.5
      objectReference: {fileID: 0}
    - target: {fileID: 1626150754273476976, guid: 8670cf86c24234bf391820e408de6d24,
        type: 3}
      propertyPath: m_Extents.y
      value: 2
      objectReference: {fileID: 0}
    - target: {fileID: 1626150754273476976, guid: 8670cf86c24234bf391820e408de6d24,
        type: 3}
      propertyPath: m_Extents.z
      value: 0.15
      objectReference: {fileID: 0}
    m_RemovedComponents: []
  m_SourcePrefab: {fileID: 100100000, guid: 8670cf86c24234bf391820e408de6d24, type: 3}
--- !u!1001 &6858134851859919711
PrefabInstance:
  m_ObjectHideFlags: 0
  serializedVersion: 2
  m_Modification:
    m_TransformParent: {fileID: 6737509753206271649}
    m_Modifications:
    - target: {fileID: 6860432358930890502, guid: c5d7527e599fa45fcb9fb600afffa921,
        type: 3}
      propertyPath: m_RootOrder
      value: 13
      objectReference: {fileID: 0}
    - target: {fileID: 6860432358930890502, guid: c5d7527e599fa45fcb9fb600afffa921,
        type: 3}
      propertyPath: m_LocalPosition.x
      value: 4.25
      objectReference: {fileID: 0}
    - target: {fileID: 6860432358930890502, guid: c5d7527e599fa45fcb9fb600afffa921,
        type: 3}
      propertyPath: m_LocalPosition.y
      value: 5.75
      objectReference: {fileID: 0}
    - target: {fileID: 6860432358930890502, guid: c5d7527e599fa45fcb9fb600afffa921,
        type: 3}
      propertyPath: m_LocalPosition.z
      value: 0
      objectReference: {fileID: 0}
    - target: {fileID: 6860432358930890502, guid: c5d7527e599fa45fcb9fb600afffa921,
        type: 3}
      propertyPath: m_LocalRotation.w
      value: 1
      objectReference: {fileID: 0}
    - target: {fileID: 6860432358930890502, guid: c5d7527e599fa45fcb9fb600afffa921,
        type: 3}
      propertyPath: m_LocalRotation.x
      value: -0
      objectReference: {fileID: 0}
    - target: {fileID: 6860432358930890502, guid: c5d7527e599fa45fcb9fb600afffa921,
        type: 3}
      propertyPath: m_LocalRotation.y
      value: -0
      objectReference: {fileID: 0}
    - target: {fileID: 6860432358930890502, guid: c5d7527e599fa45fcb9fb600afffa921,
        type: 3}
      propertyPath: m_LocalRotation.z
      value: -0
      objectReference: {fileID: 0}
    - target: {fileID: 6860432358930890502, guid: c5d7527e599fa45fcb9fb600afffa921,
        type: 3}
      propertyPath: m_LocalEulerAnglesHint.x
      value: 0
      objectReference: {fileID: 0}
    - target: {fileID: 6860432358930890502, guid: c5d7527e599fa45fcb9fb600afffa921,
        type: 3}
      propertyPath: m_LocalEulerAnglesHint.y
      value: 0
      objectReference: {fileID: 0}
    - target: {fileID: 6860432358930890502, guid: c5d7527e599fa45fcb9fb600afffa921,
        type: 3}
      propertyPath: m_LocalEulerAnglesHint.z
      value: 0
      objectReference: {fileID: 0}
    - target: {fileID: 6861527596734106198, guid: c5d7527e599fa45fcb9fb600afffa921,
        type: 3}
      propertyPath: m_Name
      value: wall
      objectReference: {fileID: 0}
    m_RemovedComponents: []
  m_SourcePrefab: {fileID: 100100000, guid: c5d7527e599fa45fcb9fb600afffa921, type: 3}
--- !u!1001 &7370414484925932465
PrefabInstance:
  m_ObjectHideFlags: 0
  serializedVersion: 2
  m_Modification:
    m_TransformParent: {fileID: 6737509753206271649}
    m_Modifications:
    - target: {fileID: 1049093956366660, guid: d6b69d4e3b4ac48e1bf677318fce1444, type: 3}
      propertyPath: m_Name
      value: floor-thin (2)
      objectReference: {fileID: 0}
    - target: {fileID: 4387301254824980, guid: d6b69d4e3b4ac48e1bf677318fce1444, type: 3}
      propertyPath: m_RootOrder
      value: 15
      objectReference: {fileID: 0}
    - target: {fileID: 4387301254824980, guid: d6b69d4e3b4ac48e1bf677318fce1444, type: 3}
      propertyPath: m_LocalPosition.x
      value: 0.5
      objectReference: {fileID: 0}
    - target: {fileID: 4387301254824980, guid: d6b69d4e3b4ac48e1bf677318fce1444, type: 3}
      propertyPath: m_LocalPosition.y
      value: 4.75
      objectReference: {fileID: 0}
    - target: {fileID: 4387301254824980, guid: d6b69d4e3b4ac48e1bf677318fce1444, type: 3}
      propertyPath: m_LocalPosition.z
      value: 0
      objectReference: {fileID: 0}
    - target: {fileID: 4387301254824980, guid: d6b69d4e3b4ac48e1bf677318fce1444, type: 3}
      propertyPath: m_LocalRotation.w
      value: 1
      objectReference: {fileID: 0}
    - target: {fileID: 4387301254824980, guid: d6b69d4e3b4ac48e1bf677318fce1444, type: 3}
      propertyPath: m_LocalRotation.x
      value: -0
      objectReference: {fileID: 0}
    - target: {fileID: 4387301254824980, guid: d6b69d4e3b4ac48e1bf677318fce1444, type: 3}
      propertyPath: m_LocalRotation.y
      value: -0
      objectReference: {fileID: 0}
    - target: {fileID: 4387301254824980, guid: d6b69d4e3b4ac48e1bf677318fce1444, type: 3}
      propertyPath: m_LocalRotation.z
      value: -0
      objectReference: {fileID: 0}
    - target: {fileID: 4387301254824980, guid: d6b69d4e3b4ac48e1bf677318fce1444, type: 3}
      propertyPath: m_LocalEulerAnglesHint.x
      value: 0
      objectReference: {fileID: 0}
    - target: {fileID: 4387301254824980, guid: d6b69d4e3b4ac48e1bf677318fce1444, type: 3}
      propertyPath: m_LocalEulerAnglesHint.y
      value: 0
      objectReference: {fileID: 0}
    - target: {fileID: 4387301254824980, guid: d6b69d4e3b4ac48e1bf677318fce1444, type: 3}
      propertyPath: m_LocalEulerAnglesHint.z
      value: 0
      objectReference: {fileID: 0}
    - target: {fileID: 61477104421331976, guid: d6b69d4e3b4ac48e1bf677318fce1444,
        type: 3}
      propertyPath: m_Size.y
      value: 0.75
      objectReference: {fileID: 0}
    m_RemovedComponents: []
  m_SourcePrefab: {fileID: 100100000, guid: d6b69d4e3b4ac48e1bf677318fce1444, type: 3}
--- !u!1001 &7578771411764529792
PrefabInstance:
  m_ObjectHideFlags: 0
  serializedVersion: 2
  m_Modification:
    m_TransformParent: {fileID: 6737509753206271649}
    m_Modifications:
    - target: {fileID: 1049093956366660, guid: 8670cf86c24234bf391820e408de6d24, type: 3}
      propertyPath: m_Name
      value: floor (5)
      objectReference: {fileID: 0}
    - target: {fileID: 1049093956366660, guid: 8670cf86c24234bf391820e408de6d24, type: 3}
      propertyPath: m_StaticEditorFlags
      value: 4294967295
      objectReference: {fileID: 0}
    - target: {fileID: 4387301254824980, guid: 8670cf86c24234bf391820e408de6d24, type: 3}
      propertyPath: m_RootOrder
      value: 20
      objectReference: {fileID: 0}
    - target: {fileID: 4387301254824980, guid: 8670cf86c24234bf391820e408de6d24, type: 3}
      propertyPath: m_LocalScale.x
      value: 1
      objectReference: {fileID: 0}
    - target: {fileID: 4387301254824980, guid: 8670cf86c24234bf391820e408de6d24, type: 3}
      propertyPath: m_LocalScale.y
      value: 1
      objectReference: {fileID: 0}
    - target: {fileID: 4387301254824980, guid: 8670cf86c24234bf391820e408de6d24, type: 3}
      propertyPath: m_LocalPosition.x
      value: 5.5
      objectReference: {fileID: 0}
    - target: {fileID: 4387301254824980, guid: 8670cf86c24234bf391820e408de6d24, type: 3}
      propertyPath: m_LocalPosition.y
      value: 7.75
      objectReference: {fileID: 0}
    - target: {fileID: 4387301254824980, guid: 8670cf86c24234bf391820e408de6d24, type: 3}
      propertyPath: m_LocalPosition.z
      value: 0
      objectReference: {fileID: 0}
    - target: {fileID: 4387301254824980, guid: 8670cf86c24234bf391820e408de6d24, type: 3}
      propertyPath: m_LocalRotation.w
      value: 1
      objectReference: {fileID: 0}
    - target: {fileID: 4387301254824980, guid: 8670cf86c24234bf391820e408de6d24, type: 3}
      propertyPath: m_LocalRotation.x
      value: -0
      objectReference: {fileID: 0}
    - target: {fileID: 4387301254824980, guid: 8670cf86c24234bf391820e408de6d24, type: 3}
      propertyPath: m_LocalRotation.y
      value: -0
      objectReference: {fileID: 0}
    - target: {fileID: 4387301254824980, guid: 8670cf86c24234bf391820e408de6d24, type: 3}
      propertyPath: m_LocalRotation.z
      value: -0
      objectReference: {fileID: 0}
    - target: {fileID: 4387301254824980, guid: 8670cf86c24234bf391820e408de6d24, type: 3}
      propertyPath: m_LocalEulerAnglesHint.x
      value: 0
      objectReference: {fileID: 0}
    - target: {fileID: 4387301254824980, guid: 8670cf86c24234bf391820e408de6d24, type: 3}
      propertyPath: m_LocalEulerAnglesHint.y
      value: 0
      objectReference: {fileID: 0}
    - target: {fileID: 4387301254824980, guid: 8670cf86c24234bf391820e408de6d24, type: 3}
      propertyPath: m_LocalEulerAnglesHint.z
      value: 0
      objectReference: {fileID: 0}
    - target: {fileID: 61477104421331976, guid: 8670cf86c24234bf391820e408de6d24,
        type: 3}
      propertyPath: m_Size.x
      value: 0.75
      objectReference: {fileID: 0}
    - target: {fileID: 61477104421331976, guid: 8670cf86c24234bf391820e408de6d24,
        type: 3}
      propertyPath: m_Size.y
      value: 0.75
      objectReference: {fileID: 0}
    - target: {fileID: 61477104421331976, guid: 8670cf86c24234bf391820e408de6d24,
        type: 3}
      propertyPath: m_AutoTiling
      value: 1
      objectReference: {fileID: 0}
    - target: {fileID: 61477104421331976, guid: 8670cf86c24234bf391820e408de6d24,
        type: 3}
      propertyPath: m_SpriteTilingProperty.drawMode
      value: 2
      objectReference: {fileID: 0}
    - target: {fileID: 61477104421331976, guid: 8670cf86c24234bf391820e408de6d24,
        type: 3}
      propertyPath: m_SpriteTilingProperty.newSize.x
      value: 1
      objectReference: {fileID: 0}
    - target: {fileID: 61477104421331976, guid: 8670cf86c24234bf391820e408de6d24,
        type: 3}
      propertyPath: m_SpriteTilingProperty.newSize.y
      value: 1
      objectReference: {fileID: 0}
    - target: {fileID: 212926256537594904, guid: 8670cf86c24234bf391820e408de6d24,
        type: 3}
      propertyPath: m_Size.x
      value: 1
      objectReference: {fileID: 0}
    - target: {fileID: 212926256537594904, guid: 8670cf86c24234bf391820e408de6d24,
        type: 3}
      propertyPath: m_Size.y
      value: 1
      objectReference: {fileID: 0}
    - target: {fileID: 212926256537594904, guid: 8670cf86c24234bf391820e408de6d24,
        type: 3}
      propertyPath: m_DrawMode
      value: 2
      objectReference: {fileID: 0}
    - target: {fileID: 1626150754273476976, guid: 8670cf86c24234bf391820e408de6d24,
        type: 3}
      propertyPath: m_Center.x
      value: 0
      objectReference: {fileID: 0}
    - target: {fileID: 1626150754273476976, guid: 8670cf86c24234bf391820e408de6d24,
        type: 3}
      propertyPath: m_Center.y
      value: 0
      objectReference: {fileID: 0}
    - target: {fileID: 1626150754273476976, guid: 8670cf86c24234bf391820e408de6d24,
        type: 3}
      propertyPath: m_Extents.x
      value: 0.5
      objectReference: {fileID: 0}
    - target: {fileID: 1626150754273476976, guid: 8670cf86c24234bf391820e408de6d24,
        type: 3}
      propertyPath: m_Extents.y
      value: 0.5
      objectReference: {fileID: 0}
    - target: {fileID: 1626150754273476976, guid: 8670cf86c24234bf391820e408de6d24,
        type: 3}
      propertyPath: m_Extents.z
      value: 0.15
      objectReference: {fileID: 0}
    m_RemovedComponents: []
  m_SourcePrefab: {fileID: 100100000, guid: 8670cf86c24234bf391820e408de6d24, type: 3}
--- !u!1001 &8115649220219270237
PrefabInstance:
  m_ObjectHideFlags: 0
  serializedVersion: 2
  m_Modification:
    m_TransformParent: {fileID: 6737509753206271649}
    m_Modifications:
    - target: {fileID: 1531869447189520822, guid: 97fd5e00c27064fe3a9891a8484d9074,
        type: 3}
      propertyPath: m_Name
      value: bg wall (5)
      objectReference: {fileID: 0}
    - target: {fileID: 3784639491395550152, guid: 97fd5e00c27064fe3a9891a8484d9074,
        type: 3}
      propertyPath: m_RootOrder
      value: 7
      objectReference: {fileID: 0}
    - target: {fileID: 3784639491395550152, guid: 97fd5e00c27064fe3a9891a8484d9074,
        type: 3}
      propertyPath: m_LocalPosition.x
      value: 6
      objectReference: {fileID: 0}
    - target: {fileID: 3784639491395550152, guid: 97fd5e00c27064fe3a9891a8484d9074,
        type: 3}
      propertyPath: m_LocalPosition.y
      value: 5.5
      objectReference: {fileID: 0}
    - target: {fileID: 3784639491395550152, guid: 97fd5e00c27064fe3a9891a8484d9074,
        type: 3}
      propertyPath: m_LocalPosition.z
      value: 0
      objectReference: {fileID: 0}
    - target: {fileID: 3784639491395550152, guid: 97fd5e00c27064fe3a9891a8484d9074,
        type: 3}
      propertyPath: m_LocalRotation.w
      value: 0.92387956
      objectReference: {fileID: 0}
    - target: {fileID: 3784639491395550152, guid: 97fd5e00c27064fe3a9891a8484d9074,
        type: 3}
      propertyPath: m_LocalRotation.x
      value: 0
      objectReference: {fileID: 0}
    - target: {fileID: 3784639491395550152, guid: 97fd5e00c27064fe3a9891a8484d9074,
        type: 3}
      propertyPath: m_LocalRotation.y
      value: 0
      objectReference: {fileID: 0}
    - target: {fileID: 3784639491395550152, guid: 97fd5e00c27064fe3a9891a8484d9074,
        type: 3}
      propertyPath: m_LocalRotation.z
      value: -0.38268343
      objectReference: {fileID: 0}
    - target: {fileID: 3784639491395550152, guid: 97fd5e00c27064fe3a9891a8484d9074,
        type: 3}
      propertyPath: m_LocalEulerAnglesHint.x
      value: 0
      objectReference: {fileID: 0}
    - target: {fileID: 3784639491395550152, guid: 97fd5e00c27064fe3a9891a8484d9074,
        type: 3}
      propertyPath: m_LocalEulerAnglesHint.y
      value: 0
      objectReference: {fileID: 0}
    - target: {fileID: 3784639491395550152, guid: 97fd5e00c27064fe3a9891a8484d9074,
        type: 3}
      propertyPath: m_LocalEulerAnglesHint.z
      value: -45
      objectReference: {fileID: 0}
    - target: {fileID: 4654359712525082122, guid: 97fd5e00c27064fe3a9891a8484d9074,
        type: 3}
      propertyPath: m_Size.y
      value: 2
      objectReference: {fileID: 0}
    - target: {fileID: 4654359712525082122, guid: 97fd5e00c27064fe3a9891a8484d9074,
        type: 3}
      propertyPath: m_SortingOrder
      value: -1
      objectReference: {fileID: 0}
    m_RemovedComponents: []
  m_SourcePrefab: {fileID: 100100000, guid: 97fd5e00c27064fe3a9891a8484d9074, type: 3}
--- !u!1001 &8160806488784122425
PrefabInstance:
  m_ObjectHideFlags: 0
  serializedVersion: 2
  m_Modification:
    m_TransformParent: {fileID: 6737509753206271649}
    m_Modifications:
    - target: {fileID: 1268720782321642, guid: 08d7301f0f44a4f6592189c90bdea4cc, type: 3}
      propertyPath: m_Name
      value: liftbot
      objectReference: {fileID: 0}
    - target: {fileID: 4739618571392748, guid: 08d7301f0f44a4f6592189c90bdea4cc, type: 3}
      propertyPath: m_RootOrder
      value: 12
      objectReference: {fileID: 0}
    - target: {fileID: 4739618571392748, guid: 08d7301f0f44a4f6592189c90bdea4cc, type: 3}
      propertyPath: m_LocalPosition.x
      value: 3.7
      objectReference: {fileID: 0}
    - target: {fileID: 4739618571392748, guid: 08d7301f0f44a4f6592189c90bdea4cc, type: 3}
      propertyPath: m_LocalPosition.y
      value: 1.1742917
      objectReference: {fileID: 0}
    - target: {fileID: 4739618571392748, guid: 08d7301f0f44a4f6592189c90bdea4cc, type: 3}
      propertyPath: m_LocalPosition.z
      value: 0
      objectReference: {fileID: 0}
    - target: {fileID: 4739618571392748, guid: 08d7301f0f44a4f6592189c90bdea4cc, type: 3}
      propertyPath: m_LocalRotation.w
      value: 1
      objectReference: {fileID: 0}
    - target: {fileID: 4739618571392748, guid: 08d7301f0f44a4f6592189c90bdea4cc, type: 3}
      propertyPath: m_LocalRotation.x
      value: -0
      objectReference: {fileID: 0}
    - target: {fileID: 4739618571392748, guid: 08d7301f0f44a4f6592189c90bdea4cc, type: 3}
      propertyPath: m_LocalRotation.y
      value: -0
      objectReference: {fileID: 0}
    - target: {fileID: 4739618571392748, guid: 08d7301f0f44a4f6592189c90bdea4cc, type: 3}
      propertyPath: m_LocalRotation.z
      value: -0
      objectReference: {fileID: 0}
    - target: {fileID: 4739618571392748, guid: 08d7301f0f44a4f6592189c90bdea4cc, type: 3}
      propertyPath: m_LocalEulerAnglesHint.x
      value: 0
      objectReference: {fileID: 0}
    - target: {fileID: 4739618571392748, guid: 08d7301f0f44a4f6592189c90bdea4cc, type: 3}
      propertyPath: m_LocalEulerAnglesHint.y
      value: 0
      objectReference: {fileID: 0}
    - target: {fileID: 4739618571392748, guid: 08d7301f0f44a4f6592189c90bdea4cc, type: 3}
      propertyPath: m_LocalEulerAnglesHint.z
      value: 0
      objectReference: {fileID: 0}
    - target: {fileID: 3047422316451110554, guid: 08d7301f0f44a4f6592189c90bdea4cc,
        type: 3}
      propertyPath: path.Array.data[1].y
      value: 7
      objectReference: {fileID: 0}
    m_RemovedComponents: []
  m_SourcePrefab: {fileID: 100100000, guid: 08d7301f0f44a4f6592189c90bdea4cc, type: 3}
--- !u!1001 &8813905352064603254
PrefabInstance:
  m_ObjectHideFlags: 0
  serializedVersion: 2
  m_Modification:
    m_TransformParent: {fileID: 6737509753206271649}
    m_Modifications:
    - target: {fileID: 3541514896135360187, guid: 6fcf9c25b752e4be3b3fe0ae19f84730,
        type: 3}
      propertyPath: m_Name
      value: red light
      objectReference: {fileID: 0}
    - target: {fileID: 3541514896135360189, guid: 6fcf9c25b752e4be3b3fe0ae19f84730,
        type: 3}
      propertyPath: m_RootOrder
      value: 10
      objectReference: {fileID: 0}
    - target: {fileID: 3541514896135360189, guid: 6fcf9c25b752e4be3b3fe0ae19f84730,
        type: 3}
      propertyPath: m_LocalPosition.x
      value: 4.25
      objectReference: {fileID: 0}
    - target: {fileID: 3541514896135360189, guid: 6fcf9c25b752e4be3b3fe0ae19f84730,
        type: 3}
      propertyPath: m_LocalPosition.y
      value: 9
      objectReference: {fileID: 0}
    - target: {fileID: 3541514896135360189, guid: 6fcf9c25b752e4be3b3fe0ae19f84730,
        type: 3}
      propertyPath: m_LocalPosition.z
      value: 0
      objectReference: {fileID: 0}
    - target: {fileID: 3541514896135360189, guid: 6fcf9c25b752e4be3b3fe0ae19f84730,
        type: 3}
      propertyPath: m_LocalRotation.w
      value: 0
      objectReference: {fileID: 0}
    - target: {fileID: 3541514896135360189, guid: 6fcf9c25b752e4be3b3fe0ae19f84730,
        type: 3}
      propertyPath: m_LocalRotation.x
      value: -0
      objectReference: {fileID: 0}
    - target: {fileID: 3541514896135360189, guid: 6fcf9c25b752e4be3b3fe0ae19f84730,
        type: 3}
      propertyPath: m_LocalRotation.y
      value: -0
      objectReference: {fileID: 0}
    - target: {fileID: 3541514896135360189, guid: 6fcf9c25b752e4be3b3fe0ae19f84730,
        type: 3}
      propertyPath: m_LocalRotation.z
      value: 1
      objectReference: {fileID: 0}
    - target: {fileID: 3541514896135360189, guid: 6fcf9c25b752e4be3b3fe0ae19f84730,
        type: 3}
      propertyPath: m_LocalEulerAnglesHint.x
      value: 0
      objectReference: {fileID: 0}
    - target: {fileID: 3541514896135360189, guid: 6fcf9c25b752e4be3b3fe0ae19f84730,
        type: 3}
      propertyPath: m_LocalEulerAnglesHint.y
      value: 0
      objectReference: {fileID: 0}
    - target: {fileID: 3541514896135360189, guid: 6fcf9c25b752e4be3b3fe0ae19f84730,
        type: 3}
      propertyPath: m_LocalEulerAnglesHint.z
      value: 180
      objectReference: {fileID: 0}
    m_RemovedComponents: []
  m_SourcePrefab: {fileID: 100100000, guid: 6fcf9c25b752e4be3b3fe0ae19f84730, type: 3}
--- !u!1001 &8978834912807705149
PrefabInstance:
  m_ObjectHideFlags: 0
  serializedVersion: 2
  m_Modification:
    m_TransformParent: {fileID: 6737509753206271649}
    m_Modifications:
    - target: {fileID: 1049093956366660, guid: d6b69d4e3b4ac48e1bf677318fce1444, type: 3}
      propertyPath: m_Name
      value: floor-thin (5)
      objectReference: {fileID: 0}
    - target: {fileID: 4387301254824980, guid: d6b69d4e3b4ac48e1bf677318fce1444, type: 3}
      propertyPath: m_RootOrder
      value: 18
      objectReference: {fileID: 0}
    - target: {fileID: 4387301254824980, guid: d6b69d4e3b4ac48e1bf677318fce1444, type: 3}
      propertyPath: m_LocalPosition.x
      value: 5.5
      objectReference: {fileID: 0}
    - target: {fileID: 4387301254824980, guid: d6b69d4e3b4ac48e1bf677318fce1444, type: 3}
      propertyPath: m_LocalPosition.y
      value: 4.25
      objectReference: {fileID: 0}
    - target: {fileID: 4387301254824980, guid: d6b69d4e3b4ac48e1bf677318fce1444, type: 3}
      propertyPath: m_LocalPosition.z
      value: 0
      objectReference: {fileID: 0}
    - target: {fileID: 4387301254824980, guid: d6b69d4e3b4ac48e1bf677318fce1444, type: 3}
      propertyPath: m_LocalRotation.w
      value: 1
      objectReference: {fileID: 0}
    - target: {fileID: 4387301254824980, guid: d6b69d4e3b4ac48e1bf677318fce1444, type: 3}
      propertyPath: m_LocalRotation.x
      value: -0
      objectReference: {fileID: 0}
    - target: {fileID: 4387301254824980, guid: d6b69d4e3b4ac48e1bf677318fce1444, type: 3}
      propertyPath: m_LocalRotation.y
      value: -0
      objectReference: {fileID: 0}
    - target: {fileID: 4387301254824980, guid: d6b69d4e3b4ac48e1bf677318fce1444, type: 3}
      propertyPath: m_LocalRotation.z
      value: -0
      objectReference: {fileID: 0}
    - target: {fileID: 4387301254824980, guid: d6b69d4e3b4ac48e1bf677318fce1444, type: 3}
      propertyPath: m_LocalEulerAnglesHint.x
      value: 0
      objectReference: {fileID: 0}
    - target: {fileID: 4387301254824980, guid: d6b69d4e3b4ac48e1bf677318fce1444, type: 3}
      propertyPath: m_LocalEulerAnglesHint.y
      value: 0
      objectReference: {fileID: 0}
    - target: {fileID: 4387301254824980, guid: d6b69d4e3b4ac48e1bf677318fce1444, type: 3}
      propertyPath: m_LocalEulerAnglesHint.z
      value: 0
      objectReference: {fileID: 0}
    - target: {fileID: 61477104421331976, guid: d6b69d4e3b4ac48e1bf677318fce1444,
        type: 3}
      propertyPath: m_Size.y
      value: 0.75
      objectReference: {fileID: 0}
    m_RemovedComponents: []
  m_SourcePrefab: {fileID: 100100000, guid: d6b69d4e3b4ac48e1bf677318fce1444, type: 3}
--- !u!1001 &9029866843188619250
PrefabInstance:
  m_ObjectHideFlags: 0
  serializedVersion: 2
  m_Modification:
    m_TransformParent: {fileID: 6737509753206271649}
    m_Modifications:
    - target: {fileID: 1049093956366660, guid: 8670cf86c24234bf391820e408de6d24, type: 3}
      propertyPath: m_Name
      value: floor (2)
      objectReference: {fileID: 0}
    - target: {fileID: 1049093956366660, guid: 8670cf86c24234bf391820e408de6d24, type: 3}
      propertyPath: m_StaticEditorFlags
      value: 4294967295
      objectReference: {fileID: 0}
    - target: {fileID: 4387301254824980, guid: 8670cf86c24234bf391820e408de6d24, type: 3}
      propertyPath: m_RootOrder
      value: 1
      objectReference: {fileID: 0}
    - target: {fileID: 4387301254824980, guid: 8670cf86c24234bf391820e408de6d24, type: 3}
      propertyPath: m_LocalScale.x
      value: 1
      objectReference: {fileID: 0}
    - target: {fileID: 4387301254824980, guid: 8670cf86c24234bf391820e408de6d24, type: 3}
      propertyPath: m_LocalScale.y
      value: 1
      objectReference: {fileID: 0}
    - target: {fileID: 4387301254824980, guid: 8670cf86c24234bf391820e408de6d24, type: 3}
      propertyPath: m_LocalPosition.x
      value: 8
      objectReference: {fileID: 0}
    - target: {fileID: 4387301254824980, guid: 8670cf86c24234bf391820e408de6d24, type: 3}
      propertyPath: m_LocalPosition.y
      value: 4.5
      objectReference: {fileID: 0}
    - target: {fileID: 4387301254824980, guid: 8670cf86c24234bf391820e408de6d24, type: 3}
      propertyPath: m_LocalPosition.z
      value: 0
      objectReference: {fileID: 0}
    - target: {fileID: 4387301254824980, guid: 8670cf86c24234bf391820e408de6d24, type: 3}
      propertyPath: m_LocalRotation.w
      value: 1
      objectReference: {fileID: 0}
    - target: {fileID: 4387301254824980, guid: 8670cf86c24234bf391820e408de6d24, type: 3}
      propertyPath: m_LocalRotation.x
      value: -0
      objectReference: {fileID: 0}
    - target: {fileID: 4387301254824980, guid: 8670cf86c24234bf391820e408de6d24, type: 3}
      propertyPath: m_LocalRotation.y
      value: -0
      objectReference: {fileID: 0}
    - target: {fileID: 4387301254824980, guid: 8670cf86c24234bf391820e408de6d24, type: 3}
      propertyPath: m_LocalRotation.z
      value: -0
      objectReference: {fileID: 0}
    - target: {fileID: 4387301254824980, guid: 8670cf86c24234bf391820e408de6d24, type: 3}
      propertyPath: m_LocalEulerAnglesHint.x
      value: 0
      objectReference: {fileID: 0}
    - target: {fileID: 4387301254824980, guid: 8670cf86c24234bf391820e408de6d24, type: 3}
      propertyPath: m_LocalEulerAnglesHint.y
      value: 0
      objectReference: {fileID: 0}
    - target: {fileID: 4387301254824980, guid: 8670cf86c24234bf391820e408de6d24, type: 3}
      propertyPath: m_LocalEulerAnglesHint.z
      value: 0
      objectReference: {fileID: 0}
    - target: {fileID: 61477104421331976, guid: 8670cf86c24234bf391820e408de6d24,
        type: 3}
      propertyPath: m_Size.x
      value: 0.75
      objectReference: {fileID: 0}
    - target: {fileID: 61477104421331976, guid: 8670cf86c24234bf391820e408de6d24,
        type: 3}
      propertyPath: m_Size.y
      value: 0.75
      objectReference: {fileID: 0}
    - target: {fileID: 61477104421331976, guid: 8670cf86c24234bf391820e408de6d24,
        type: 3}
      propertyPath: m_AutoTiling
      value: 1
      objectReference: {fileID: 0}
    - target: {fileID: 61477104421331976, guid: 8670cf86c24234bf391820e408de6d24,
        type: 3}
      propertyPath: m_SpriteTilingProperty.drawMode
      value: 2
      objectReference: {fileID: 0}
    - target: {fileID: 61477104421331976, guid: 8670cf86c24234bf391820e408de6d24,
        type: 3}
      propertyPath: m_SpriteTilingProperty.newSize.x
      value: 4
      objectReference: {fileID: 0}
    - target: {fileID: 61477104421331976, guid: 8670cf86c24234bf391820e408de6d24,
        type: 3}
      propertyPath: m_SpriteTilingProperty.newSize.y
      value: 1
      objectReference: {fileID: 0}
    - target: {fileID: 212926256537594904, guid: 8670cf86c24234bf391820e408de6d24,
        type: 3}
      propertyPath: m_Size.x
      value: 4
      objectReference: {fileID: 0}
    - target: {fileID: 212926256537594904, guid: 8670cf86c24234bf391820e408de6d24,
        type: 3}
      propertyPath: m_Size.y
      value: 1
      objectReference: {fileID: 0}
    - target: {fileID: 212926256537594904, guid: 8670cf86c24234bf391820e408de6d24,
        type: 3}
      propertyPath: m_DrawMode
      value: 2
      objectReference: {fileID: 0}
    - target: {fileID: 1626150754273476976, guid: 8670cf86c24234bf391820e408de6d24,
        type: 3}
      propertyPath: m_Center.x
      value: 0
      objectReference: {fileID: 0}
    - target: {fileID: 1626150754273476976, guid: 8670cf86c24234bf391820e408de6d24,
        type: 3}
      propertyPath: m_Center.y
      value: 0
      objectReference: {fileID: 0}
    - target: {fileID: 1626150754273476976, guid: 8670cf86c24234bf391820e408de6d24,
        type: 3}
      propertyPath: m_Extents.x
      value: 2
      objectReference: {fileID: 0}
    - target: {fileID: 1626150754273476976, guid: 8670cf86c24234bf391820e408de6d24,
        type: 3}
      propertyPath: m_Extents.y
      value: 0.5
      objectReference: {fileID: 0}
    - target: {fileID: 1626150754273476976, guid: 8670cf86c24234bf391820e408de6d24,
        type: 3}
      propertyPath: m_Extents.z
      value: 0.15
      objectReference: {fileID: 0}
    m_RemovedComponents: []
  m_SourcePrefab: {fileID: 100100000, guid: 8670cf86c24234bf391820e408de6d24, type: 3}
