%YAML 1.1
%TAG !u! tag:unity3d.com,2011:
--- !u!114 &11400000
MonoBehaviour:
  m_ObjectHideFlags: 0
  m_CorrespondingSourceObject: {fileID: 0}
  m_PrefabInstance: {fileID: 0}
  m_PrefabAsset: {fileID: 0}
  m_GameObject: {fileID: 0}
  m_Enabled: 1
  m_EditorHideFlags: 0
  m_Script: {fileID: 11500000, guid: 5bf7c34a0dc4e6348bea04faa70406ee, type: 3}
  m_Name: Chrono
  m_EditorClassIdentifier: 
  m_Labels:
  - m_Name: idle
    m_Hash: -601574123
    m_CategoryList:
    - m_Name: 0
      m_Hash: -186917087
      m_Sprite: {fileID: -3087928711210884387, guid: 0de00aa22faa44e71bfc158a5ed5104f,
        type: 3}
  - m_Name: walk
    m_Hash: -1919845803
    m_CategoryList:
    - m_Name: 0
      m_Hash: -186917087
      m_Sprite: {fileID: -6330212380425479180, guid: 0de00aa22faa44e71bfc158a5ed5104f,
        type: 3}
    - m_Name: 1
      m_Hash: -2082672713
      m_Sprite: {fileID: -3087928711210884387, guid: 0de00aa22faa44e71bfc158a5ed5104f,
        type: 3}
    - m_Name: 2
      m_Hash: 450215437
      m_Sprite: {fileID: -4141618006047545035, guid: 0de00aa22faa44e71bfc158a5ed5104f,
        type: 3}
  - m_Name: laugh
    m_Hash: 580207494
    m_CategoryList:
    - m_Name: 0
      m_Hash: -186917087
      m_Sprite: {fileID: 4534107684191493540, guid: 0de00aa22faa44e71bfc158a5ed5104f,
        type: 3}
    - m_Name: 1
      m_Hash: -2082672713
      m_Sprite: {fileID: -6733484537083420067, guid: 0de00aa22faa44e71bfc158a5ed5104f,
        type: 3}
  - m_Name: dead
    m_Hash: -316323548
    m_CategoryList:
    - m_Name: 0
      m_Hash: -186917087
      m_Sprite: {fileID: 6576371778516554368, guid: 0de00aa22faa44e71bfc158a5ed5104f,
        type: 3}
