%YAML 1.1
%TAG !u! tag:unity3d.com,2011:
--- !u!114 &11400000
MonoBehaviour:
  m_ObjectHideFlags: 0
  m_CorrespondingSourceObject: {fileID: 0}
  m_PrefabInstance: {fileID: 0}
  m_PrefabAsset: {fileID: 0}
  m_GameObject: {fileID: 0}
  m_Enabled: 1
  m_EditorHideFlags: 0
  m_Script: {fileID: 11500000, guid: 6fde6dac9c4c04464ba6dd50a818ba2d, type: 3}
  m_Name: Laser Big
  m_EditorClassIdentifier: 
  Icon: {fileID: -7947611921849211345, guid: 64314a0420c93471b9990c7b9f080a39, type: 3}
  AnimatedIcon: {fileID: 0}
  Cursor: {fileID: -1299243491995080028, guid: 64314a0420c93471b9990c7b9f080a39, type: 3}
  Prefab: {fileID: 0}
  MountType: 1
  PickupPrefab: {fileID: 8315202051567810713, guid: cc0e57054e4434d6dbc3abff4f3ca019,
    type: 3}
  FireArmAlwaysActive: 1
  FireArmSprite: {fileID: -3537209902276502839, guid: 64314a0420c93471b9990c7b9f080a39,
    type: 3}
  FireArmTimeout: 0.25
  weaponCategory: 1
  Color0: {r: 1, g: 1, b: 1, a: 1}
  Color1: {r: 0.99264705, g: 0.35336626, b: 0.26275954, a: 1}
  StartSound: {fileID: 8300000, guid: fe98f5443a98f4378b432126ed25b9f7, type: 3}
  ProjectileCount: 1
  ShotSpread: 10
  HoldFullAuto: 0
  ShotInterval: 1
  BurstEnabled: 1
  BurstShotCount: 1
  BurstCooldown: 0.5
  data:
    ProjectilePrefab: {fileID: 0}
    ProjectileColorIndexed: {r: 0, g: 0, b: 0, a: 0}
    Speed: 0
    Timeout: 0
    UseGravity: 0
    AlignRotationToVelocity: 0
    ContactDamageDefinition: {fileID: 0}
    Hits: 0
    ReflectCount: 0
    ReflectVelocityDecay: 0
    SoundReflect: {fileID: 0}
    StickyEnabled: 0
    AttachDuration: 0
    ExplodeOnLastHit: 0
    ExplodeOnContact: 0
    ExplosionDamage: {fileID: 0}
    BoomRadius: 0
    explosion: {fileID: 0}
  HasChargeVariant: 0
  ChargeVariant: {fileID: 0}
  ChargeEffect: {fileID: 0}
  soundCharge: {fileID: 0}
  soundChargeLoop: {fileID: 0}
  LaserDamageDefinition: {fileID: 11400000, guid: 06e6ddc204b29466cbcde418462b742f,
    type: 2}
  LaserBeamPrefab: {fileID: 490164216616943966, guid: 8f301e9e52e0b4535a8714bd45f5291c,
    type: 3}
  BeamDistance: 20
  BeamRadius: 0.2
  HitPrefab: {fileID: 1227316525270448, guid: 4e79730460d1747d695a5ce28f72bbf1, type: 3}
  SoundActive: {fileID: 8300000, guid: cbffe7b46517146f38091b456340f652, type: 3}
  BeamLightSize: 1.85
  BeamColorIndexed: {r: 1, g: 0.581761, b: 0.3726415, a: 1}
  BeamHits: 3
  EnableSlowOnHit: 1
  SlowOnHitDuration: 0.5
