%YAML 1.1
%TAG !u! tag:unity3d.com,2011:
--- !u!1 &6124406710527786340
GameObject:
  m_ObjectHideFlags: 0
  m_CorrespondingSourceObject: {fileID: 0}
  m_PrefabInstance: {fileID: 0}
  m_PrefabAsset: {fileID: 0}
  serializedVersion: 6
  m_Component:
  - component: {fileID: 5513901442205154956}
  - component: {fileID: 8351330396903230586}
  m_Layer: 16
  m_Name: New Sprite
  m_TagString: Untagged
  m_Icon: {fileID: 0}
  m_NavMeshLayer: 0
  m_StaticEditorFlags: 0
  m_IsActive: 1
--- !u!4 &5513901442205154956
Transform:
  m_ObjectHideFlags: 0
  m_CorrespondingSourceObject: {fileID: 0}
  m_PrefabInstance: {fileID: 0}
  m_PrefabAsset: {fileID: 0}
  m_GameObject: {fileID: 6124406710527786340}
  m_LocalRotation: {x: 0, y: 0, z: 0.38268343, w: 0.92387956}
  m_LocalPosition: {x: -0.05, y: -0.03, z: 0}
  m_LocalScale: {x: 1, y: 1, z: 1}
  m_Children: []
  m_Father: {fileID: 4321937313166182962}
  m_RootOrder: 0
  m_LocalEulerAnglesHint: {x: 0, y: 0, z: 45}
--- !u!212 &8351330396903230586
SpriteRenderer:
  m_ObjectHideFlags: 0
  m_CorrespondingSourceObject: {fileID: 0}
  m_PrefabInstance: {fileID: 0}
  m_PrefabAsset: {fileID: 0}
  m_GameObject: {fileID: 6124406710527786340}
  m_Enabled: 1
  m_CastShadows: 0
  m_ReceiveShadows: 0
  m_DynamicOccludee: 1
  m_MotionVectors: 1
  m_LightProbeUsage: 1
  m_ReflectionProbeUsage: 1
  m_RayTracingMode: 0
  m_RenderingLayerMask: 1
  m_RendererPriority: 0
  m_Materials:
  - {fileID: 2100000, guid: 9699952054db9432e9da4849d76b227f, type: 2}
  m_StaticBatchInfo:
    firstSubMesh: 0
    subMeshCount: 0
  m_StaticBatchRoot: {fileID: 0}
  m_ProbeAnchor: {fileID: 0}
  m_LightProbeVolumeOverride: {fileID: 0}
  m_ScaleInLightmap: 1
  m_ReceiveGI: 1
  m_PreserveUVs: 0
  m_IgnoreNormalsForChartDetection: 0
  m_ImportantGI: 0
  m_StitchLightmapSeams: 1
  m_SelectedEditorRenderState: 0
  m_MinimumChartSize: 4
  m_AutoUVMaxDistance: 0.5
  m_AutoUVMaxAngle: 89
  m_LightmapParameters: {fileID: 0}
  m_SortingLayerID: 0
  m_SortingLayer: 0
  m_SortingOrder: 0
  m_Sprite: {fileID: 6463919066076861173, guid: 64314a0420c93471b9990c7b9f080a39,
    type: 3}
  m_Color: {r: 1, g: 1, b: 1, a: 1}
  m_FlipX: 0
  m_FlipY: 0
  m_DrawMode: 0
  m_Size: {x: 0.25, y: 0.25}
  m_AdaptiveModeThreshold: 0.5
  m_SpriteTileMode: 0
  m_WasSpriteAssigned: 1
  m_MaskInteraction: 0
  m_SpriteSortPoint: 0
--- !u!1001 &932717592601123429
PrefabInstance:
  m_ObjectHideFlags: 0
  serializedVersion: 2
  m_Modification:
    m_TransformParent: {fileID: 0}
    m_Modifications:
    - target: {fileID: 3966323970981597261, guid: ad06851623512478ba305969ed492e26,
        type: 3}
      propertyPath: m_Name
      value: pickup graphook
      objectReference: {fileID: 0}
    - target: {fileID: 3966323970981597265, guid: ad06851623512478ba305969ed492e26,
        type: 3}
      propertyPath: m_Mass
      value: 0.034179688
      objectReference: {fileID: 0}
    - target: {fileID: 3966323970981597267, guid: ad06851623512478ba305969ed492e26,
        type: 3}
      propertyPath: ability
      value: 
      objectReference: {fileID: 11400000, guid: 39bf040ed32b341949b26dc763e52b74,
        type: 2}
    - target: {fileID: 3966323970981597267, guid: ad06851623512478ba305969ed492e26,
        type: 3}
      propertyPath: abilityDefinition
      value: 
      objectReference: {fileID: 11400000, guid: 39bf040ed32b341949b26dc763e52b74,
        type: 2}
    - target: {fileID: 3966323970981597270, guid: ad06851623512478ba305969ed492e26,
        type: 3}
      propertyPath: m_Sprite
      value: 
      objectReference: {fileID: 6463919066076861173, guid: 64314a0420c93471b9990c7b9f080a39,
        type: 3}
    - target: {fileID: 3966323970981597270, guid: ad06851623512478ba305969ed492e26,
        type: 3}
      propertyPath: m_Enabled
      value: 0
      objectReference: {fileID: 0}
    - target: {fileID: 3966323970981597271, guid: ad06851623512478ba305969ed492e26,
        type: 3}
      propertyPath: m_RootOrder
      value: 0
      objectReference: {fileID: 0}
    - target: {fileID: 3966323970981597271, guid: ad06851623512478ba305969ed492e26,
        type: 3}
      propertyPath: m_LocalPosition.x
      value: 0
      objectReference: {fileID: 0}
    - target: {fileID: 3966323970981597271, guid: ad06851623512478ba305969ed492e26,
        type: 3}
      propertyPath: m_LocalPosition.y
      value: 0
      objectReference: {fileID: 0}
    - target: {fileID: 3966323970981597271, guid: ad06851623512478ba305969ed492e26,
        type: 3}
      propertyPath: m_LocalPosition.z
      value: 0
      objectReference: {fileID: 0}
    - target: {fileID: 3966323970981597271, guid: ad06851623512478ba305969ed492e26,
        type: 3}
      propertyPath: m_LocalRotation.w
      value: 1
      objectReference: {fileID: 0}
    - target: {fileID: 3966323970981597271, guid: ad06851623512478ba305969ed492e26,
        type: 3}
      propertyPath: m_LocalRotation.x
      value: 0
      objectReference: {fileID: 0}
    - target: {fileID: 3966323970981597271, guid: ad06851623512478ba305969ed492e26,
        type: 3}
      propertyPath: m_LocalRotation.y
      value: 0
      objectReference: {fileID: 0}
    - target: {fileID: 3966323970981597271, guid: ad06851623512478ba305969ed492e26,
        type: 3}
      propertyPath: m_LocalRotation.z
      value: 0
      objectReference: {fileID: 0}
    - target: {fileID: 3966323970981597271, guid: ad06851623512478ba305969ed492e26,
        type: 3}
      propertyPath: m_LocalEulerAnglesHint.x
      value: 0
      objectReference: {fileID: 0}
    - target: {fileID: 3966323970981597271, guid: ad06851623512478ba305969ed492e26,
        type: 3}
      propertyPath: m_LocalEulerAnglesHint.y
      value: 0
      objectReference: {fileID: 0}
    - target: {fileID: 3966323970981597271, guid: ad06851623512478ba305969ed492e26,
        type: 3}
      propertyPath: m_LocalEulerAnglesHint.z
      value: 0
      objectReference: {fileID: 0}
    - target: {fileID: 5932741712758824715, guid: ad06851623512478ba305969ed492e26,
        type: 3}
      propertyPath: m_SpriteTilingProperty.pivot.x
      value: 0.5
      objectReference: {fileID: 0}
    - target: {fileID: 5932741712758824715, guid: ad06851623512478ba305969ed492e26,
        type: 3}
      propertyPath: m_SpriteTilingProperty.pivot.y
      value: 0.2
      objectReference: {fileID: 0}
    - target: {fileID: 5932741712758824715, guid: ad06851623512478ba305969ed492e26,
        type: 3}
      propertyPath: m_SpriteTilingProperty.oldSize.x
      value: 0.25
      objectReference: {fileID: 0}
    - target: {fileID: 5932741712758824715, guid: ad06851623512478ba305969ed492e26,
        type: 3}
      propertyPath: m_SpriteTilingProperty.oldSize.y
      value: 0.25
      objectReference: {fileID: 0}
    m_RemovedComponents: []
  m_SourcePrefab: {fileID: 100100000, guid: ad06851623512478ba305969ed492e26, type: 3}
--- !u!4 &4321937313166182962 stripped
Transform:
  m_CorrespondingSourceObject: {fileID: 3966323970981597271, guid: ad06851623512478ba305969ed492e26,
    type: 3}
  m_PrefabInstance: {fileID: 932717592601123429}
  m_PrefabAsset: {fileID: 0}
