%YAML 1.1
%TAG !u! tag:unity3d.com,2011:
--- !u!1001 &7562597739774552818
PrefabInstance:
  m_ObjectHideFlags: 0
  serializedVersion: 2
  m_Modification:
    m_TransformParent: {fileID: 0}
    m_Modifications:
    - target: {fileID: 1789244597324514, guid: b9ab9fa9feaf64647b54a4f4a828b2d4, type: 3}
      propertyPath: m_Name
      value: ava Chainsaw Romance
      objectReference: {fileID: 0}
    - target: {fileID: 4857518412556878, guid: b9ab9fa9feaf64647b54a4f4a828b2d4, type: 3}
      propertyPath: m_RootOrder
      value: 0
      objectReference: {fileID: 0}
    - target: {fileID: 4857518412556878, guid: b9ab9fa9feaf64647b54a4f4a828b2d4, type: 3}
      propertyPath: m_LocalPosition.x
      value: 0
      objectReference: {fileID: 0}
    - target: {fileID: 4857518412556878, guid: b9ab9fa9feaf64647b54a4f4a828b2d4, type: 3}
      propertyPath: m_LocalPosition.y
      value: 0
      objectReference: {fileID: 0}
    - target: {fileID: 4857518412556878, guid: b9ab9fa9feaf64647b54a4f4a828b2d4, type: 3}
      propertyPath: m_LocalPosition.z
      value: 0
      objectReference: {fileID: 0}
    - target: {fileID: 4857518412556878, guid: b9ab9fa9feaf64647b54a4f4a828b2d4, type: 3}
      propertyPath: m_LocalRotation.w
      value: 1
      objectReference: {fileID: 0}
    - target: {fileID: 4857518412556878, guid: b9ab9fa9feaf64647b54a4f4a828b2d4, type: 3}
      propertyPath: m_LocalRotation.x
      value: 0
      objectReference: {fileID: 0}
    - target: {fileID: 4857518412556878, guid: b9ab9fa9feaf64647b54a4f4a828b2d4, type: 3}
      propertyPath: m_LocalRotation.y
      value: 0
      objectReference: {fileID: 0}
    - target: {fileID: 4857518412556878, guid: b9ab9fa9feaf64647b54a4f4a828b2d4, type: 3}
      propertyPath: m_LocalRotation.z
      value: 0
      objectReference: {fileID: 0}
    - target: {fileID: 4857518412556878, guid: b9ab9fa9feaf64647b54a4f4a828b2d4, type: 3}
      propertyPath: m_LocalEulerAnglesHint.x
      value: 0
      objectReference: {fileID: 0}
    - target: {fileID: 4857518412556878, guid: b9ab9fa9feaf64647b54a4f4a828b2d4, type: 3}
      propertyPath: m_LocalEulerAnglesHint.y
      value: 0
      objectReference: {fileID: 0}
    - target: {fileID: 4857518412556878, guid: b9ab9fa9feaf64647b54a4f4a828b2d4, type: 3}
      propertyPath: m_LocalEulerAnglesHint.z
      value: 0
      objectReference: {fileID: 0}
    - target: {fileID: 114555753213364338, guid: b9ab9fa9feaf64647b54a4f4a828b2d4,
        type: 3}
      propertyPath: dashDuration
      value: 2
      objectReference: {fileID: 0}
    - target: {fileID: 114555753213364338, guid: b9ab9fa9feaf64647b54a4f4a828b2d4,
        type: 3}
      propertyPath: speedFactorNormalized
      value: 0.2
      objectReference: {fileID: 0}
    m_RemovedComponents: []
  m_SourcePrefab: {fileID: 100100000, guid: b9ab9fa9feaf64647b54a4f4a828b2d4, type: 3}
