%YAML 1.1
%TAG !u! tag:unity3d.com,2011:
--- !u!114 &11400000
MonoBehaviour:
  m_ObjectHideFlags: 0
  m_CorrespondingSourceObject: {fileID: 0}
  m_PrefabInstance: {fileID: 0}
  m_PrefabAsset: {fileID: 0}
  m_GameObject: {fileID: 0}
  m_Enabled: 1
  m_EditorHideFlags: 0
  m_Script: {fileID: 11500000, guid: d5c5870a58bce482fa26e2057bf8e446, type: 3}
  m_Name: Airbot Ability Hummingbird
  m_EditorClassIdentifier: 
  pawn: {fileID: 0}
  IsActive: 0
  icon: {fileID: 21300040, guid: 64314a0420c93471b9990c7b9f080a39, type: 3}
  cursor: {fileID: 0}
  prefab: {fileID: 1268720782321642, guid: 39612ce5c2d05492ea638c12c990a3eb, type: 3}
  mountType: 2
  go: {fileID: 0}
  accSpeed: 30
  maxAcc: 10
  rotateTarget: 50
  rotSpeed: 720
  dec: 30
