%YAML 1.1
%TAG !u! tag:unity3d.com,2011:
--- !u!114 &11400000
MonoBehaviour:
  m_ObjectHideFlags: 0
  m_CorrespondingSourceObject: {fileID: 0}
  m_PrefabInstance: {fileID: 0}
  m_PrefabAsset: {fileID: 0}
  m_GameObject: {fileID: 0}
  m_Enabled: 1
  m_EditorHideFlags: 0
  m_Script: {fileID: 11500000, guid: 0eb058cadd8fe4b0ebea6e1488297807, type: 3}
  m_Name: Default Ability
  m_EditorClassIdentifier: 
  icon: {fileID: 0}
  AnimatedIcon: {fileID: 0}
  cursor: {fileID: 0}
  prefab: {fileID: 0}
  mountType: 0
  pickupPrefab: {fileID: 0}
  fireArmTimeout: 0.25
  armFireSprite: {fileID: 0}
