%YAML 1.1
%TAG !u! tag:unity3d.com,2011:
--- !u!114 &11400000
MonoBehaviour:
  m_ObjectHideFlags: 0
  m_CorrespondingSourceObject: {fileID: 0}
  m_PrefabInstance: {fileID: 0}
  m_PrefabAsset: {fileID: 0}
  m_GameObject: {fileID: 0}
  m_Enabled: 1
  m_EditorHideFlags: 0
  m_Script: {fileID: 11500000, guid: 65ce35950413f4515a6499aad809aed0, type: 3}
  m_Name: Minimum Damage
  m_EditorClassIdentifier: 
  type: 0
  amount: 1
  instigator: {fileID: 0}
  damageSource: {fileID: 0}
  point: {x: 0, y: 0}
