%YAML 1.1
%TAG !u! tag:unity3d.com,2011:
--- !u!114 &11400000
MonoBehaviour:
  m_ObjectHideFlags: 0
  m_CorrespondingSourceObject: {fileID: 0}
  m_PrefabInstance: {fileID: 0}
  m_PrefabAsset: {fileID: 0}
  m_GameObject: {fileID: 0}
  m_Enabled: 1
  m_EditorHideFlags: 0
  m_Script: {fileID: 11500000, guid: 12bed6d606ca64b809be6dd0fa0c35be, type: 3}
  m_Name: Team Good Guys
  m_EditorClassIdentifier: 
  flags: 1
  color:
  - {r: 0, g: 0.62398577, b: 1, a: 1}
