%YAML 1.1
%TAG !u! tag:unity3d.com,2011:
--- !u!1001 &5754490277268935789
PrefabInstance:
  m_ObjectHideFlags: 0
  serializedVersion: 2
  m_Modification:
    m_TransformParent: {fileID: 1725467588157473287}
    m_Modifications:
    - target: {fileID: 1630113606719788188, guid: c9593d83ddf4546b1be879b313295a63,
        type: 3}
      propertyPath: m_Pivot.x
      value: 0.5
      objectReference: {fileID: 0}
    - target: {fileID: 1630113606719788188, guid: c9593d83ddf4546b1be879b313295a63,
        type: 3}
      propertyPath: m_Pivot.y
      value: 0.5
      objectReference: {fileID: 0}
    - target: {fileID: 1630113606719788188, guid: c9593d83ddf4546b1be879b313295a63,
        type: 3}
      propertyPath: m_RootOrder
      value: 5
      objectReference: {fileID: 0}
    - target: {fileID: 1630113606719788188, guid: c9593d83ddf4546b1be879b313295a63,
        type: 3}
      propertyPath: m_AnchorMax.x
      value: 0
      objectReference: {fileID: 0}
    - target: {fileID: 1630113606719788188, guid: c9593d83ddf4546b1be879b313295a63,
        type: 3}
      propertyPath: m_AnchorMax.y
      value: 0
      objectReference: {fileID: 0}
    - target: {fileID: 1630113606719788188, guid: c9593d83ddf4546b1be879b313295a63,
        type: 3}
      propertyPath: m_AnchorMin.x
      value: 0
      objectReference: {fileID: 0}
    - target: {fileID: 1630113606719788188, guid: c9593d83ddf4546b1be879b313295a63,
        type: 3}
      propertyPath: m_AnchorMin.y
      value: 0
      objectReference: {fileID: 0}
    - target: {fileID: 1630113606719788188, guid: c9593d83ddf4546b1be879b313295a63,
        type: 3}
      propertyPath: m_SizeDelta.x
      value: 0
      objectReference: {fileID: 0}
    - target: {fileID: 1630113606719788188, guid: c9593d83ddf4546b1be879b313295a63,
        type: 3}
      propertyPath: m_SizeDelta.y
      value: 0
      objectReference: {fileID: 0}
    - target: {fileID: 1630113606719788188, guid: c9593d83ddf4546b1be879b313295a63,
        type: 3}
      propertyPath: m_LocalPosition.x
      value: 0
      objectReference: {fileID: 0}
    - target: {fileID: 1630113606719788188, guid: c9593d83ddf4546b1be879b313295a63,
        type: 3}
      propertyPath: m_LocalPosition.y
      value: 0
      objectReference: {fileID: 0}
    - target: {fileID: 1630113606719788188, guid: c9593d83ddf4546b1be879b313295a63,
        type: 3}
      propertyPath: m_LocalPosition.z
      value: 0
      objectReference: {fileID: 0}
    - target: {fileID: 1630113606719788188, guid: c9593d83ddf4546b1be879b313295a63,
        type: 3}
      propertyPath: m_LocalRotation.w
      value: 1
      objectReference: {fileID: 0}
    - target: {fileID: 1630113606719788188, guid: c9593d83ddf4546b1be879b313295a63,
        type: 3}
      propertyPath: m_LocalRotation.x
      value: -0
      objectReference: {fileID: 0}
    - target: {fileID: 1630113606719788188, guid: c9593d83ddf4546b1be879b313295a63,
        type: 3}
      propertyPath: m_LocalRotation.y
      value: -0
      objectReference: {fileID: 0}
    - target: {fileID: 1630113606719788188, guid: c9593d83ddf4546b1be879b313295a63,
        type: 3}
      propertyPath: m_LocalRotation.z
      value: -0
      objectReference: {fileID: 0}
    - target: {fileID: 1630113606719788188, guid: c9593d83ddf4546b1be879b313295a63,
        type: 3}
      propertyPath: m_AnchoredPosition.x
      value: 0
      objectReference: {fileID: 0}
    - target: {fileID: 1630113606719788188, guid: c9593d83ddf4546b1be879b313295a63,
        type: 3}
      propertyPath: m_AnchoredPosition.y
      value: 0
      objectReference: {fileID: 0}
    - target: {fileID: 1630113606719788188, guid: c9593d83ddf4546b1be879b313295a63,
        type: 3}
      propertyPath: m_LocalEulerAnglesHint.x
      value: 0
      objectReference: {fileID: 0}
    - target: {fileID: 1630113606719788188, guid: c9593d83ddf4546b1be879b313295a63,
        type: 3}
      propertyPath: m_LocalEulerAnglesHint.y
      value: 0
      objectReference: {fileID: 0}
    - target: {fileID: 1630113606719788188, guid: c9593d83ddf4546b1be879b313295a63,
        type: 3}
      propertyPath: m_LocalEulerAnglesHint.z
      value: 0
      objectReference: {fileID: 0}
    - target: {fileID: 2426142819044325304, guid: c9593d83ddf4546b1be879b313295a63,
        type: 3}
      propertyPath: m_Text
      value: Stage Start
      objectReference: {fileID: 0}
    - target: {fileID: 3228659943816564319, guid: c9593d83ddf4546b1be879b313295a63,
        type: 3}
      propertyPath: m_Name
      value: Button (5)
      objectReference: {fileID: 0}
    - target: {fileID: 4096539023665083507, guid: c9593d83ddf4546b1be879b313295a63,
        type: 3}
      propertyPath: m_Material
      value: 
      objectReference: {fileID: 0}
    - target: {fileID: 6408208161474823676, guid: c9593d83ddf4546b1be879b313295a63,
        type: 3}
      propertyPath: m_OnClick.m_PersistentCalls.m_Calls.Array.data[0].m_Mode
      value: 2
      objectReference: {fileID: 0}
    - target: {fileID: 6408208161474823676, guid: c9593d83ddf4546b1be879b313295a63,
        type: 3}
      propertyPath: m_OnClick.m_PersistentCalls.m_Calls.Array.data[0].m_Target
      value: 
      objectReference: {fileID: 6756197483941807735}
    - target: {fileID: 6408208161474823676, guid: c9593d83ddf4546b1be879b313295a63,
        type: 3}
      propertyPath: m_OnClick.m_PersistentCalls.m_Calls.Array.data[0].m_MethodName
      value: PlayMusic
      objectReference: {fileID: 0}
    - target: {fileID: 6408208161474823676, guid: c9593d83ddf4546b1be879b313295a63,
        type: 3}
      propertyPath: m_OnClick.m_PersistentCalls.m_Calls.Array.data[0].m_Arguments.m_ObjectArgument
      value: 
      objectReference: {fileID: 11400000, guid: 674e86ec5d634494886389dba193a5a7,
        type: 2}
    - target: {fileID: 6408208161474823676, guid: c9593d83ddf4546b1be879b313295a63,
        type: 3}
      propertyPath: m_OnClick.m_PersistentCalls.m_Calls.Array.data[0].m_Arguments.m_ObjectArgumentAssemblyTypeName
      value: AudioLoop, Assembly-CSharp
      objectReference: {fileID: 0}
    - target: {fileID: 7972775694805920402, guid: c9593d83ddf4546b1be879b313295a63,
        type: 3}
      propertyPath: m_PreferredWidth
      value: 300
      objectReference: {fileID: 0}
    m_RemovedComponents: []
  m_SourcePrefab: {fileID: 100100000, guid: c9593d83ddf4546b1be879b313295a63, type: 3}
--- !u!1001 &5754490278032805901
PrefabInstance:
  m_ObjectHideFlags: 0
  serializedVersion: 2
  m_Modification:
    m_TransformParent: {fileID: 1725467588157473287}
    m_Modifications:
    - target: {fileID: 1630113606719788188, guid: c9593d83ddf4546b1be879b313295a63,
        type: 3}
      propertyPath: m_Pivot.x
      value: 0.5
      objectReference: {fileID: 0}
    - target: {fileID: 1630113606719788188, guid: c9593d83ddf4546b1be879b313295a63,
        type: 3}
      propertyPath: m_Pivot.y
      value: 0.5
      objectReference: {fileID: 0}
    - target: {fileID: 1630113606719788188, guid: c9593d83ddf4546b1be879b313295a63,
        type: 3}
      propertyPath: m_RootOrder
      value: 8
      objectReference: {fileID: 0}
    - target: {fileID: 1630113606719788188, guid: c9593d83ddf4546b1be879b313295a63,
        type: 3}
      propertyPath: m_AnchorMax.x
      value: 0
      objectReference: {fileID: 0}
    - target: {fileID: 1630113606719788188, guid: c9593d83ddf4546b1be879b313295a63,
        type: 3}
      propertyPath: m_AnchorMax.y
      value: 0
      objectReference: {fileID: 0}
    - target: {fileID: 1630113606719788188, guid: c9593d83ddf4546b1be879b313295a63,
        type: 3}
      propertyPath: m_AnchorMin.x
      value: 0
      objectReference: {fileID: 0}
    - target: {fileID: 1630113606719788188, guid: c9593d83ddf4546b1be879b313295a63,
        type: 3}
      propertyPath: m_AnchorMin.y
      value: 0
      objectReference: {fileID: 0}
    - target: {fileID: 1630113606719788188, guid: c9593d83ddf4546b1be879b313295a63,
        type: 3}
      propertyPath: m_SizeDelta.x
      value: 0
      objectReference: {fileID: 0}
    - target: {fileID: 1630113606719788188, guid: c9593d83ddf4546b1be879b313295a63,
        type: 3}
      propertyPath: m_SizeDelta.y
      value: 0
      objectReference: {fileID: 0}
    - target: {fileID: 1630113606719788188, guid: c9593d83ddf4546b1be879b313295a63,
        type: 3}
      propertyPath: m_LocalPosition.x
      value: 0
      objectReference: {fileID: 0}
    - target: {fileID: 1630113606719788188, guid: c9593d83ddf4546b1be879b313295a63,
        type: 3}
      propertyPath: m_LocalPosition.y
      value: 0
      objectReference: {fileID: 0}
    - target: {fileID: 1630113606719788188, guid: c9593d83ddf4546b1be879b313295a63,
        type: 3}
      propertyPath: m_LocalPosition.z
      value: 0
      objectReference: {fileID: 0}
    - target: {fileID: 1630113606719788188, guid: c9593d83ddf4546b1be879b313295a63,
        type: 3}
      propertyPath: m_LocalRotation.w
      value: 1
      objectReference: {fileID: 0}
    - target: {fileID: 1630113606719788188, guid: c9593d83ddf4546b1be879b313295a63,
        type: 3}
      propertyPath: m_LocalRotation.x
      value: -0
      objectReference: {fileID: 0}
    - target: {fileID: 1630113606719788188, guid: c9593d83ddf4546b1be879b313295a63,
        type: 3}
      propertyPath: m_LocalRotation.y
      value: -0
      objectReference: {fileID: 0}
    - target: {fileID: 1630113606719788188, guid: c9593d83ddf4546b1be879b313295a63,
        type: 3}
      propertyPath: m_LocalRotation.z
      value: -0
      objectReference: {fileID: 0}
    - target: {fileID: 1630113606719788188, guid: c9593d83ddf4546b1be879b313295a63,
        type: 3}
      propertyPath: m_AnchoredPosition.x
      value: 0
      objectReference: {fileID: 0}
    - target: {fileID: 1630113606719788188, guid: c9593d83ddf4546b1be879b313295a63,
        type: 3}
      propertyPath: m_AnchoredPosition.y
      value: 0
      objectReference: {fileID: 0}
    - target: {fileID: 1630113606719788188, guid: c9593d83ddf4546b1be879b313295a63,
        type: 3}
      propertyPath: m_LocalEulerAnglesHint.x
      value: 0
      objectReference: {fileID: 0}
    - target: {fileID: 1630113606719788188, guid: c9593d83ddf4546b1be879b313295a63,
        type: 3}
      propertyPath: m_LocalEulerAnglesHint.y
      value: 0
      objectReference: {fileID: 0}
    - target: {fileID: 1630113606719788188, guid: c9593d83ddf4546b1be879b313295a63,
        type: 3}
      propertyPath: m_LocalEulerAnglesHint.z
      value: 0
      objectReference: {fileID: 0}
    - target: {fileID: 2426142819044325304, guid: c9593d83ddf4546b1be879b313295a63,
        type: 3}
      propertyPath: m_Text
      value: Flame Stag
      objectReference: {fileID: 0}
    - target: {fileID: 3228659943816564319, guid: c9593d83ddf4546b1be879b313295a63,
        type: 3}
      propertyPath: m_Name
      value: Button (8)
      objectReference: {fileID: 0}
    - target: {fileID: 4096539023665083507, guid: c9593d83ddf4546b1be879b313295a63,
        type: 3}
      propertyPath: m_Material
      value: 
      objectReference: {fileID: 0}
    - target: {fileID: 6408208161474823676, guid: c9593d83ddf4546b1be879b313295a63,
        type: 3}
      propertyPath: m_OnClick.m_PersistentCalls.m_Calls.Array.data[0].m_Mode
      value: 2
      objectReference: {fileID: 0}
    - target: {fileID: 6408208161474823676, guid: c9593d83ddf4546b1be879b313295a63,
        type: 3}
      propertyPath: m_OnClick.m_PersistentCalls.m_Calls.Array.data[0].m_Target
      value: 
      objectReference: {fileID: 6756197483941807735}
    - target: {fileID: 6408208161474823676, guid: c9593d83ddf4546b1be879b313295a63,
        type: 3}
      propertyPath: m_OnClick.m_PersistentCalls.m_Calls.Array.data[0].m_MethodName
      value: PlayMusic
      objectReference: {fileID: 0}
    - target: {fileID: 6408208161474823676, guid: c9593d83ddf4546b1be879b313295a63,
        type: 3}
      propertyPath: m_OnClick.m_PersistentCalls.m_Calls.Array.data[0].m_Arguments.m_ObjectArgument
      value: 
      objectReference: {fileID: 11400000, guid: 2611e99ba41d84d89b325c444bb1ea49,
        type: 2}
    - target: {fileID: 6408208161474823676, guid: c9593d83ddf4546b1be879b313295a63,
        type: 3}
      propertyPath: m_OnClick.m_PersistentCalls.m_Calls.Array.data[0].m_Arguments.m_ObjectArgumentAssemblyTypeName
      value: AudioLoop, Assembly-CSharp
      objectReference: {fileID: 0}
    - target: {fileID: 7972775694805920402, guid: c9593d83ddf4546b1be879b313295a63,
        type: 3}
      propertyPath: m_PreferredWidth
      value: 300
      objectReference: {fileID: 0}
    m_RemovedComponents: []
  m_SourcePrefab: {fileID: 100100000, guid: c9593d83ddf4546b1be879b313295a63, type: 3}
--- !u!1001 &5754490278154650027
PrefabInstance:
  m_ObjectHideFlags: 0
  serializedVersion: 2
  m_Modification:
    m_TransformParent: {fileID: 1725467588157473287}
    m_Modifications:
    - target: {fileID: 1630113606719788188, guid: c9593d83ddf4546b1be879b313295a63,
        type: 3}
      propertyPath: m_Pivot.x
      value: 0.5
      objectReference: {fileID: 0}
    - target: {fileID: 1630113606719788188, guid: c9593d83ddf4546b1be879b313295a63,
        type: 3}
      propertyPath: m_Pivot.y
      value: 0.5
      objectReference: {fileID: 0}
    - target: {fileID: 1630113606719788188, guid: c9593d83ddf4546b1be879b313295a63,
        type: 3}
      propertyPath: m_RootOrder
      value: 4
      objectReference: {fileID: 0}
    - target: {fileID: 1630113606719788188, guid: c9593d83ddf4546b1be879b313295a63,
        type: 3}
      propertyPath: m_AnchorMax.x
      value: 0
      objectReference: {fileID: 0}
    - target: {fileID: 1630113606719788188, guid: c9593d83ddf4546b1be879b313295a63,
        type: 3}
      propertyPath: m_AnchorMax.y
      value: 0
      objectReference: {fileID: 0}
    - target: {fileID: 1630113606719788188, guid: c9593d83ddf4546b1be879b313295a63,
        type: 3}
      propertyPath: m_AnchorMin.x
      value: 0
      objectReference: {fileID: 0}
    - target: {fileID: 1630113606719788188, guid: c9593d83ddf4546b1be879b313295a63,
        type: 3}
      propertyPath: m_AnchorMin.y
      value: 0
      objectReference: {fileID: 0}
    - target: {fileID: 1630113606719788188, guid: c9593d83ddf4546b1be879b313295a63,
        type: 3}
      propertyPath: m_SizeDelta.x
      value: 0
      objectReference: {fileID: 0}
    - target: {fileID: 1630113606719788188, guid: c9593d83ddf4546b1be879b313295a63,
        type: 3}
      propertyPath: m_SizeDelta.y
      value: 0
      objectReference: {fileID: 0}
    - target: {fileID: 1630113606719788188, guid: c9593d83ddf4546b1be879b313295a63,
        type: 3}
      propertyPath: m_LocalPosition.x
      value: 0
      objectReference: {fileID: 0}
    - target: {fileID: 1630113606719788188, guid: c9593d83ddf4546b1be879b313295a63,
        type: 3}
      propertyPath: m_LocalPosition.y
      value: 0
      objectReference: {fileID: 0}
    - target: {fileID: 1630113606719788188, guid: c9593d83ddf4546b1be879b313295a63,
        type: 3}
      propertyPath: m_LocalPosition.z
      value: 0
      objectReference: {fileID: 0}
    - target: {fileID: 1630113606719788188, guid: c9593d83ddf4546b1be879b313295a63,
        type: 3}
      propertyPath: m_LocalRotation.w
      value: 1
      objectReference: {fileID: 0}
    - target: {fileID: 1630113606719788188, guid: c9593d83ddf4546b1be879b313295a63,
        type: 3}
      propertyPath: m_LocalRotation.x
      value: -0
      objectReference: {fileID: 0}
    - target: {fileID: 1630113606719788188, guid: c9593d83ddf4546b1be879b313295a63,
        type: 3}
      propertyPath: m_LocalRotation.y
      value: -0
      objectReference: {fileID: 0}
    - target: {fileID: 1630113606719788188, guid: c9593d83ddf4546b1be879b313295a63,
        type: 3}
      propertyPath: m_LocalRotation.z
      value: -0
      objectReference: {fileID: 0}
    - target: {fileID: 1630113606719788188, guid: c9593d83ddf4546b1be879b313295a63,
        type: 3}
      propertyPath: m_AnchoredPosition.x
      value: 0
      objectReference: {fileID: 0}
    - target: {fileID: 1630113606719788188, guid: c9593d83ddf4546b1be879b313295a63,
        type: 3}
      propertyPath: m_AnchoredPosition.y
      value: 0
      objectReference: {fileID: 0}
    - target: {fileID: 1630113606719788188, guid: c9593d83ddf4546b1be879b313295a63,
        type: 3}
      propertyPath: m_LocalEulerAnglesHint.x
      value: 0
      objectReference: {fileID: 0}
    - target: {fileID: 1630113606719788188, guid: c9593d83ddf4546b1be879b313295a63,
        type: 3}
      propertyPath: m_LocalEulerAnglesHint.y
      value: 0
      objectReference: {fileID: 0}
    - target: {fileID: 1630113606719788188, guid: c9593d83ddf4546b1be879b313295a63,
        type: 3}
      propertyPath: m_LocalEulerAnglesHint.z
      value: 0
      objectReference: {fileID: 0}
    - target: {fileID: 2426142819044325304, guid: c9593d83ddf4546b1be879b313295a63,
        type: 3}
      propertyPath: m_Text
      value: wasteland
      objectReference: {fileID: 0}
    - target: {fileID: 3228659943816564319, guid: c9593d83ddf4546b1be879b313295a63,
        type: 3}
      propertyPath: m_Name
      value: Button (4)
      objectReference: {fileID: 0}
    - target: {fileID: 4096539023665083507, guid: c9593d83ddf4546b1be879b313295a63,
        type: 3}
      propertyPath: m_Material
      value: 
      objectReference: {fileID: 0}
    - target: {fileID: 6408208161474823676, guid: c9593d83ddf4546b1be879b313295a63,
        type: 3}
      propertyPath: m_OnClick.m_PersistentCalls.m_Calls.Array.data[0].m_Mode
      value: 2
      objectReference: {fileID: 0}
    - target: {fileID: 6408208161474823676, guid: c9593d83ddf4546b1be879b313295a63,
        type: 3}
      propertyPath: m_OnClick.m_PersistentCalls.m_Calls.Array.data[0].m_Target
      value: 
      objectReference: {fileID: 6756197483941807735}
    - target: {fileID: 6408208161474823676, guid: c9593d83ddf4546b1be879b313295a63,
        type: 3}
      propertyPath: m_OnClick.m_PersistentCalls.m_Calls.Array.data[0].m_MethodName
      value: PlayMusic
      objectReference: {fileID: 0}
    - target: {fileID: 6408208161474823676, guid: c9593d83ddf4546b1be879b313295a63,
        type: 3}
      propertyPath: m_OnClick.m_PersistentCalls.m_Calls.Array.data[0].m_Arguments.m_ObjectArgument
      value: 
      objectReference: {fileID: 11400000, guid: 1ffe96adc415a47eab0e412c7a4b9fc6,
        type: 2}
    - target: {fileID: 6408208161474823676, guid: c9593d83ddf4546b1be879b313295a63,
        type: 3}
      propertyPath: m_OnClick.m_PersistentCalls.m_Calls.Array.data[0].m_Arguments.m_ObjectArgumentAssemblyTypeName
      value: AudioLoop, Assembly-CSharp
      objectReference: {fileID: 0}
    - target: {fileID: 7972775694805920402, guid: c9593d83ddf4546b1be879b313295a63,
        type: 3}
      propertyPath: m_PreferredWidth
      value: 300
      objectReference: {fileID: 0}
    m_RemovedComponents: []
  m_SourcePrefab: {fileID: 100100000, guid: c9593d83ddf4546b1be879b313295a63, type: 3}
--- !u!1001 &5754490278240296806
PrefabInstance:
  m_ObjectHideFlags: 0
  serializedVersion: 2
  m_Modification:
    m_TransformParent: {fileID: 1725467588157473287}
    m_Modifications:
    - target: {fileID: 1630113606719788188, guid: c9593d83ddf4546b1be879b313295a63,
        type: 3}
      propertyPath: m_Pivot.x
      value: 0.5
      objectReference: {fileID: 0}
    - target: {fileID: 1630113606719788188, guid: c9593d83ddf4546b1be879b313295a63,
        type: 3}
      propertyPath: m_Pivot.y
      value: 0.5
      objectReference: {fileID: 0}
    - target: {fileID: 1630113606719788188, guid: c9593d83ddf4546b1be879b313295a63,
        type: 3}
      propertyPath: m_RootOrder
      value: 7
      objectReference: {fileID: 0}
    - target: {fileID: 1630113606719788188, guid: c9593d83ddf4546b1be879b313295a63,
        type: 3}
      propertyPath: m_AnchorMax.x
      value: 0
      objectReference: {fileID: 0}
    - target: {fileID: 1630113606719788188, guid: c9593d83ddf4546b1be879b313295a63,
        type: 3}
      propertyPath: m_AnchorMax.y
      value: 0
      objectReference: {fileID: 0}
    - target: {fileID: 1630113606719788188, guid: c9593d83ddf4546b1be879b313295a63,
        type: 3}
      propertyPath: m_AnchorMin.x
      value: 0
      objectReference: {fileID: 0}
    - target: {fileID: 1630113606719788188, guid: c9593d83ddf4546b1be879b313295a63,
        type: 3}
      propertyPath: m_AnchorMin.y
      value: 0
      objectReference: {fileID: 0}
    - target: {fileID: 1630113606719788188, guid: c9593d83ddf4546b1be879b313295a63,
        type: 3}
      propertyPath: m_SizeDelta.x
      value: 0
      objectReference: {fileID: 0}
    - target: {fileID: 1630113606719788188, guid: c9593d83ddf4546b1be879b313295a63,
        type: 3}
      propertyPath: m_SizeDelta.y
      value: 0
      objectReference: {fileID: 0}
    - target: {fileID: 1630113606719788188, guid: c9593d83ddf4546b1be879b313295a63,
        type: 3}
      propertyPath: m_LocalPosition.x
      value: 0
      objectReference: {fileID: 0}
    - target: {fileID: 1630113606719788188, guid: c9593d83ddf4546b1be879b313295a63,
        type: 3}
      propertyPath: m_LocalPosition.y
      value: 0
      objectReference: {fileID: 0}
    - target: {fileID: 1630113606719788188, guid: c9593d83ddf4546b1be879b313295a63,
        type: 3}
      propertyPath: m_LocalPosition.z
      value: 0
      objectReference: {fileID: 0}
    - target: {fileID: 1630113606719788188, guid: c9593d83ddf4546b1be879b313295a63,
        type: 3}
      propertyPath: m_LocalRotation.w
      value: 1
      objectReference: {fileID: 0}
    - target: {fileID: 1630113606719788188, guid: c9593d83ddf4546b1be879b313295a63,
        type: 3}
      propertyPath: m_LocalRotation.x
      value: -0
      objectReference: {fileID: 0}
    - target: {fileID: 1630113606719788188, guid: c9593d83ddf4546b1be879b313295a63,
        type: 3}
      propertyPath: m_LocalRotation.y
      value: -0
      objectReference: {fileID: 0}
    - target: {fileID: 1630113606719788188, guid: c9593d83ddf4546b1be879b313295a63,
        type: 3}
      propertyPath: m_LocalRotation.z
      value: -0
      objectReference: {fileID: 0}
    - target: {fileID: 1630113606719788188, guid: c9593d83ddf4546b1be879b313295a63,
        type: 3}
      propertyPath: m_AnchoredPosition.x
      value: 0
      objectReference: {fileID: 0}
    - target: {fileID: 1630113606719788188, guid: c9593d83ddf4546b1be879b313295a63,
        type: 3}
      propertyPath: m_AnchoredPosition.y
      value: 0
      objectReference: {fileID: 0}
    - target: {fileID: 1630113606719788188, guid: c9593d83ddf4546b1be879b313295a63,
        type: 3}
      propertyPath: m_LocalEulerAnglesHint.x
      value: 0
      objectReference: {fileID: 0}
    - target: {fileID: 1630113606719788188, guid: c9593d83ddf4546b1be879b313295a63,
        type: 3}
      propertyPath: m_LocalEulerAnglesHint.y
      value: 0
      objectReference: {fileID: 0}
    - target: {fileID: 1630113606719788188, guid: c9593d83ddf4546b1be879b313295a63,
        type: 3}
      propertyPath: m_LocalEulerAnglesHint.z
      value: 0
      objectReference: {fileID: 0}
    - target: {fileID: 2426142819044325304, guid: c9593d83ddf4546b1be879b313295a63,
        type: 3}
      propertyPath: m_Text
      value: Dr.LightSpeech
      objectReference: {fileID: 0}
    - target: {fileID: 3228659943816564319, guid: c9593d83ddf4546b1be879b313295a63,
        type: 3}
      propertyPath: m_Name
      value: Button (7)
      objectReference: {fileID: 0}
    - target: {fileID: 4096539023665083507, guid: c9593d83ddf4546b1be879b313295a63,
        type: 3}
      propertyPath: m_Material
      value: 
      objectReference: {fileID: 0}
    - target: {fileID: 6408208161474823676, guid: c9593d83ddf4546b1be879b313295a63,
        type: 3}
      propertyPath: m_OnClick.m_PersistentCalls.m_Calls.Array.data[0].m_Mode
      value: 2
      objectReference: {fileID: 0}
    - target: {fileID: 6408208161474823676, guid: c9593d83ddf4546b1be879b313295a63,
        type: 3}
      propertyPath: m_OnClick.m_PersistentCalls.m_Calls.Array.data[0].m_Target
      value: 
      objectReference: {fileID: 6756197483941807735}
    - target: {fileID: 6408208161474823676, guid: c9593d83ddf4546b1be879b313295a63,
        type: 3}
      propertyPath: m_OnClick.m_PersistentCalls.m_Calls.Array.data[0].m_MethodName
      value: PlayMusic
      objectReference: {fileID: 0}
    - target: {fileID: 6408208161474823676, guid: c9593d83ddf4546b1be879b313295a63,
        type: 3}
      propertyPath: m_OnClick.m_PersistentCalls.m_Calls.Array.data[0].m_Arguments.m_ObjectArgument
      value: 
      objectReference: {fileID: 11400000, guid: 5c257977c583b488095434827cbdddd4,
        type: 2}
    - target: {fileID: 6408208161474823676, guid: c9593d83ddf4546b1be879b313295a63,
        type: 3}
      propertyPath: m_OnClick.m_PersistentCalls.m_Calls.Array.data[0].m_Arguments.m_ObjectArgumentAssemblyTypeName
      value: AudioLoop, Assembly-CSharp
      objectReference: {fileID: 0}
    - target: {fileID: 7972775694805920402, guid: c9593d83ddf4546b1be879b313295a63,
        type: 3}
      propertyPath: m_PreferredWidth
      value: 300
      objectReference: {fileID: 0}
    m_RemovedComponents: []
  m_SourcePrefab: {fileID: 100100000, guid: c9593d83ddf4546b1be879b313295a63, type: 3}
--- !u!1001 &5754490278405872982
PrefabInstance:
  m_ObjectHideFlags: 0
  serializedVersion: 2
  m_Modification:
    m_TransformParent: {fileID: 1725467588157473287}
    m_Modifications:
    - target: {fileID: 1630113606719788188, guid: c9593d83ddf4546b1be879b313295a63,
        type: 3}
      propertyPath: m_Pivot.x
      value: 0.5
      objectReference: {fileID: 0}
    - target: {fileID: 1630113606719788188, guid: c9593d83ddf4546b1be879b313295a63,
        type: 3}
      propertyPath: m_Pivot.y
      value: 0.5
      objectReference: {fileID: 0}
    - target: {fileID: 1630113606719788188, guid: c9593d83ddf4546b1be879b313295a63,
        type: 3}
      propertyPath: m_RootOrder
      value: 6
      objectReference: {fileID: 0}
    - target: {fileID: 1630113606719788188, guid: c9593d83ddf4546b1be879b313295a63,
        type: 3}
      propertyPath: m_AnchorMax.x
      value: 0
      objectReference: {fileID: 0}
    - target: {fileID: 1630113606719788188, guid: c9593d83ddf4546b1be879b313295a63,
        type: 3}
      propertyPath: m_AnchorMax.y
      value: 0
      objectReference: {fileID: 0}
    - target: {fileID: 1630113606719788188, guid: c9593d83ddf4546b1be879b313295a63,
        type: 3}
      propertyPath: m_AnchorMin.x
      value: 0
      objectReference: {fileID: 0}
    - target: {fileID: 1630113606719788188, guid: c9593d83ddf4546b1be879b313295a63,
        type: 3}
      propertyPath: m_AnchorMin.y
      value: 0
      objectReference: {fileID: 0}
    - target: {fileID: 1630113606719788188, guid: c9593d83ddf4546b1be879b313295a63,
        type: 3}
      propertyPath: m_SizeDelta.x
      value: 0
      objectReference: {fileID: 0}
    - target: {fileID: 1630113606719788188, guid: c9593d83ddf4546b1be879b313295a63,
        type: 3}
      propertyPath: m_SizeDelta.y
      value: 0
      objectReference: {fileID: 0}
    - target: {fileID: 1630113606719788188, guid: c9593d83ddf4546b1be879b313295a63,
        type: 3}
      propertyPath: m_LocalPosition.x
      value: 0
      objectReference: {fileID: 0}
    - target: {fileID: 1630113606719788188, guid: c9593d83ddf4546b1be879b313295a63,
        type: 3}
      propertyPath: m_LocalPosition.y
      value: 0
      objectReference: {fileID: 0}
    - target: {fileID: 1630113606719788188, guid: c9593d83ddf4546b1be879b313295a63,
        type: 3}
      propertyPath: m_LocalPosition.z
      value: 0
      objectReference: {fileID: 0}
    - target: {fileID: 1630113606719788188, guid: c9593d83ddf4546b1be879b313295a63,
        type: 3}
      propertyPath: m_LocalRotation.w
      value: 1
      objectReference: {fileID: 0}
    - target: {fileID: 1630113606719788188, guid: c9593d83ddf4546b1be879b313295a63,
        type: 3}
      propertyPath: m_LocalRotation.x
      value: -0
      objectReference: {fileID: 0}
    - target: {fileID: 1630113606719788188, guid: c9593d83ddf4546b1be879b313295a63,
        type: 3}
      propertyPath: m_LocalRotation.y
      value: -0
      objectReference: {fileID: 0}
    - target: {fileID: 1630113606719788188, guid: c9593d83ddf4546b1be879b313295a63,
        type: 3}
      propertyPath: m_LocalRotation.z
      value: -0
      objectReference: {fileID: 0}
    - target: {fileID: 1630113606719788188, guid: c9593d83ddf4546b1be879b313295a63,
        type: 3}
      propertyPath: m_AnchoredPosition.x
      value: 0
      objectReference: {fileID: 0}
    - target: {fileID: 1630113606719788188, guid: c9593d83ddf4546b1be879b313295a63,
        type: 3}
      propertyPath: m_AnchoredPosition.y
      value: 0
      objectReference: {fileID: 0}
    - target: {fileID: 1630113606719788188, guid: c9593d83ddf4546b1be879b313295a63,
        type: 3}
      propertyPath: m_LocalEulerAnglesHint.x
      value: 0
      objectReference: {fileID: 0}
    - target: {fileID: 1630113606719788188, guid: c9593d83ddf4546b1be879b313295a63,
        type: 3}
      propertyPath: m_LocalEulerAnglesHint.y
      value: 0
      objectReference: {fileID: 0}
    - target: {fileID: 1630113606719788188, guid: c9593d83ddf4546b1be879b313295a63,
        type: 3}
      propertyPath: m_LocalEulerAnglesHint.z
      value: 0
      objectReference: {fileID: 0}
    - target: {fileID: 2426142819044325304, guid: c9593d83ddf4546b1be879b313295a63,
        type: 3}
      propertyPath: m_Text
      value: Stage Intro
      objectReference: {fileID: 0}
    - target: {fileID: 3228659943816564319, guid: c9593d83ddf4546b1be879b313295a63,
        type: 3}
      propertyPath: m_Name
      value: Button (6)
      objectReference: {fileID: 0}
    - target: {fileID: 4096539023665083507, guid: c9593d83ddf4546b1be879b313295a63,
        type: 3}
      propertyPath: m_Material
      value: 
      objectReference: {fileID: 0}
    - target: {fileID: 6408208161474823676, guid: c9593d83ddf4546b1be879b313295a63,
        type: 3}
      propertyPath: m_OnClick.m_PersistentCalls.m_Calls.Array.data[0].m_Mode
      value: 2
      objectReference: {fileID: 0}
    - target: {fileID: 6408208161474823676, guid: c9593d83ddf4546b1be879b313295a63,
        type: 3}
      propertyPath: m_OnClick.m_PersistentCalls.m_Calls.Array.data[0].m_Target
      value: 
      objectReference: {fileID: 6756197483941807735}
    - target: {fileID: 6408208161474823676, guid: c9593d83ddf4546b1be879b313295a63,
        type: 3}
      propertyPath: m_OnClick.m_PersistentCalls.m_Calls.Array.data[0].m_MethodName
      value: PlayMusic
      objectReference: {fileID: 0}
    - target: {fileID: 6408208161474823676, guid: c9593d83ddf4546b1be879b313295a63,
        type: 3}
      propertyPath: m_OnClick.m_PersistentCalls.m_Calls.Array.data[0].m_Arguments.m_ObjectArgument
      value: 
      objectReference: {fileID: 11400000, guid: 8e306f96416fb4a5cbf456f15c8d489d,
        type: 2}
    - target: {fileID: 6408208161474823676, guid: c9593d83ddf4546b1be879b313295a63,
        type: 3}
      propertyPath: m_OnClick.m_PersistentCalls.m_Calls.Array.data[0].m_Arguments.m_ObjectArgumentAssemblyTypeName
      value: AudioLoop, Assembly-CSharp
      objectReference: {fileID: 0}
    - target: {fileID: 6975823990454870286, guid: c9593d83ddf4546b1be879b313295a63,
        type: 3}
      propertyPath: m_IsActive
      value: 1
      objectReference: {fileID: 0}
    - target: {fileID: 7972775694805920402, guid: c9593d83ddf4546b1be879b313295a63,
        type: 3}
      propertyPath: m_PreferredWidth
      value: 300
      objectReference: {fileID: 0}
    m_RemovedComponents: []
  m_SourcePrefab: {fileID: 100100000, guid: c9593d83ddf4546b1be879b313295a63, type: 3}
--- !u!1001 &6756197483018675193
PrefabInstance:
  m_ObjectHideFlags: 0
  serializedVersion: 2
  m_Modification:
    m_TransformParent: {fileID: 0}
    m_Modifications:
    - target: {fileID: 1863261026, guid: f2f46821af0724782be3eee0f473d705, type: 3}
      propertyPath: m_Size.x
      value: 2.75
      objectReference: {fileID: 0}
    - target: {fileID: 1863261026, guid: f2f46821af0724782be3eee0f473d705, type: 3}
      propertyPath: m_Size.y
      value: 1.75
      objectReference: {fileID: 0}
    - target: {fileID: 1863261026, guid: f2f46821af0724782be3eee0f473d705, type: 3}
      propertyPath: m_SortingOrder
      value: 1
      objectReference: {fileID: 0}
    - target: {fileID: 110834166341365388, guid: f2f46821af0724782be3eee0f473d705,
        type: 3}
      propertyPath: m_AnchorMax.y
      value: 0
      objectReference: {fileID: 0}
    - target: {fileID: 110834166341365388, guid: f2f46821af0724782be3eee0f473d705,
        type: 3}
      propertyPath: m_AnchorMin.y
      value: 0
      objectReference: {fileID: 0}
    - target: {fileID: 110834166341365388, guid: f2f46821af0724782be3eee0f473d705,
        type: 3}
      propertyPath: m_SizeDelta.x
      value: 0
      objectReference: {fileID: 0}
    - target: {fileID: 110834166341365388, guid: f2f46821af0724782be3eee0f473d705,
        type: 3}
      propertyPath: m_SizeDelta.y
      value: 0
      objectReference: {fileID: 0}
    - target: {fileID: 110834166341365388, guid: f2f46821af0724782be3eee0f473d705,
        type: 3}
      propertyPath: m_AnchoredPosition.x
      value: 0
      objectReference: {fileID: 0}
    - target: {fileID: 110834166341365388, guid: f2f46821af0724782be3eee0f473d705,
        type: 3}
      propertyPath: m_AnchoredPosition.y
      value: 0
      objectReference: {fileID: 0}
    - target: {fileID: 261495892870766632, guid: f2f46821af0724782be3eee0f473d705,
        type: 3}
      propertyPath: m_Size.x
      value: 2.75
      objectReference: {fileID: 0}
    - target: {fileID: 261495892870766632, guid: f2f46821af0724782be3eee0f473d705,
        type: 3}
      propertyPath: m_Size.y
      value: 1.75
      objectReference: {fileID: 0}
    - target: {fileID: 261495892870766632, guid: f2f46821af0724782be3eee0f473d705,
        type: 3}
      propertyPath: m_SpriteTilingProperty.newSize.x
      value: 2.75
      objectReference: {fileID: 0}
    - target: {fileID: 261495892870766632, guid: f2f46821af0724782be3eee0f473d705,
        type: 3}
      propertyPath: m_SpriteTilingProperty.newSize.y
      value: 1.75
      objectReference: {fileID: 0}
    - target: {fileID: 623362380640944937, guid: f2f46821af0724782be3eee0f473d705,
        type: 3}
      propertyPath: m_Name
      value: Music Menu
      objectReference: {fileID: 0}
    - target: {fileID: 730417330548041998, guid: f2f46821af0724782be3eee0f473d705,
        type: 3}
      propertyPath: m_RootOrder
      value: 0
      objectReference: {fileID: 0}
    - target: {fileID: 730417330548041998, guid: f2f46821af0724782be3eee0f473d705,
        type: 3}
      propertyPath: m_LocalPosition.x
      value: -48.149998
      objectReference: {fileID: 0}
    - target: {fileID: 730417330548041998, guid: f2f46821af0724782be3eee0f473d705,
        type: 3}
      propertyPath: m_LocalPosition.y
      value: 7.16
      objectReference: {fileID: 0}
    - target: {fileID: 730417330548041998, guid: f2f46821af0724782be3eee0f473d705,
        type: 3}
      propertyPath: m_LocalPosition.z
      value: 0
      objectReference: {fileID: 0}
    - target: {fileID: 730417330548041998, guid: f2f46821af0724782be3eee0f473d705,
        type: 3}
      propertyPath: m_LocalRotation.w
      value: 1
      objectReference: {fileID: 0}
    - target: {fileID: 730417330548041998, guid: f2f46821af0724782be3eee0f473d705,
        type: 3}
      propertyPath: m_LocalRotation.x
      value: -0
      objectReference: {fileID: 0}
    - target: {fileID: 730417330548041998, guid: f2f46821af0724782be3eee0f473d705,
        type: 3}
      propertyPath: m_LocalRotation.y
      value: -0
      objectReference: {fileID: 0}
    - target: {fileID: 730417330548041998, guid: f2f46821af0724782be3eee0f473d705,
        type: 3}
      propertyPath: m_LocalRotation.z
      value: -0
      objectReference: {fileID: 0}
    - target: {fileID: 730417330548041998, guid: f2f46821af0724782be3eee0f473d705,
        type: 3}
      propertyPath: m_LocalEulerAnglesHint.x
      value: 0
      objectReference: {fileID: 0}
    - target: {fileID: 730417330548041998, guid: f2f46821af0724782be3eee0f473d705,
        type: 3}
      propertyPath: m_LocalEulerAnglesHint.y
      value: 0
      objectReference: {fileID: 0}
    - target: {fileID: 730417330548041998, guid: f2f46821af0724782be3eee0f473d705,
        type: 3}
      propertyPath: m_LocalEulerAnglesHint.z
      value: 0
      objectReference: {fileID: 0}
    - target: {fileID: 1408973339936812653, guid: f2f46821af0724782be3eee0f473d705,
        type: 3}
      propertyPath: m_Text
      value: gleam
      objectReference: {fileID: 0}
    - target: {fileID: 2247054407860917030, guid: f2f46821af0724782be3eee0f473d705,
        type: 3}
      propertyPath: m_AnchorMax.y
      value: 0
      objectReference: {fileID: 0}
    - target: {fileID: 2247054407860917030, guid: f2f46821af0724782be3eee0f473d705,
        type: 3}
      propertyPath: m_AnchorMin.y
      value: 0
      objectReference: {fileID: 0}
    - target: {fileID: 2247054407860917030, guid: f2f46821af0724782be3eee0f473d705,
        type: 3}
      propertyPath: m_SizeDelta.x
      value: 0
      objectReference: {fileID: 0}
    - target: {fileID: 2247054407860917030, guid: f2f46821af0724782be3eee0f473d705,
        type: 3}
      propertyPath: m_SizeDelta.y
      value: 0
      objectReference: {fileID: 0}
    - target: {fileID: 2247054407860917030, guid: f2f46821af0724782be3eee0f473d705,
        type: 3}
      propertyPath: m_AnchoredPosition.x
      value: 0
      objectReference: {fileID: 0}
    - target: {fileID: 2247054407860917030, guid: f2f46821af0724782be3eee0f473d705,
        type: 3}
      propertyPath: m_AnchoredPosition.y
      value: 0
      objectReference: {fileID: 0}
    - target: {fileID: 2646316078249921865, guid: f2f46821af0724782be3eee0f473d705,
        type: 3}
      propertyPath: m_AnchorMax.y
      value: 0
      objectReference: {fileID: 0}
    - target: {fileID: 2646316078249921865, guid: f2f46821af0724782be3eee0f473d705,
        type: 3}
      propertyPath: m_AnchorMin.y
      value: 0
      objectReference: {fileID: 0}
    - target: {fileID: 2646316078249921865, guid: f2f46821af0724782be3eee0f473d705,
        type: 3}
      propertyPath: m_SizeDelta.x
      value: 0
      objectReference: {fileID: 0}
    - target: {fileID: 2646316078249921865, guid: f2f46821af0724782be3eee0f473d705,
        type: 3}
      propertyPath: m_SizeDelta.y
      value: 0
      objectReference: {fileID: 0}
    - target: {fileID: 2646316078249921865, guid: f2f46821af0724782be3eee0f473d705,
        type: 3}
      propertyPath: m_AnchoredPosition.x
      value: 0
      objectReference: {fileID: 0}
    - target: {fileID: 2646316078249921865, guid: f2f46821af0724782be3eee0f473d705,
        type: 3}
      propertyPath: m_AnchoredPosition.y
      value: 0
      objectReference: {fileID: 0}
    - target: {fileID: 2889925225881186306, guid: f2f46821af0724782be3eee0f473d705,
        type: 3}
      propertyPath: m_Text
      value: Asolutely
      objectReference: {fileID: 0}
    - target: {fileID: 3153660553800860622, guid: f2f46821af0724782be3eee0f473d705,
        type: 3}
      propertyPath: m_Material
      value: 
      objectReference: {fileID: 2100000, guid: f98012393b5a449c7a1498125aee6b28, type: 2}
    - target: {fileID: 3153660553800860622, guid: f2f46821af0724782be3eee0f473d705,
        type: 3}
      propertyPath: m_RaycastTarget
      value: 0
      objectReference: {fileID: 0}
    - target: {fileID: 3153660553800860622, guid: f2f46821af0724782be3eee0f473d705,
        type: 3}
      propertyPath: m_FontData.m_Font
      value: 
      objectReference: {fileID: 12800000, guid: a160a919950ed4ed881995f5aab37c04,
        type: 2}
    - target: {fileID: 3153660553800860622, guid: f2f46821af0724782be3eee0f473d705,
        type: 3}
      propertyPath: m_FontData.m_FontSize
      value: 120
      objectReference: {fileID: 0}
    - target: {fileID: 3153660553800860622, guid: f2f46821af0724782be3eee0f473d705,
        type: 3}
      propertyPath: m_FontData.m_Alignment
      value: 1
      objectReference: {fileID: 0}
    - target: {fileID: 3153660553800860622, guid: f2f46821af0724782be3eee0f473d705,
        type: 3}
      propertyPath: m_FontData.m_LineSpacing
      value: 0.69
      objectReference: {fileID: 0}
    - target: {fileID: 3153660553800860622, guid: f2f46821af0724782be3eee0f473d705,
        type: 3}
      propertyPath: m_FontData.m_AlignByGeometry
      value: 1
      objectReference: {fileID: 0}
    - target: {fileID: 3196380751882114331, guid: f2f46821af0724782be3eee0f473d705,
        type: 3}
      propertyPath: m_AnchoredPosition.y
      value: -36.57
      objectReference: {fileID: 0}
    - target: {fileID: 3884082358986045331, guid: f2f46821af0724782be3eee0f473d705,
        type: 3}
      propertyPath: m_AnchorMax.y
      value: 0
      objectReference: {fileID: 0}
    - target: {fileID: 3884082358986045331, guid: f2f46821af0724782be3eee0f473d705,
        type: 3}
      propertyPath: m_AnchorMin.y
      value: 0
      objectReference: {fileID: 0}
    - target: {fileID: 3884082358986045331, guid: f2f46821af0724782be3eee0f473d705,
        type: 3}
      propertyPath: m_SizeDelta.x
      value: 0
      objectReference: {fileID: 0}
    - target: {fileID: 3884082358986045331, guid: f2f46821af0724782be3eee0f473d705,
        type: 3}
      propertyPath: m_SizeDelta.y
      value: 0
      objectReference: {fileID: 0}
    - target: {fileID: 3884082358986045331, guid: f2f46821af0724782be3eee0f473d705,
        type: 3}
      propertyPath: m_AnchoredPosition.x
      value: 0
      objectReference: {fileID: 0}
    - target: {fileID: 3884082358986045331, guid: f2f46821af0724782be3eee0f473d705,
        type: 3}
      propertyPath: m_AnchoredPosition.y
      value: 0
      objectReference: {fileID: 0}
    - target: {fileID: 3944577868860804520, guid: f2f46821af0724782be3eee0f473d705,
        type: 3}
      propertyPath: m_Text
      value: Highway MET
      objectReference: {fileID: 0}
    - target: {fileID: 4338583136469751440, guid: f2f46821af0724782be3eee0f473d705,
        type: 3}
      propertyPath: m_SortingOrder
      value: 2
      objectReference: {fileID: 0}
    - target: {fileID: 5863388724450132550, guid: f2f46821af0724782be3eee0f473d705,
        type: 3}
      propertyPath: m_OnClick.m_PersistentCalls.m_Calls.Array.data[0].m_Arguments.m_ObjectArgument
      value: 
      objectReference: {fileID: 11400000, guid: 232edf9496508496ab5689c9148aff9d,
        type: 2}
    - target: {fileID: 6246670214741395208, guid: f2f46821af0724782be3eee0f473d705,
        type: 3}
      propertyPath: IgnoreAutoSwitch
      value: 1
      objectReference: {fileID: 0}
    - target: {fileID: 7694486401191697449, guid: f2f46821af0724782be3eee0f473d705,
        type: 3}
      propertyPath: m_OnClick.m_PersistentCalls.m_Calls.Array.data[0].m_Arguments.m_ObjectArgument
      value: 
      objectReference: {fileID: 11400000, guid: f85abff6aad304c5fa0c514608fb5040,
        type: 2}
    - target: {fileID: 8558467268672968711, guid: f2f46821af0724782be3eee0f473d705,
        type: 3}
      propertyPath: m_Spacing.x
      value: 10
      objectReference: {fileID: 0}
    - target: {fileID: 8558467268672968711, guid: f2f46821af0724782be3eee0f473d705,
        type: 3}
      propertyPath: m_Spacing.y
      value: 10
      objectReference: {fileID: 0}
    - target: {fileID: 8558467268672968711, guid: f2f46821af0724782be3eee0f473d705,
        type: 3}
      propertyPath: m_CellSize.x
      value: 360
      objectReference: {fileID: 0}
    - target: {fileID: 8558467268672968711, guid: f2f46821af0724782be3eee0f473d705,
        type: 3}
      propertyPath: m_CellSize.y
      value: 120
      objectReference: {fileID: 0}
    m_RemovedComponents: []
  m_SourcePrefab: {fileID: 100100000, guid: f2f46821af0724782be3eee0f473d705, type: 3}
--- !u!224 &1725467588157473287 stripped
RectTransform:
  m_CorrespondingSourceObject: {fileID: 5345986551365296638, guid: f2f46821af0724782be3eee0f473d705,
    type: 3}
  m_PrefabInstance: {fileID: 6756197483018675193}
  m_PrefabAsset: {fileID: 0}
--- !u!114 &6756197483941807735 stripped
MonoBehaviour:
  m_CorrespondingSourceObject: {fileID: 1225401742, guid: f2f46821af0724782be3eee0f473d705,
    type: 3}
  m_PrefabInstance: {fileID: 6756197483018675193}
  m_PrefabAsset: {fileID: 0}
  m_GameObject: {fileID: 0}
  m_Enabled: 1
  m_EditorHideFlags: 0
  m_Script: {fileID: 11500000, guid: ddb23566bc0814bb4a9e22acd0f8edaf, type: 3}
  m_Name: 
  m_EditorClassIdentifier: 
