%YAML 1.1
%TAG !u! tag:unity3d.com,2011:
--- !u!114 &11400000
MonoBehaviour:
  m_ObjectHideFlags: 0
  m_CorrespondingSourceObject: {fileID: 0}
  m_PrefabInstance: {fileID: 0}
  m_PrefabAsset: {fileID: 0}
  m_GameObject: {fileID: 0}
  m_Enabled: 1
  m_EditorHideFlags: 0
  m_Script: {fileID: 11500000, guid: 02224727215ed4d90b12b50eda604460, type: 3}
  m_Name: ava idle
  m_EditorClassIdentifier: 
  name: idle
  fps: 4
  sprites:
  - {fileID: 8857250006269023087, guid: 1723895de6fac4247b497ca82fcdd78c, type: 3}
  - {fileID: 7891998644738076277, guid: 1723895de6fac4247b497ca82fcdd78c, type: 3}
